# http://denbi-training.bihealth.org --workers 55 --loaded-duration-minutes 2 --output-dir training-1nodes-55
# {"appUrl":"http://denbi-training.bihealth.org","debugLog":false,"loadedDurationMinutes":2.0,"logLevel":"WARN","outputDir":"training-1nodes-55","overwriteOutput":false,"recordingPath":"recording.log","workers":55}
session_id,worker_id,iteration,event,timestamp,input_line_number,comment
102,45,1,PLAYER_SESSION_CREATE,1602651059867,0,
102,45,1,REQ_HOME_START,1602651059867,4,
102,45,1,REQ_HOME_END,1602651091017,4,
102,45,1,WS_OPEN_START,1602651091017,5,
102,45,1,WS_OPEN_END,1602651091470,5,
102,45,1,PLAYBACK_SLEEPBEFORE_START,1602651091470,6,
102,45,1,PLAYBACK_SLEEPBEFORE_END,1602651091473,6,
102,45,1,WS_SEND_START,1602651091473,6,
102,45,1,WS_SEND_END,1602651091473,6,
102,45,1,WS_RECV_INIT_START,1602651091473,7,
102,45,1,WS_RECV_INIT_END,1602651091609,7,
102,45,1,WS_RECV_START,1602651091609,8,
102,45,1,WS_RECV_END,1602651091899,8,
102,45,1,PLAYBACK_SLEEPBEFORE_START,1602651091899,9,
102,45,1,PLAYBACK_SLEEPBEFORE_END,1602651093844,9,
102,45,1,WS_SEND_START,1602651093844,9,
102,45,1,WS_SEND_END,1602651093844,9,
102,45,1,PLAYBACK_SLEEPBEFORE_START,1602651093844,10,
102,45,1,PLAYBACK_SLEEPBEFORE_END,1602651094392,10,
102,45,1,WS_SEND_START,1602651094392,10,
102,45,1,WS_SEND_END,1602651094392,10,
102,45,1,WS_RECV_START,1602651094392,11,
102,45,1,WS_RECV_END,1602651113484,11,
102,45,1,PLAYBACK_SLEEPBEFORE_START,1602651113484,12,
102,45,1,PLAYBACK_SLEEPBEFORE_END,1602651114891,12,
102,45,1,WS_CLOSE_START,1602651114891,12,
102,45,1,WS_CLOSE_END,1602651114892,12,
102,45,1,PLAYBACK_DONE,1602651114892,0,
