# http://denbi-training.bihealth.org --workers 55 --loaded-duration-minutes 2 --output-dir training-1nodes-55
# {"appUrl":"http://denbi-training.bihealth.org","debugLog":false,"loadedDurationMinutes":2.0,"logLevel":"WARN","outputDir":"training-1nodes-55","overwriteOutput":false,"recordingPath":"recording.log","workers":55}
session_id,worker_id,iteration,event,timestamp,input_line_number,comment
112,2,2,PLAYER_SESSION_CREATE,1602651068375,0,
112,2,2,REQ_HOME_START,1602651068375,4,
112,2,2,REQ_HOME_END,1602651091151,4,
112,2,2,WS_OPEN_START,1602651091151,5,
112,2,2,WS_OPEN_END,1602651091478,5,
112,2,2,PLAYBACK_SLEEPBEFORE_START,1602651091478,6,
112,2,2,PLAYBACK_SLEEPBEFORE_END,1602651091481,6,
112,2,2,WS_SEND_START,1602651091481,6,
112,2,2,WS_SEND_END,1602651091481,6,
112,2,2,WS_RECV_INIT_START,1602651091481,7,
112,2,2,WS_RECV_INIT_END,1602651091671,7,
112,2,2,WS_RECV_START,1602651091671,8,
112,2,2,WS_RECV_END,1602651091973,8,
112,2,2,PLAYBACK_SLEEPBEFORE_START,1602651091973,9,
112,2,2,PLAYBACK_SLEEPBEFORE_END,1602651093918,9,
112,2,2,WS_SEND_START,1602651093918,9,
112,2,2,WS_SEND_END,1602651093919,9,
112,2,2,PLAYBACK_SLEEPBEFORE_START,1602651093919,10,
112,2,2,PLAYBACK_SLEEPBEFORE_END,1602651094466,10,
112,2,2,WS_SEND_START,1602651094466,10,
112,2,2,WS_SEND_END,1602651094466,10,
112,2,2,WS_RECV_START,1602651094466,11,
112,2,2,WS_RECV_END,1602651123347,11,
112,2,2,PLAYBACK_SLEEPBEFORE_START,1602651123347,12,
112,2,2,PLAYBACK_SLEEPBEFORE_END,1602651124754,12,
112,2,2,WS_CLOSE_START,1602651124754,12,
112,2,2,WS_CLOSE_END,1602651124755,12,
112,2,2,PLAYBACK_DONE,1602651124755,0,
