# http://denbi-training.bihealth.org --workers 55 --loaded-duration-minutes 2 --output-dir training-1nodes-55
# {"appUrl":"http://denbi-training.bihealth.org","debugLog":false,"loadedDurationMinutes":2.0,"logLevel":"WARN","outputDir":"training-1nodes-55","overwriteOutput":false,"recordingPath":"recording.log","workers":55}
session_id,worker_id,iteration,event,timestamp,input_line_number,comment
122,13,2,PLAYER_SESSION_CREATE,1602651077444,0,
122,13,2,REQ_HOME_START,1602651077444,4,
122,13,2,REQ_HOME_END,1602651091287,4,
122,13,2,WS_OPEN_START,1602651091287,5,
122,13,2,WS_OPEN_END,1602651091495,5,
122,13,2,PLAYBACK_SLEEPBEFORE_START,1602651091495,6,
122,13,2,PLAYBACK_SLEEPBEFORE_END,1602651091498,6,
122,13,2,WS_SEND_START,1602651091498,6,
122,13,2,WS_SEND_END,1602651091498,6,
122,13,2,WS_RECV_INIT_START,1602651091498,7,
122,13,2,WS_RECV_INIT_END,1602651091729,7,
122,13,2,WS_RECV_START,1602651091729,8,
122,13,2,WS_RECV_END,1602651092066,8,
122,13,2,PLAYBACK_SLEEPBEFORE_START,1602651092067,9,
122,13,2,PLAYBACK_SLEEPBEFORE_END,1602651094012,9,
122,13,2,WS_SEND_START,1602651094012,9,
122,13,2,WS_SEND_END,1602651094012,9,
122,13,2,PLAYBACK_SLEEPBEFORE_START,1602651094012,10,
122,13,2,PLAYBACK_SLEEPBEFORE_END,1602651094559,10,
122,13,2,WS_SEND_START,1602651094559,10,
122,13,2,WS_SEND_END,1602651094560,10,
122,13,2,WS_RECV_START,1602651094560,11,
122,13,2,WS_RECV_END,1602651136029,11,
122,13,2,PLAYBACK_SLEEPBEFORE_START,1602651136029,12,
122,13,2,PLAYBACK_SLEEPBEFORE_END,1602651137436,12,
122,13,2,WS_CLOSE_START,1602651137436,12,
122,13,2,WS_CLOSE_END,1602651137437,12,
122,13,2,PLAYBACK_DONE,1602651137437,0,
