# http://denbi-training.bihealth.org --workers 55 --loaded-duration-minutes 2 --output-dir training-1nodes-55
# {"appUrl":"http://denbi-training.bihealth.org","debugLog":false,"loadedDurationMinutes":2.0,"logLevel":"WARN","outputDir":"training-1nodes-55","overwriteOutput":false,"recordingPath":"recording.log","workers":55}
session_id,worker_id,iteration,event,timestamp,input_line_number,comment
127,15,2,PLAYER_SESSION_CREATE,1602651082529,0,
127,15,2,REQ_HOME_START,1602651082529,4,
127,15,2,REQ_HOME_END,1602651091355,4,
127,15,2,WS_OPEN_START,1602651091355,5,
127,15,2,WS_OPEN_END,1602651091642,5,
127,15,2,PLAYBACK_SLEEPBEFORE_START,1602651091642,6,
127,15,2,PLAYBACK_SLEEPBEFORE_END,1602651091645,6,
127,15,2,WS_SEND_START,1602651091645,6,
127,15,2,WS_SEND_END,1602651091645,6,
127,15,2,WS_RECV_INIT_START,1602651091645,7,
127,15,2,WS_RECV_INIT_END,1602651092096,7,
127,15,2,WS_RECV_START,1602651092096,8,
127,15,2,WS_RECV_END,1602651092120,8,
127,15,2,PLAYBACK_SLEEPBEFORE_START,1602651092120,9,
127,15,2,PLAYBACK_SLEEPBEFORE_END,1602651094065,9,
127,15,2,WS_SEND_START,1602651094065,9,
127,15,2,WS_SEND_END,1602651094065,9,
127,15,2,PLAYBACK_SLEEPBEFORE_START,1602651094066,10,
127,15,2,PLAYBACK_SLEEPBEFORE_END,1602651094613,10,
127,15,2,WS_SEND_START,1602651094613,10,
127,15,2,WS_SEND_END,1602651094613,10,
127,15,2,WS_RECV_START,1602651094615,11,
127,15,2,WS_RECV_END,1602651140167,11,
127,15,2,PLAYBACK_SLEEPBEFORE_START,1602651140167,12,
127,15,2,PLAYBACK_SLEEPBEFORE_END,1602651141574,12,
127,15,2,WS_CLOSE_START,1602651141574,12,
127,15,2,WS_CLOSE_END,1602651141575,12,
127,15,2,PLAYBACK_DONE,1602651141575,0,
