# http://denbi-training.bihealth.org --workers 55 --loaded-duration-minutes 2 --output-dir training-1nodes-55
# {"appUrl":"http://denbi-training.bihealth.org","debugLog":false,"loadedDurationMinutes":2.0,"logLevel":"WARN","outputDir":"training-1nodes-55","overwriteOutput":false,"recordingPath":"recording.log","workers":55}
session_id,worker_id,iteration,event,timestamp,input_line_number,comment
130,20,2,PLAYER_SESSION_CREATE,1602651084921,0,
130,20,2,REQ_HOME_START,1602651084921,4,
130,20,2,REQ_HOME_END,1602651091393,4,
130,20,2,WS_OPEN_START,1602651091393,5,
130,20,2,WS_OPEN_END,1602651091677,5,
130,20,2,PLAYBACK_SLEEPBEFORE_START,1602651091677,6,
130,20,2,PLAYBACK_SLEEPBEFORE_END,1602651091680,6,
130,20,2,WS_SEND_START,1602651091681,6,
130,20,2,WS_SEND_END,1602651091681,6,
130,20,2,WS_RECV_INIT_START,1602651091681,7,
130,20,2,WS_RECV_INIT_END,1602651092108,7,
130,20,2,WS_RECV_START,1602651092108,8,
130,20,2,WS_RECV_END,1602651092125,8,
130,20,2,PLAYBACK_SLEEPBEFORE_START,1602651092126,9,
130,20,2,PLAYBACK_SLEEPBEFORE_END,1602651094071,9,
130,20,2,WS_SEND_START,1602651094071,9,
130,20,2,WS_SEND_END,1602651094071,9,
130,20,2,PLAYBACK_SLEEPBEFORE_START,1602651094071,10,
130,20,2,PLAYBACK_SLEEPBEFORE_END,1602651094618,10,
130,20,2,WS_SEND_START,1602651094618,10,
130,20,2,WS_SEND_END,1602651094619,10,
130,20,2,WS_RECV_START,1602651094619,11,
130,20,2,WS_RECV_END,1602651141109,11,
130,20,2,PLAYBACK_SLEEPBEFORE_START,1602651141109,12,
130,20,2,PLAYBACK_SLEEPBEFORE_END,1602651142516,12,
130,20,2,WS_CLOSE_START,1602651142516,12,
130,20,2,WS_CLOSE_END,1602651142517,12,
130,20,2,PLAYBACK_DONE,1602651142517,0,
