# http://denbi-training.bihealth.org --workers 55 --loaded-duration-minutes 2 --output-dir training-1nodes-55
# {"appUrl":"http://denbi-training.bihealth.org","debugLog":false,"loadedDurationMinutes":2.0,"logLevel":"WARN","outputDir":"training-1nodes-55","overwriteOutput":false,"recordingPath":"recording.log","workers":55}
session_id,worker_id,iteration,event,timestamp,input_line_number,comment
141,31,2,PLAYER_SESSION_CREATE,1602651099183,0,
141,31,2,REQ_HOME_START,1602651099183,4,
141,31,2,REQ_HOME_END,1602651150509,4,
141,31,2,WS_OPEN_START,1602651150509,5,
141,31,2,WS_OPEN_END,1602651151102,5,
141,31,2,PLAYBACK_SLEEPBEFORE_START,1602651151102,6,
141,31,2,PLAYBACK_SLEEPBEFORE_END,1602651151106,6,
141,31,2,WS_SEND_START,1602651151106,6,
141,31,2,WS_SEND_END,1602651151106,6,
141,31,2,WS_RECV_INIT_START,1602651151106,7,
141,31,2,WS_RECV_INIT_END,1602651151189,7,
141,31,2,WS_RECV_START,1602651151189,8,
141,31,2,WS_RECV_END,1602651151534,8,
141,31,2,PLAYBACK_SLEEPBEFORE_START,1602651151534,9,
141,31,2,PLAYBACK_SLEEPBEFORE_END,1602651153479,9,
141,31,2,WS_SEND_START,1602651153479,9,
141,31,2,WS_SEND_END,1602651153479,9,
141,31,2,PLAYBACK_SLEEPBEFORE_START,1602651153479,10,
141,31,2,PLAYBACK_SLEEPBEFORE_END,1602651154026,10,
141,31,2,WS_SEND_START,1602651154027,10,
141,31,2,WS_SEND_END,1602651154027,10,
141,31,2,WS_RECV_START,1602651154027,11,
141,31,2,WS_RECV_END,1602651157424,11,
141,31,2,PLAYBACK_SLEEPBEFORE_START,1602651157424,12,
141,31,2,PLAYBACK_SLEEPBEFORE_END,1602651158831,12,
141,31,2,WS_CLOSE_START,1602651158831,12,
141,31,2,WS_CLOSE_END,1602651158831,12,
141,31,2,PLAYBACK_DONE,1602651158831,0,
