# http://denbi-training.bihealth.org --workers 55 --loaded-duration-minutes 2 --output-dir training-1nodes-55
# {"appUrl":"http://denbi-training.bihealth.org","debugLog":false,"loadedDurationMinutes":2.0,"logLevel":"WARN","outputDir":"training-1nodes-55","overwriteOutput":false,"recordingPath":"recording.log","workers":55}
session_id,worker_id,iteration,event,timestamp,input_line_number,comment
148,36,2,PLAYER_SESSION_CREATE,1602651106326,0,
148,36,2,REQ_HOME_START,1602651106326,4,
148,36,2,REQ_HOME_END,1602651150621,4,
148,36,2,WS_OPEN_START,1602651150621,5,
148,36,2,WS_OPEN_END,1602651151111,5,
148,36,2,PLAYBACK_SLEEPBEFORE_START,1602651151111,6,
148,36,2,PLAYBACK_SLEEPBEFORE_END,1602651151114,6,
148,36,2,WS_SEND_START,1602651151115,6,
148,36,2,WS_SEND_END,1602651151115,6,
148,36,2,WS_RECV_INIT_START,1602651151115,7,
148,36,2,WS_RECV_INIT_END,1602651151264,7,
148,36,2,WS_RECV_START,1602651151265,8,
148,36,2,WS_RECV_END,1602651151715,8,
148,36,2,PLAYBACK_SLEEPBEFORE_START,1602651151715,9,
148,36,2,PLAYBACK_SLEEPBEFORE_END,1602651153660,9,
148,36,2,WS_SEND_START,1602651153660,9,
148,36,2,WS_SEND_END,1602651153660,9,
148,36,2,PLAYBACK_SLEEPBEFORE_START,1602651153660,10,
148,36,2,PLAYBACK_SLEEPBEFORE_END,1602651154208,10,
148,36,2,WS_SEND_START,1602651154208,10,
148,36,2,WS_SEND_END,1602651154208,10,
148,36,2,WS_RECV_START,1602651154208,11,
148,36,2,WS_RECV_END,1602651163490,11,
148,36,2,PLAYBACK_SLEEPBEFORE_START,1602651163490,12,
148,36,2,PLAYBACK_SLEEPBEFORE_END,1602651164897,12,
148,36,2,WS_CLOSE_START,1602651164897,12,
148,36,2,WS_CLOSE_END,1602651164897,12,
148,36,2,PLAYBACK_DONE,1602651164897,0,
