# http://denbi-training.bihealth.org --workers 55 --loaded-duration-minutes 2 --output-dir training-1nodes-55
# {"appUrl":"http://denbi-training.bihealth.org","debugLog":false,"loadedDurationMinutes":2.0,"logLevel":"WARN","outputDir":"training-1nodes-55","overwriteOutput":false,"recordingPath":"recording.log","workers":55}
session_id,worker_id,iteration,event,timestamp,input_line_number,comment
162,1,3,PLAYER_SESSION_CREATE,1602651120475,0,
162,1,3,REQ_HOME_START,1602651120475,4,
162,1,3,REQ_HOME_END,1602651150823,4,
162,1,3,WS_OPEN_START,1602651150823,5,
162,1,3,WS_OPEN_END,1602651151132,5,
162,1,3,PLAYBACK_SLEEPBEFORE_START,1602651151132,6,
162,1,3,PLAYBACK_SLEEPBEFORE_END,1602651151136,6,
162,1,3,WS_SEND_START,1602651151136,6,
162,1,3,WS_SEND_END,1602651151136,6,
162,1,3,WS_RECV_INIT_START,1602651151136,7,
162,1,3,WS_RECV_INIT_END,1602651151448,7,
162,1,3,WS_RECV_START,1602651151448,8,
162,1,3,WS_RECV_END,1602651151906,8,
162,1,3,PLAYBACK_SLEEPBEFORE_START,1602651151906,9,
162,1,3,PLAYBACK_SLEEPBEFORE_END,1602651153851,9,
162,1,3,WS_SEND_START,1602651153851,9,
162,1,3,WS_SEND_END,1602651153851,9,
162,1,3,PLAYBACK_SLEEPBEFORE_START,1602651153851,10,
162,1,3,PLAYBACK_SLEEPBEFORE_END,1602651154399,10,
162,1,3,WS_SEND_START,1602651154399,10,
162,1,3,WS_SEND_END,1602651154399,10,
162,1,3,WS_RECV_START,1602651154399,11,
162,1,3,WS_RECV_END,1602651174274,11,
162,1,3,PLAYBACK_SLEEPBEFORE_START,1602651174274,12,
162,1,3,PLAYBACK_SLEEPBEFORE_END,1602651175681,12,
162,1,3,WS_CLOSE_START,1602651175681,12,
162,1,3,WS_CLOSE_END,1602651175682,12,
162,1,3,PLAYBACK_DONE,1602651175682,0,
