# http://denbi-training.bihealth.org --workers 55 --loaded-duration-minutes 2 --output-dir training-1nodes-55
# {"appUrl":"http://denbi-training.bihealth.org","debugLog":false,"loadedDurationMinutes":2.0,"logLevel":"WARN","outputDir":"training-1nodes-55","overwriteOutput":false,"recordingPath":"recording.log","workers":55}
session_id,worker_id,iteration,event,timestamp,input_line_number,comment
174,11,3,PLAYER_SESSION_CREATE,1602651132975,0,
174,11,3,REQ_HOME_START,1602651132975,4,
174,11,3,REQ_HOME_END,1602651151032,4,
174,11,3,WS_OPEN_START,1602651151032,5,
174,11,3,WS_OPEN_END,1602651151180,5,
174,11,3,PLAYBACK_SLEEPBEFORE_START,1602651151180,6,
174,11,3,PLAYBACK_SLEEPBEFORE_END,1602651151183,6,
174,11,3,WS_SEND_START,1602651151183,6,
174,11,3,WS_SEND_END,1602651151183,6,
174,11,3,WS_RECV_INIT_START,1602651151183,7,
174,11,3,WS_RECV_INIT_END,1602651152012,7,
174,11,3,WS_RECV_START,1602651152013,8,
174,11,3,WS_RECV_END,1602651152133,8,
174,11,3,PLAYBACK_SLEEPBEFORE_START,1602651152133,9,
174,11,3,PLAYBACK_SLEEPBEFORE_END,1602651154078,9,
174,11,3,WS_SEND_START,1602651154078,9,
174,11,3,WS_SEND_END,1602651154078,9,
174,11,3,PLAYBACK_SLEEPBEFORE_START,1602651154078,10,
174,11,3,PLAYBACK_SLEEPBEFORE_END,1602651154626,10,
174,11,3,WS_SEND_START,1602651154626,10,
174,11,3,WS_SEND_END,1602651154626,10,
174,11,3,WS_RECV_START,1602651154626,11,
174,11,3,WS_RECV_END,1602651189091,11,
174,11,3,PLAYBACK_SLEEPBEFORE_START,1602651189091,12,
174,11,3,PLAYBACK_SLEEPBEFORE_END,1602651190499,12,
174,11,3,WS_CLOSE_START,1602651190499,12,
174,11,3,WS_CLOSE_END,1602651190499,12,
174,11,3,PLAYBACK_DONE,1602651190499,0,
