# http://denbi-training.bihealth.org --workers 55 --loaded-duration-minutes 2 --output-dir training-1nodes-55
# {"appUrl":"http://denbi-training.bihealth.org","debugLog":false,"loadedDurationMinutes":2.0,"logLevel":"WARN","outputDir":"training-1nodes-55","overwriteOutput":false,"recordingPath":"recording.log","workers":55}
session_id,worker_id,iteration,event,timestamp,input_line_number,comment
175,9,3,PLAYER_SESSION_CREATE,1602651133898,0,
175,9,3,REQ_HOME_START,1602651133898,4,
175,9,3,REQ_HOME_END,1602651151057,4,
175,9,3,WS_OPEN_START,1602651151057,5,
175,9,3,WS_OPEN_END,1602651151437,5,
175,9,3,PLAYBACK_SLEEPBEFORE_START,1602651151437,6,
175,9,3,PLAYBACK_SLEEPBEFORE_END,1602651151440,6,
175,9,3,WS_SEND_START,1602651151441,6,
175,9,3,WS_SEND_END,1602651151441,6,
175,9,3,WS_RECV_INIT_START,1602651151441,7,
175,9,3,WS_RECV_INIT_END,1602651152145,7,
175,9,3,WS_RECV_START,1602651152146,8,
175,9,3,WS_RECV_END,1602651152160,8,
175,9,3,PLAYBACK_SLEEPBEFORE_START,1602651152160,9,
175,9,3,PLAYBACK_SLEEPBEFORE_END,1602651154105,9,
175,9,3,WS_SEND_START,1602651154105,9,
175,9,3,WS_SEND_END,1602651154105,9,
175,9,3,PLAYBACK_SLEEPBEFORE_START,1602651154105,10,
175,9,3,PLAYBACK_SLEEPBEFORE_END,1602651154653,10,
175,9,3,WS_SEND_START,1602651154653,10,
175,9,3,WS_SEND_END,1602651154653,10,
175,9,3,WS_RECV_START,1602651154653,11,
175,9,3,WS_RECV_END,1602651190017,11,
175,9,3,PLAYBACK_SLEEPBEFORE_START,1602651190017,12,
175,9,3,PLAYBACK_SLEEPBEFORE_END,1602651191425,12,
175,9,3,WS_CLOSE_START,1602651191425,12,
175,9,3,WS_CLOSE_END,1602651191425,12,
175,9,3,PLAYBACK_DONE,1602651191425,0,
