# http://denbi-training.bihealth.org --workers 55 --loaded-duration-minutes 2 --output-dir training-1nodes-55
# {"appUrl":"http://denbi-training.bihealth.org","debugLog":false,"loadedDurationMinutes":2.0,"logLevel":"WARN","outputDir":"training-1nodes-55","overwriteOutput":false,"recordingPath":"recording.log","workers":55}
session_id,worker_id,iteration,event,timestamp,input_line_number,comment
24,24,0,PLAYER_SESSION_CREATE,1602651011434,0,
24,24,0,REQ_HOME_START,1602651011435,4,
24,24,0,REQ_HOME_END,1602651011543,4,
24,24,0,WS_OPEN_START,1602651011543,5,
24,24,0,WS_OPEN_END,1602651011619,5,
24,24,0,PLAYBACK_SLEEPBEFORE_START,1602651011619,6,
24,24,0,PLAYBACK_SLEEPBEFORE_END,1602651011622,6,
24,24,0,WS_SEND_START,1602651011622,6,
24,24,0,WS_SEND_END,1602651011622,6,
24,24,0,WS_RECV_INIT_START,1602651011622,7,
24,24,0,WS_RECV_INIT_END,1602651011629,7,
24,24,0,WS_RECV_START,1602651011629,8,
24,24,0,WS_RECV_END,1602651011671,8,
24,24,0,PLAYBACK_SLEEPBEFORE_START,1602651011671,9,
24,24,0,PLAYBACK_SLEEPBEFORE_END,1602651013616,9,
24,24,0,WS_SEND_START,1602651013616,9,
24,24,0,WS_SEND_END,1602651013616,9,
24,24,0,PLAYBACK_SLEEPBEFORE_START,1602651013617,10,
24,24,0,PLAYBACK_SLEEPBEFORE_END,1602651014164,10,
24,24,0,WS_SEND_START,1602651014164,10,
24,24,0,WS_SEND_END,1602651014164,10,
24,24,0,WS_RECV_START,1602651014164,11,
24,24,0,WS_RECV_END,1602651035408,11,
24,24,0,PLAYBACK_SLEEPBEFORE_START,1602651035408,12,
24,24,0,PLAYBACK_SLEEPBEFORE_END,1602651036815,12,
24,24,0,WS_CLOSE_START,1602651036815,12,
24,24,0,WS_CLOSE_END,1602651036816,12,
24,24,0,PLAYBACK_DONE,1602651036816,0,
