# http://denbi-training.bihealth.org --workers 55 --loaded-duration-minutes 2 --output-dir training-1nodes-55
# {"appUrl":"http://denbi-training.bihealth.org","debugLog":false,"loadedDurationMinutes":2.0,"logLevel":"WARN","outputDir":"training-1nodes-55","overwriteOutput":false,"recordingPath":"recording.log","workers":55}
session_id,worker_id,iteration,event,timestamp,input_line_number,comment
25,25,0,PLAYER_SESSION_CREATE,1602651011543,0,
25,25,0,REQ_HOME_START,1602651011543,4,
25,25,0,REQ_HOME_END,1602651011659,4,
25,25,0,WS_OPEN_START,1602651011660,5,
25,25,0,WS_OPEN_END,1602651011759,5,
25,25,0,PLAYBACK_SLEEPBEFORE_START,1602651011759,6,
25,25,0,PLAYBACK_SLEEPBEFORE_END,1602651011762,6,
25,25,0,WS_SEND_START,1602651011762,6,
25,25,0,WS_SEND_END,1602651011762,6,
25,25,0,WS_RECV_INIT_START,1602651011762,7,
25,25,0,WS_RECV_INIT_END,1602651011769,7,
25,25,0,WS_RECV_START,1602651011769,8,
25,25,0,WS_RECV_END,1602651011810,8,
25,25,0,PLAYBACK_SLEEPBEFORE_START,1602651011810,9,
25,25,0,PLAYBACK_SLEEPBEFORE_END,1602651013755,9,
25,25,0,WS_SEND_START,1602651013755,9,
25,25,0,WS_SEND_END,1602651013755,9,
25,25,0,PLAYBACK_SLEEPBEFORE_START,1602651013755,10,
25,25,0,PLAYBACK_SLEEPBEFORE_END,1602651014303,10,
25,25,0,WS_SEND_START,1602651014303,10,
25,25,0,WS_SEND_END,1602651014303,10,
25,25,0,WS_RECV_START,1602651014303,11,
25,25,0,WS_RECV_END,1602651036284,11,
25,25,0,PLAYBACK_SLEEPBEFORE_START,1602651036284,12,
25,25,0,PLAYBACK_SLEEPBEFORE_END,1602651037692,12,
25,25,0,WS_CLOSE_START,1602651037692,12,
25,25,0,WS_CLOSE_END,1602651037692,12,
25,25,0,PLAYBACK_DONE,1602651037692,0,
