# http://denbi-training.bihealth.org --workers 55 --loaded-duration-minutes 2 --output-dir training-1nodes-55
# {"appUrl":"http://denbi-training.bihealth.org","debugLog":false,"loadedDurationMinutes":2.0,"logLevel":"WARN","outputDir":"training-1nodes-55","overwriteOutput":false,"recordingPath":"recording.log","workers":55}
session_id,worker_id,iteration,event,timestamp,input_line_number,comment
58,3,1,PLAYER_SESSION_CREATE,1602651017857,0,
58,3,1,REQ_HOME_START,1602651017857,4,
58,3,1,REQ_HOME_END,1602651038023,4,
58,3,1,WS_OPEN_START,1602651038023,5,
58,3,1,WS_OPEN_END,1602651039125,5,
58,3,1,PLAYBACK_SLEEPBEFORE_START,1602651039126,6,
58,3,1,PLAYBACK_SLEEPBEFORE_END,1602651039129,6,
58,3,1,WS_SEND_START,1602651039129,6,
58,3,1,WS_SEND_END,1602651039130,6,
58,3,1,WS_RECV_INIT_START,1602651039130,7,
58,3,1,WS_RECV_INIT_END,1602651039418,7,
58,3,1,WS_RECV_START,1602651039418,8,
58,3,1,WS_RECV_END,1602651039596,8,
58,3,1,PLAYBACK_SLEEPBEFORE_START,1602651039596,9,
58,3,1,PLAYBACK_SLEEPBEFORE_END,1602651041542,9,
58,3,1,WS_SEND_START,1602651041542,9,
58,3,1,WS_SEND_END,1602651041542,9,
58,3,1,PLAYBACK_SLEEPBEFORE_START,1602651041542,10,
58,3,1,PLAYBACK_SLEEPBEFORE_END,1602651042089,10,
58,3,1,WS_SEND_START,1602651042089,10,
58,3,1,WS_SEND_END,1602651042089,10,
58,3,1,WS_RECV_START,1602651042089,11,
58,3,1,WS_RECV_END,1602651068519,11,
58,3,1,PLAYBACK_SLEEPBEFORE_START,1602651068519,12,
58,3,1,PLAYBACK_SLEEPBEFORE_END,1602651069926,12,
58,3,1,WS_CLOSE_START,1602651069926,12,
58,3,1,WS_CLOSE_END,1602651069927,12,
58,3,1,PLAYBACK_DONE,1602651069927,0,
