# http://denbi-training.bihealth.org --workers 55 --loaded-duration-minutes 2 --output-dir training-1nodes-55
# {"appUrl":"http://denbi-training.bihealth.org","debugLog":false,"loadedDurationMinutes":2.0,"logLevel":"WARN","outputDir":"training-1nodes-55","overwriteOutput":false,"recordingPath":"recording.log","workers":55}
session_id,worker_id,iteration,event,timestamp,input_line_number,comment
64,9,1,PLAYER_SESSION_CREATE,1602651023319,0,
64,9,1,REQ_HOME_START,1602651023319,4,
64,9,1,REQ_HOME_END,1602651038911,4,
64,9,1,WS_OPEN_START,1602651038911,5,
64,9,1,WS_OPEN_END,1602651039305,5,
64,9,1,PLAYBACK_SLEEPBEFORE_START,1602651039305,6,
64,9,1,PLAYBACK_SLEEPBEFORE_END,1602651039308,6,
64,9,1,WS_SEND_START,1602651039308,6,
64,9,1,WS_SEND_END,1602651039308,6,
64,9,1,WS_RECV_INIT_START,1602651039308,7,
64,9,1,WS_RECV_INIT_END,1602651039634,7,
64,9,1,WS_RECV_START,1602651039634,8,
64,9,1,WS_RECV_END,1602651039664,8,
64,9,1,PLAYBACK_SLEEPBEFORE_START,1602651039664,9,
64,9,1,PLAYBACK_SLEEPBEFORE_END,1602651041610,9,
64,9,1,WS_SEND_START,1602651041610,9,
64,9,1,WS_SEND_END,1602651041610,9,
64,9,1,PLAYBACK_SLEEPBEFORE_START,1602651041610,10,
64,9,1,PLAYBACK_SLEEPBEFORE_END,1602651042157,10,
64,9,1,WS_SEND_START,1602651042157,10,
64,9,1,WS_SEND_END,1602651042157,10,
64,9,1,WS_RECV_START,1602651042157,11,
64,9,1,WS_RECV_END,1602651073368,11,
64,9,1,PLAYBACK_SLEEPBEFORE_START,1602651073368,12,
64,9,1,PLAYBACK_SLEEPBEFORE_END,1602651074775,12,
64,9,1,WS_CLOSE_START,1602651074775,12,
64,9,1,WS_CLOSE_END,1602651074775,12,
64,9,1,PLAYBACK_DONE,1602651074776,0,
