# http://denbi-training.bihealth.org --workers 55 --loaded-duration-minutes 2 --output-dir training-1nodes-55
# {"appUrl":"http://denbi-training.bihealth.org","debugLog":false,"loadedDurationMinutes":2.0,"logLevel":"WARN","outputDir":"training-1nodes-55","overwriteOutput":false,"recordingPath":"recording.log","workers":55}
session_id,worker_id,iteration,event,timestamp,input_line_number,comment
65,10,1,PLAYER_SESSION_CREATE,1602651024189,0,
65,10,1,REQ_HOME_START,1602651024190,4,
65,10,1,REQ_HOME_END,1602651038912,4,
65,10,1,WS_OPEN_START,1602651038912,5,
65,10,1,WS_OPEN_END,1602651039305,5,
65,10,1,PLAYBACK_SLEEPBEFORE_START,1602651039305,6,
65,10,1,PLAYBACK_SLEEPBEFORE_END,1602651039309,6,
65,10,1,WS_SEND_START,1602651039309,6,
65,10,1,WS_SEND_END,1602651039309,6,
65,10,1,WS_RECV_INIT_START,1602651039309,7,
65,10,1,WS_RECV_INIT_END,1602651039646,7,
65,10,1,WS_RECV_START,1602651039646,8,
65,10,1,WS_RECV_END,1602651039694,8,
65,10,1,PLAYBACK_SLEEPBEFORE_START,1602651039694,9,
65,10,1,PLAYBACK_SLEEPBEFORE_END,1602651041639,9,
65,10,1,WS_SEND_START,1602651041639,9,
65,10,1,WS_SEND_END,1602651041639,9,
65,10,1,PLAYBACK_SLEEPBEFORE_START,1602651041639,10,
65,10,1,PLAYBACK_SLEEPBEFORE_END,1602651042187,10,
65,10,1,WS_SEND_START,1602651042187,10,
65,10,1,WS_SEND_END,1602651042187,10,
65,10,1,WS_RECV_START,1602651042187,11,
65,10,1,WS_RECV_END,1602651077177,11,
65,10,1,PLAYBACK_SLEEPBEFORE_START,1602651077177,12,
65,10,1,PLAYBACK_SLEEPBEFORE_END,1602651078584,12,
65,10,1,WS_CLOSE_START,1602651078585,12,
65,10,1,WS_CLOSE_END,1602651078585,12,
65,10,1,PLAYBACK_DONE,1602651078585,0,
