# http://denbi-training.bihealth.org --workers 55 --loaded-duration-minutes 2 --output-dir training-1nodes-55
# {"appUrl":"http://denbi-training.bihealth.org","debugLog":false,"loadedDurationMinutes":2.0,"logLevel":"WARN","outputDir":"training-1nodes-55","overwriteOutput":false,"recordingPath":"recording.log","workers":55}
session_id,worker_id,iteration,event,timestamp,input_line_number,comment
67,12,1,PLAYER_SESSION_CREATE,1602651025986,0,
67,12,1,REQ_HOME_START,1602651025986,4,
67,12,1,REQ_HOME_END,1602651038924,4,
67,12,1,WS_OPEN_START,1602651038924,5,
67,12,1,WS_OPEN_END,1602651039302,5,
67,12,1,PLAYBACK_SLEEPBEFORE_START,1602651039302,6,
67,12,1,PLAYBACK_SLEEPBEFORE_END,1602651039306,6,
67,12,1,WS_SEND_START,1602651039306,6,
67,12,1,WS_SEND_END,1602651039306,6,
67,12,1,WS_RECV_INIT_START,1602651039307,7,
67,12,1,WS_RECV_INIT_END,1602651039638,7,
67,12,1,WS_RECV_START,1602651039638,8,
67,12,1,WS_RECV_END,1602651039672,8,
67,12,1,PLAYBACK_SLEEPBEFORE_START,1602651039672,9,
67,12,1,PLAYBACK_SLEEPBEFORE_END,1602651041617,9,
67,12,1,WS_SEND_START,1602651041617,9,
67,12,1,WS_SEND_END,1602651041617,9,
67,12,1,PLAYBACK_SLEEPBEFORE_START,1602651041617,10,
67,12,1,PLAYBACK_SLEEPBEFORE_END,1602651042164,10,
67,12,1,WS_SEND_START,1602651042165,10,
67,12,1,WS_SEND_END,1602651042165,10,
67,12,1,WS_RECV_START,1602651042165,11,
67,12,1,WS_RECV_END,1602651074202,11,
67,12,1,PLAYBACK_SLEEPBEFORE_START,1602651074202,12,
67,12,1,PLAYBACK_SLEEPBEFORE_END,1602651075610,12,
67,12,1,WS_CLOSE_START,1602651075610,12,
67,12,1,WS_CLOSE_END,1602651075610,12,
67,12,1,PLAYBACK_DONE,1602651075611,0,
