# http://denbi-training.bihealth.org --workers 55 --loaded-duration-minutes 2 --output-dir training-1nodes-55
# {"appUrl":"http://denbi-training.bihealth.org","debugLog":false,"loadedDurationMinutes":2.0,"logLevel":"WARN","outputDir":"training-1nodes-55","overwriteOutput":false,"recordingPath":"recording.log","workers":55}
session_id,worker_id,iteration,event,timestamp,input_line_number,comment
74,19,1,PLAYER_SESSION_CREATE,1602651032310,0,
74,19,1,REQ_HOME_START,1602651032310,4,
74,19,1,REQ_HOME_END,1602651039030,4,
74,19,1,WS_OPEN_START,1602651039030,5,
74,19,1,WS_OPEN_END,1602651039521,5,
74,19,1,PLAYBACK_SLEEPBEFORE_START,1602651039521,6,
74,19,1,PLAYBACK_SLEEPBEFORE_END,1602651039525,6,
74,19,1,WS_SEND_START,1602651039525,6,
74,19,1,WS_SEND_END,1602651039525,6,
74,19,1,WS_RECV_INIT_START,1602651039525,7,
74,19,1,WS_RECV_INIT_END,1602651039752,7,
74,19,1,WS_RECV_START,1602651039752,8,
74,19,1,WS_RECV_END,1602651039780,8,
74,19,1,PLAYBACK_SLEEPBEFORE_START,1602651039780,9,
74,19,1,PLAYBACK_SLEEPBEFORE_END,1602651041725,9,
74,19,1,WS_SEND_START,1602651041725,9,
74,19,1,WS_SEND_END,1602651041726,9,
74,19,1,PLAYBACK_SLEEPBEFORE_START,1602651041726,10,
74,19,1,PLAYBACK_SLEEPBEFORE_END,1602651042273,10,
74,19,1,WS_SEND_START,1602651042273,10,
74,19,1,WS_SEND_END,1602651042273,10,
74,19,1,WS_RECV_START,1602651042273,11,
74,19,1,WS_RECV_END,1602651082390,11,
74,19,1,PLAYBACK_SLEEPBEFORE_START,1602651082390,12,
74,19,1,PLAYBACK_SLEEPBEFORE_END,1602651083797,12,
74,19,1,WS_CLOSE_START,1602651083797,12,
74,19,1,WS_CLOSE_END,1602651083798,12,
74,19,1,PLAYBACK_DONE,1602651083798,0,
