# http://denbi-training.bihealth.org --workers 55 --loaded-duration-minutes 2 --output-dir training-1nodes-55
# {"appUrl":"http://denbi-training.bihealth.org","debugLog":false,"loadedDurationMinutes":2.0,"logLevel":"WARN","outputDir":"training-1nodes-55","overwriteOutput":false,"recordingPath":"recording.log","workers":55}
session_id,worker_id,iteration,event,timestamp,input_line_number,comment
7,7,0,PLAYER_SESSION_CREATE,1602651009579,0,
7,7,0,REQ_HOME_START,1602651009579,4,
7,7,0,REQ_HOME_END,1602651009673,4,
7,7,0,WS_OPEN_START,1602651009673,5,
7,7,0,WS_OPEN_END,1602651009759,5,
7,7,0,PLAYBACK_SLEEPBEFORE_START,1602651009759,6,
7,7,0,PLAYBACK_SLEEPBEFORE_END,1602651009762,6,
7,7,0,WS_SEND_START,1602651009762,6,
7,7,0,WS_SEND_END,1602651009762,6,
7,7,0,WS_RECV_INIT_START,1602651009762,7,
7,7,0,WS_RECV_INIT_END,1602651009767,7,
7,7,0,WS_RECV_START,1602651009767,8,
7,7,0,WS_RECV_END,1602651009805,8,
7,7,0,PLAYBACK_SLEEPBEFORE_START,1602651009805,9,
7,7,0,PLAYBACK_SLEEPBEFORE_END,1602651011750,9,
7,7,0,WS_SEND_START,1602651011750,9,
7,7,0,WS_SEND_END,1602651011750,9,
7,7,0,PLAYBACK_SLEEPBEFORE_START,1602651011750,10,
7,7,0,PLAYBACK_SLEEPBEFORE_END,1602651012297,10,
7,7,0,WS_SEND_START,1602651012297,10,
7,7,0,WS_SEND_END,1602651012298,10,
7,7,0,WS_RECV_START,1602651012298,11,
7,7,0,WS_RECV_END,1602651019855,11,
7,7,0,PLAYBACK_SLEEPBEFORE_START,1602651019855,12,
7,7,0,PLAYBACK_SLEEPBEFORE_END,1602651021262,12,
7,7,0,WS_CLOSE_START,1602651021262,12,
7,7,0,WS_CLOSE_END,1602651021263,12,
7,7,0,PLAYBACK_DONE,1602651021263,0,
