# http://denbi-training.bihealth.org --workers 55 --loaded-duration-minutes 2 --output-dir training-1nodes-55
# {"appUrl":"http://denbi-training.bihealth.org","debugLog":false,"loadedDurationMinutes":2.0,"logLevel":"WARN","outputDir":"training-1nodes-55","overwriteOutput":false,"recordingPath":"recording.log","workers":55}
session_id,worker_id,iteration,event,timestamp,input_line_number,comment
82,27,1,PLAYER_SESSION_CREATE,1602651039267,0,
82,27,1,REQ_HOME_START,1602651039267,4,
82,27,1,REQ_HOME_END,1602651039874,4,
82,27,1,WS_OPEN_START,1602651039874,5,
82,27,1,WS_OPEN_END,1602651039946,5,
82,27,1,PLAYBACK_SLEEPBEFORE_START,1602651039947,6,
82,27,1,PLAYBACK_SLEEPBEFORE_END,1602651039950,6,
82,27,1,WS_SEND_START,1602651039950,6,
82,27,1,WS_SEND_END,1602651039950,6,
82,27,1,WS_RECV_INIT_START,1602651039950,7,
82,27,1,WS_RECV_INIT_END,1602651039951,7,
82,27,1,WS_RECV_START,1602651039951,8,
82,27,1,WS_RECV_END,1602651039991,8,
82,27,1,PLAYBACK_SLEEPBEFORE_START,1602651039991,9,
82,27,1,PLAYBACK_SLEEPBEFORE_END,1602651041936,9,
82,27,1,WS_SEND_START,1602651041936,9,
82,27,1,WS_SEND_END,1602651041936,9,
82,27,1,PLAYBACK_SLEEPBEFORE_START,1602651041936,10,
82,27,1,PLAYBACK_SLEEPBEFORE_END,1602651042484,10,
82,27,1,WS_SEND_START,1602651042484,10,
82,27,1,WS_SEND_END,1602651042484,10,
82,27,1,WS_RECV_START,1602651042484,11,
82,27,1,WS_RECV_END,1602651090012,11,
82,27,1,PLAYBACK_SLEEPBEFORE_START,1602651090012,12,
82,27,1,PLAYBACK_SLEEPBEFORE_END,1602651091419,12,
82,27,1,WS_CLOSE_START,1602651091419,12,
82,27,1,WS_CLOSE_END,1602651091420,12,
82,27,1,PLAYBACK_DONE,1602651091420,0,
