# http://denbi-training.bihealth.org --workers 55 --loaded-duration-minutes 2 --output-dir training-15nodes-55
# {"appUrl":"http://denbi-training.bihealth.org","debugLog":false,"loadedDurationMinutes":2.0,"logLevel":"WARN","outputDir":"training-15nodes-55","overwriteOutput":false,"recordingPath":"recording.log","workers":55}
session_id,worker_id,iteration,event,timestamp,input_line_number,comment
102,34,1,PLAYER_SESSION_CREATE,1602650755888,0,
102,34,1,REQ_HOME_START,1602650755888,4,
102,34,1,REQ_HOME_END,1602650755986,4,
102,34,1,WS_OPEN_START,1602650755986,5,
102,34,1,WS_OPEN_END,1602650756273,5,
102,34,1,PLAYBACK_SLEEPBEFORE_START,1602650756273,6,
102,34,1,PLAYBACK_SLEEPBEFORE_END,1602650756277,6,
102,34,1,WS_SEND_START,1602650756277,6,
102,34,1,WS_SEND_END,1602650756277,6,
102,34,1,WS_RECV_INIT_START,1602650756277,7,
102,34,1,WS_RECV_INIT_END,1602650756283,7,
102,34,1,WS_RECV_START,1602650756283,8,
102,34,1,WS_RECV_END,1602650756340,8,
102,34,1,PLAYBACK_SLEEPBEFORE_START,1602650756340,9,
102,34,1,PLAYBACK_SLEEPBEFORE_END,1602650758286,9,
102,34,1,WS_SEND_START,1602650758286,9,
102,34,1,WS_SEND_END,1602650758286,9,
102,34,1,PLAYBACK_SLEEPBEFORE_START,1602650758286,10,
102,34,1,PLAYBACK_SLEEPBEFORE_END,1602650758833,10,
102,34,1,WS_SEND_START,1602650758833,10,
102,34,1,WS_SEND_END,1602650758833,10,
102,34,1,WS_RECV_START,1602650758833,11,
102,34,1,WS_RECV_END,1602650761134,11,
102,34,1,PLAYBACK_SLEEPBEFORE_START,1602650761134,12,
102,34,1,PLAYBACK_SLEEPBEFORE_END,1602650762541,12,
102,34,1,WS_CLOSE_START,1602650762541,12,
102,34,1,WS_CLOSE_END,1602650762541,12,
102,34,1,PLAYBACK_DONE,1602650762541,0,
