# http://denbi-training.bihealth.org --workers 55 --loaded-duration-minutes 2 --output-dir training-15nodes-55
# {"appUrl":"http://denbi-training.bihealth.org","debugLog":false,"loadedDurationMinutes":2.0,"logLevel":"WARN","outputDir":"training-15nodes-55","overwriteOutput":false,"recordingPath":"recording.log","workers":55}
session_id,worker_id,iteration,event,timestamp,input_line_number,comment
110,8,2,PLAYER_SESSION_CREATE,1602650756806,0,
110,8,2,REQ_HOME_START,1602650756806,4,
110,8,2,REQ_HOME_END,1602650756932,4,
110,8,2,WS_OPEN_START,1602650756932,5,
110,8,2,WS_OPEN_END,1602650757009,5,
110,8,2,PLAYBACK_SLEEPBEFORE_START,1602650757009,6,
110,8,2,PLAYBACK_SLEEPBEFORE_END,1602650757012,6,
110,8,2,WS_SEND_START,1602650757012,6,
110,8,2,WS_SEND_END,1602650757012,6,
110,8,2,WS_RECV_INIT_START,1602650757012,7,
110,8,2,WS_RECV_INIT_END,1602650757012,7,
110,8,2,WS_RECV_START,1602650757012,8,
110,8,2,WS_RECV_END,1602650757055,8,
110,8,2,PLAYBACK_SLEEPBEFORE_START,1602650757055,9,
110,8,2,PLAYBACK_SLEEPBEFORE_END,1602650759001,9,
110,8,2,WS_SEND_START,1602650759001,9,
110,8,2,WS_SEND_END,1602650759001,9,
110,8,2,PLAYBACK_SLEEPBEFORE_START,1602650759001,10,
110,8,2,PLAYBACK_SLEEPBEFORE_END,1602650759548,10,
110,8,2,WS_SEND_START,1602650759548,10,
110,8,2,WS_SEND_END,1602650759548,10,
110,8,2,WS_RECV_START,1602650759548,11,
110,8,2,WS_RECV_END,1602650763347,11,
110,8,2,PLAYBACK_SLEEPBEFORE_START,1602650763347,12,
110,8,2,PLAYBACK_SLEEPBEFORE_END,1602650764754,12,
110,8,2,WS_CLOSE_START,1602650764754,12,
110,8,2,WS_CLOSE_END,1602650764755,12,
110,8,2,PLAYBACK_DONE,1602650764755,0,
