# http://denbi-training.bihealth.org --workers 55 --loaded-duration-minutes 2 --output-dir training-15nodes-55
# {"appUrl":"http://denbi-training.bihealth.org","debugLog":false,"loadedDurationMinutes":2.0,"logLevel":"WARN","outputDir":"training-15nodes-55","overwriteOutput":false,"recordingPath":"recording.log","workers":55}
session_id,worker_id,iteration,event,timestamp,input_line_number,comment
124,51,1,PLAYER_SESSION_CREATE,1602650757928,0,
124,51,1,REQ_HOME_START,1602650757928,4,
124,51,1,REQ_HOME_END,1602650758028,4,
124,51,1,WS_OPEN_START,1602650758028,5,
124,51,1,WS_OPEN_END,1602650758621,5,
124,51,1,PLAYBACK_SLEEPBEFORE_START,1602650758621,6,
124,51,1,PLAYBACK_SLEEPBEFORE_END,1602650758624,6,
124,51,1,WS_SEND_START,1602650758624,6,
124,51,1,WS_SEND_END,1602650758624,6,
124,51,1,WS_RECV_INIT_START,1602650758624,7,
124,51,1,WS_RECV_INIT_END,1602650758628,7,
124,51,1,WS_RECV_START,1602650758628,8,
124,51,1,WS_RECV_END,1602650758673,8,
124,51,1,PLAYBACK_SLEEPBEFORE_START,1602650758673,9,
124,51,1,PLAYBACK_SLEEPBEFORE_END,1602650760619,9,
124,51,1,WS_SEND_START,1602650760619,9,
124,51,1,WS_SEND_END,1602650760619,9,
124,51,1,PLAYBACK_SLEEPBEFORE_START,1602650760619,10,
124,51,1,PLAYBACK_SLEEPBEFORE_END,1602650761166,10,
124,51,1,WS_SEND_START,1602650761166,10,
124,51,1,WS_SEND_END,1602650761166,10,
124,51,1,WS_RECV_START,1602650761166,11,
124,51,1,WS_RECV_END,1602650762440,11,
124,51,1,PLAYBACK_SLEEPBEFORE_START,1602650762440,12,
124,51,1,PLAYBACK_SLEEPBEFORE_END,1602650763848,12,
124,51,1,WS_CLOSE_START,1602650763848,12,
124,51,1,WS_CLOSE_END,1602650763848,12,
124,51,1,PLAYBACK_DONE,1602650763848,0,
