# http://denbi-training.bihealth.org --workers 55 --loaded-duration-minutes 2 --output-dir training-15nodes-55
# {"appUrl":"http://denbi-training.bihealth.org","debugLog":false,"loadedDurationMinutes":2.0,"logLevel":"WARN","outputDir":"training-15nodes-55","overwriteOutput":false,"recordingPath":"recording.log","workers":55}
session_id,worker_id,iteration,event,timestamp,input_line_number,comment
136,11,2,PLAYER_SESSION_CREATE,1602650760063,0,
136,11,2,REQ_HOME_START,1602650760063,4,
136,11,2,REQ_HOME_END,1602650760462,4,
136,11,2,WS_OPEN_START,1602650760462,5,
136,11,2,WS_OPEN_END,1602650762284,5,
136,11,2,PLAYBACK_SLEEPBEFORE_START,1602650762284,6,
136,11,2,PLAYBACK_SLEEPBEFORE_END,1602650762287,6,
136,11,2,WS_SEND_START,1602650762287,6,
136,11,2,WS_SEND_END,1602650762287,6,
136,11,2,WS_RECV_INIT_START,1602650762287,7,
136,11,2,WS_RECV_INIT_END,1602650763220,7,
136,11,2,WS_RECV_START,1602650763220,8,
136,11,2,WS_RECV_END,1602650763229,8,
136,11,2,PLAYBACK_SLEEPBEFORE_START,1602650763229,9,
136,11,2,PLAYBACK_SLEEPBEFORE_END,1602650765174,9,
136,11,2,WS_SEND_START,1602650765174,9,
136,11,2,WS_SEND_END,1602650765174,9,
136,11,2,PLAYBACK_SLEEPBEFORE_START,1602650765174,10,
136,11,2,PLAYBACK_SLEEPBEFORE_END,1602650765721,10,
136,11,2,WS_SEND_START,1602650765722,10,
136,11,2,WS_SEND_END,1602650765722,10,
136,11,2,WS_RECV_START,1602650765722,11,
136,11,2,WS_RECV_END,1602650767497,11,
136,11,2,PLAYBACK_SLEEPBEFORE_START,1602650767497,12,
136,11,2,PLAYBACK_SLEEPBEFORE_END,1602650768905,12,
136,11,2,WS_CLOSE_START,1602650768905,12,
136,11,2,WS_CLOSE_END,1602650768905,12,
136,11,2,PLAYBACK_DONE,1602650768905,0,
