# http://denbi-training.bihealth.org --workers 55 --loaded-duration-minutes 2 --output-dir training-15nodes-55
# {"appUrl":"http://denbi-training.bihealth.org","debugLog":false,"loadedDurationMinutes":2.0,"logLevel":"WARN","outputDir":"training-15nodes-55","overwriteOutput":false,"recordingPath":"recording.log","workers":55}
session_id,worker_id,iteration,event,timestamp,input_line_number,comment
143,4,3,PLAYER_SESSION_CREATE,1602650761212,0,
143,4,3,REQ_HOME_START,1602650761212,4,
143,4,3,REQ_HOME_END,1602650763055,4,
143,4,3,WS_OPEN_START,1602650763055,5,
143,4,3,WS_OPEN_END,1602650763153,5,
143,4,3,PLAYBACK_SLEEPBEFORE_START,1602650763153,6,
143,4,3,PLAYBACK_SLEEPBEFORE_END,1602650763156,6,
143,4,3,WS_SEND_START,1602650763156,6,
143,4,3,WS_SEND_END,1602650763156,6,
143,4,3,WS_RECV_INIT_START,1602650763156,7,
143,4,3,WS_RECV_INIT_END,1602650763166,7,
143,4,3,WS_RECV_START,1602650763166,8,
143,4,3,WS_RECV_END,1602650763215,8,
143,4,3,PLAYBACK_SLEEPBEFORE_START,1602650763215,9,
143,4,3,PLAYBACK_SLEEPBEFORE_END,1602650765160,9,
143,4,3,WS_SEND_START,1602650765160,9,
143,4,3,WS_SEND_END,1602650765160,9,
143,4,3,PLAYBACK_SLEEPBEFORE_START,1602650765160,10,
143,4,3,PLAYBACK_SLEEPBEFORE_END,1602650765707,10,
143,4,3,WS_SEND_START,1602650765707,10,
143,4,3,WS_SEND_END,1602650765708,10,
143,4,3,WS_RECV_START,1602650765708,11,
143,4,3,WS_RECV_END,1602650767118,11,
143,4,3,PLAYBACK_SLEEPBEFORE_START,1602650767118,12,
143,4,3,PLAYBACK_SLEEPBEFORE_END,1602650768525,12,
143,4,3,WS_CLOSE_START,1602650768526,12,
143,4,3,WS_CLOSE_END,1602650768526,12,
143,4,3,PLAYBACK_DONE,1602650768526,0,
