# http://denbi-training.bihealth.org --workers 55 --loaded-duration-minutes 2 --output-dir training-15nodes-55
# {"appUrl":"http://denbi-training.bihealth.org","debugLog":false,"loadedDurationMinutes":2.0,"logLevel":"WARN","outputDir":"training-15nodes-55","overwriteOutput":false,"recordingPath":"recording.log","workers":55}
session_id,worker_id,iteration,event,timestamp,input_line_number,comment
147,53,2,PLAYER_SESSION_CREATE,1602650761785,0,
147,53,2,REQ_HOME_START,1602650761785,4,
147,53,2,REQ_HOME_END,1602650762748,4,
147,53,2,WS_OPEN_START,1602650762748,5,
147,53,2,WS_OPEN_END,1602650762824,5,
147,53,2,PLAYBACK_SLEEPBEFORE_START,1602650762824,6,
147,53,2,PLAYBACK_SLEEPBEFORE_END,1602650762827,6,
147,53,2,WS_SEND_START,1602650762827,6,
147,53,2,WS_SEND_END,1602650762827,6,
147,53,2,WS_RECV_INIT_START,1602650762827,7,
147,53,2,WS_RECV_INIT_END,1602650762829,7,
147,53,2,WS_RECV_START,1602650762829,8,
147,53,2,WS_RECV_END,1602650762871,8,
147,53,2,PLAYBACK_SLEEPBEFORE_START,1602650762871,9,
147,53,2,PLAYBACK_SLEEPBEFORE_END,1602650764816,9,
147,53,2,WS_SEND_START,1602650764816,9,
147,53,2,WS_SEND_END,1602650764816,9,
147,53,2,PLAYBACK_SLEEPBEFORE_START,1602650764816,10,
147,53,2,PLAYBACK_SLEEPBEFORE_END,1602650765364,10,
147,53,2,WS_SEND_START,1602650765364,10,
147,53,2,WS_SEND_END,1602650765364,10,
147,53,2,WS_RECV_START,1602650765364,11,
147,53,2,WS_RECV_END,1602650768108,11,
147,53,2,PLAYBACK_SLEEPBEFORE_START,1602650768108,12,
147,53,2,PLAYBACK_SLEEPBEFORE_END,1602650769515,12,
147,53,2,WS_CLOSE_START,1602650769515,12,
147,53,2,WS_CLOSE_END,1602650769515,12,
147,53,2,PLAYBACK_DONE,1602650769515,0,
