# http://denbi-training.bihealth.org --workers 55 --loaded-duration-minutes 2 --output-dir training-15nodes-55
# {"appUrl":"http://denbi-training.bihealth.org","debugLog":false,"loadedDurationMinutes":2.0,"logLevel":"WARN","outputDir":"training-15nodes-55","overwriteOutput":false,"recordingPath":"recording.log","workers":55}
session_id,worker_id,iteration,event,timestamp,input_line_number,comment
162,38,2,PLAYER_SESSION_CREATE,1602650763399,0,
162,38,2,REQ_HOME_START,1602650763399,4,
162,38,2,REQ_HOME_END,1602650763505,4,
162,38,2,WS_OPEN_START,1602650763505,5,
162,38,2,WS_OPEN_END,1602650763605,5,
162,38,2,PLAYBACK_SLEEPBEFORE_START,1602650763605,6,
162,38,2,PLAYBACK_SLEEPBEFORE_END,1602650763608,6,
162,38,2,WS_SEND_START,1602650763608,6,
162,38,2,WS_SEND_END,1602650763608,6,
162,38,2,WS_RECV_INIT_START,1602650763608,7,
162,38,2,WS_RECV_INIT_END,1602650763608,7,
162,38,2,WS_RECV_START,1602650763608,8,
162,38,2,WS_RECV_END,1602650763651,8,
162,38,2,PLAYBACK_SLEEPBEFORE_START,1602650763651,9,
162,38,2,PLAYBACK_SLEEPBEFORE_END,1602650765597,9,
162,38,2,WS_SEND_START,1602650765597,9,
162,38,2,WS_SEND_END,1602650765597,9,
162,38,2,PLAYBACK_SLEEPBEFORE_START,1602650765597,10,
162,38,2,PLAYBACK_SLEEPBEFORE_END,1602650766144,10,
162,38,2,WS_SEND_START,1602650766144,10,
162,38,2,WS_SEND_END,1602650766144,10,
162,38,2,WS_RECV_START,1602650766144,11,
162,38,2,WS_RECV_END,1602650769167,11,
162,38,2,PLAYBACK_SLEEPBEFORE_START,1602650769167,12,
162,38,2,PLAYBACK_SLEEPBEFORE_END,1602650770574,12,
162,38,2,WS_CLOSE_START,1602650770574,12,
162,38,2,WS_CLOSE_END,1602650770574,12,
162,38,2,PLAYBACK_DONE,1602650770574,0,
