# http://denbi-training.bihealth.org --workers 55 --loaded-duration-minutes 2 --output-dir training-15nodes-55
# {"appUrl":"http://denbi-training.bihealth.org","debugLog":false,"loadedDurationMinutes":2.0,"logLevel":"WARN","outputDir":"training-15nodes-55","overwriteOutput":false,"recordingPath":"recording.log","workers":55}
session_id,worker_id,iteration,event,timestamp,input_line_number,comment
172,1,3,PLAYER_SESSION_CREATE,1602650764440,0,
172,1,3,REQ_HOME_START,1602650764440,4,
172,1,3,REQ_HOME_END,1602650764543,4,
172,1,3,WS_OPEN_START,1602650764543,5,
172,1,3,WS_OPEN_END,1602650765288,5,
172,1,3,PLAYBACK_SLEEPBEFORE_START,1602650765288,6,
172,1,3,PLAYBACK_SLEEPBEFORE_END,1602650765291,6,
172,1,3,WS_SEND_START,1602650765291,6,
172,1,3,WS_SEND_END,1602650765291,6,
172,1,3,WS_RECV_INIT_START,1602650765291,7,
172,1,3,WS_RECV_INIT_END,1602650765298,7,
172,1,3,WS_RECV_START,1602650765299,8,
172,1,3,WS_RECV_END,1602650766409,8,
172,1,3,PLAYBACK_SLEEPBEFORE_START,1602650766409,9,
172,1,3,PLAYBACK_SLEEPBEFORE_END,1602650768354,9,
172,1,3,WS_SEND_START,1602650768354,9,
172,1,3,WS_SEND_END,1602650768354,9,
172,1,3,PLAYBACK_SLEEPBEFORE_START,1602650768354,10,
172,1,3,PLAYBACK_SLEEPBEFORE_END,1602650768902,10,
172,1,3,WS_SEND_START,1602650768902,10,
172,1,3,WS_SEND_END,1602650768902,10,
172,1,3,WS_RECV_START,1602650768902,11,
172,1,3,WS_RECV_END,1602650769896,11,
172,1,3,PLAYBACK_SLEEPBEFORE_START,1602650769896,12,
172,1,3,PLAYBACK_SLEEPBEFORE_END,1602650771304,12,
172,1,3,WS_CLOSE_START,1602650771304,12,
172,1,3,WS_CLOSE_END,1602650771304,12,
172,1,3,PLAYBACK_DONE,1602650771304,0,
