# http://denbi-training.bihealth.org --workers 55 --loaded-duration-minutes 2 --output-dir training-15nodes-55
# {"appUrl":"http://denbi-training.bihealth.org","debugLog":false,"loadedDurationMinutes":2.0,"logLevel":"WARN","outputDir":"training-15nodes-55","overwriteOutput":false,"recordingPath":"recording.log","workers":55}
session_id,worker_id,iteration,event,timestamp,input_line_number,comment
173,42,2,PLAYER_SESSION_CREATE,1602650764504,0,
173,42,2,REQ_HOME_START,1602650764504,4,
173,42,2,REQ_HOME_END,1602650766553,4,
173,42,2,WS_OPEN_START,1602650766553,5,
173,42,2,WS_OPEN_END,1602650769926,5,
173,42,2,PLAYBACK_SLEEPBEFORE_START,1602650769926,6,
173,42,2,PLAYBACK_SLEEPBEFORE_END,1602650769929,6,
173,42,2,WS_SEND_START,1602650769929,6,
173,42,2,WS_SEND_END,1602650769929,6,
173,42,2,WS_RECV_INIT_START,1602650769929,7,
173,42,2,WS_RECV_INIT_END,1602650770952,7,
173,42,2,WS_RECV_START,1602650770952,8,
173,42,2,WS_RECV_END,1602650770967,8,
173,42,2,PLAYBACK_SLEEPBEFORE_START,1602650770967,9,
173,42,2,PLAYBACK_SLEEPBEFORE_END,1602650772912,9,
173,42,2,WS_SEND_START,1602650772912,9,
173,42,2,WS_SEND_END,1602650772912,9,
173,42,2,PLAYBACK_SLEEPBEFORE_START,1602650772912,10,
173,42,2,PLAYBACK_SLEEPBEFORE_END,1602650773459,10,
173,42,2,WS_SEND_START,1602650773459,10,
173,42,2,WS_SEND_END,1602650773459,10,
173,42,2,WS_RECV_START,1602650773459,11,
173,42,2,WS_RECV_END,1602650775397,11,
173,42,2,PLAYBACK_SLEEPBEFORE_START,1602650775397,12,
173,42,2,PLAYBACK_SLEEPBEFORE_END,1602650776804,12,
173,42,2,WS_CLOSE_START,1602650776804,12,
173,42,2,WS_CLOSE_END,1602650776804,12,
173,42,2,PLAYBACK_DONE,1602650776804,0,
