# http://denbi-training.bihealth.org --workers 55 --loaded-duration-minutes 2 --output-dir training-15nodes-55
# {"appUrl":"http://denbi-training.bihealth.org","debugLog":false,"loadedDurationMinutes":2.0,"logLevel":"WARN","outputDir":"training-15nodes-55","overwriteOutput":false,"recordingPath":"recording.log","workers":55}
session_id,worker_id,iteration,event,timestamp,input_line_number,comment
196,4,4,PLAYER_SESSION_CREATE,1602650768526,0,
196,4,4,REQ_HOME_START,1602650768526,4,
196,4,4,REQ_HOME_END,1602650770637,4,
196,4,4,WS_OPEN_START,1602650770637,5,
196,4,4,WS_OPEN_END,1602650770712,5,
196,4,4,PLAYBACK_SLEEPBEFORE_START,1602650770712,6,
196,4,4,PLAYBACK_SLEEPBEFORE_END,1602650770716,6,
196,4,4,WS_SEND_START,1602650770716,6,
196,4,4,WS_SEND_END,1602650770716,6,
196,4,4,WS_RECV_INIT_START,1602650770716,7,
196,4,4,WS_RECV_INIT_END,1602650770720,7,
196,4,4,WS_RECV_START,1602650770720,8,
196,4,4,WS_RECV_END,1602650770759,8,
196,4,4,PLAYBACK_SLEEPBEFORE_START,1602650770759,9,
196,4,4,PLAYBACK_SLEEPBEFORE_END,1602650772704,9,
196,4,4,WS_SEND_START,1602650772704,9,
196,4,4,WS_SEND_END,1602650772704,9,
196,4,4,PLAYBACK_SLEEPBEFORE_START,1602650772704,10,
196,4,4,PLAYBACK_SLEEPBEFORE_END,1602650773252,10,
196,4,4,WS_SEND_START,1602650773252,10,
196,4,4,WS_SEND_END,1602650773252,10,
196,4,4,WS_RECV_START,1602650773252,11,
196,4,4,WS_RECV_END,1602650776803,11,
196,4,4,PLAYBACK_SLEEPBEFORE_START,1602650776803,12,
196,4,4,PLAYBACK_SLEEPBEFORE_END,1602650778211,12,
196,4,4,WS_CLOSE_START,1602650778211,12,
196,4,4,WS_CLOSE_END,1602650778211,12,
196,4,4,PLAYBACK_DONE,1602650778211,0,
