# http://denbi-training.bihealth.org --workers 55 --loaded-duration-minutes 2 --output-dir training-15nodes-55
# {"appUrl":"http://denbi-training.bihealth.org","debugLog":false,"loadedDurationMinutes":2.0,"logLevel":"WARN","outputDir":"training-15nodes-55","overwriteOutput":false,"recordingPath":"recording.log","workers":55}
session_id,worker_id,iteration,event,timestamp,input_line_number,comment
203,6,4,PLAYER_SESSION_CREATE,1602650769258,0,
203,6,4,REQ_HOME_START,1602650769258,4,
203,6,4,REQ_HOME_END,1602650770652,4,
203,6,4,WS_OPEN_START,1602650770652,5,
203,6,4,WS_OPEN_END,1602650770728,5,
203,6,4,PLAYBACK_SLEEPBEFORE_START,1602650770728,6,
203,6,4,PLAYBACK_SLEEPBEFORE_END,1602650770732,6,
203,6,4,WS_SEND_START,1602650770732,6,
203,6,4,WS_SEND_END,1602650770732,6,
203,6,4,WS_RECV_INIT_START,1602650770732,7,
203,6,4,WS_RECV_INIT_END,1602650770733,7,
203,6,4,WS_RECV_START,1602650770733,8,
203,6,4,WS_RECV_END,1602650770774,8,
203,6,4,PLAYBACK_SLEEPBEFORE_START,1602650770774,9,
203,6,4,PLAYBACK_SLEEPBEFORE_END,1602650772719,9,
203,6,4,WS_SEND_START,1602650772719,9,
203,6,4,WS_SEND_END,1602650772719,9,
203,6,4,PLAYBACK_SLEEPBEFORE_START,1602650772719,10,
203,6,4,PLAYBACK_SLEEPBEFORE_END,1602650773266,10,
203,6,4,WS_SEND_START,1602650773266,10,
203,6,4,WS_SEND_END,1602650773266,10,
203,6,4,WS_RECV_START,1602650773266,11,
203,6,4,WS_RECV_END,1602650776378,11,
203,6,4,PLAYBACK_SLEEPBEFORE_START,1602650776378,12,
203,6,4,PLAYBACK_SLEEPBEFORE_END,1602650777785,12,
203,6,4,WS_CLOSE_START,1602650777785,12,
203,6,4,WS_CLOSE_END,1602650777786,12,
203,6,4,PLAYBACK_DONE,1602650777786,0,
