# http://denbi-training.bihealth.org --workers 55 --loaded-duration-minutes 2 --output-dir training-15nodes-55
# {"appUrl":"http://denbi-training.bihealth.org","debugLog":false,"loadedDurationMinutes":2.0,"logLevel":"WARN","outputDir":"training-15nodes-55","overwriteOutput":false,"recordingPath":"recording.log","workers":55}
session_id,worker_id,iteration,event,timestamp,input_line_number,comment
210,32,3,PLAYER_SESSION_CREATE,1602650770043,0,
210,32,3,REQ_HOME_START,1602650770043,4,
210,32,3,REQ_HOME_END,1602650771038,4,
210,32,3,WS_OPEN_START,1602650771038,5,
210,32,3,WS_OPEN_END,1602650771112,5,
210,32,3,PLAYBACK_SLEEPBEFORE_START,1602650771112,6,
210,32,3,PLAYBACK_SLEEPBEFORE_END,1602650771115,6,
210,32,3,WS_SEND_START,1602650771115,6,
210,32,3,WS_SEND_END,1602650771115,6,
210,32,3,WS_RECV_INIT_START,1602650771115,7,
210,32,3,WS_RECV_INIT_END,1602650771137,7,
210,32,3,WS_RECV_START,1602650771137,8,
210,32,3,WS_RECV_END,1602650771175,8,
210,32,3,PLAYBACK_SLEEPBEFORE_START,1602650771175,9,
210,32,3,PLAYBACK_SLEEPBEFORE_END,1602650773121,9,
210,32,3,WS_SEND_START,1602650773121,9,
210,32,3,WS_SEND_END,1602650773121,9,
210,32,3,PLAYBACK_SLEEPBEFORE_START,1602650773121,10,
210,32,3,PLAYBACK_SLEEPBEFORE_END,1602650773668,10,
210,32,3,WS_SEND_START,1602650773668,10,
210,32,3,WS_SEND_END,1602650773668,10,
210,32,3,WS_RECV_START,1602650773668,11,
210,32,3,WS_RECV_END,1602650775778,11,
210,32,3,PLAYBACK_SLEEPBEFORE_START,1602650775778,12,
210,32,3,PLAYBACK_SLEEPBEFORE_END,1602650777186,12,
210,32,3,WS_CLOSE_START,1602650777186,12,
210,32,3,WS_CLOSE_END,1602650777186,12,
210,32,3,PLAYBACK_DONE,1602650777186,0,
