# http://denbi-training.bihealth.org --workers 55 --loaded-duration-minutes 2 --output-dir training-15nodes-55
# {"appUrl":"http://denbi-training.bihealth.org","debugLog":false,"loadedDurationMinutes":2.0,"logLevel":"WARN","outputDir":"training-15nodes-55","overwriteOutput":false,"recordingPath":"recording.log","workers":55}
session_id,worker_id,iteration,event,timestamp,input_line_number,comment
212,33,3,PLAYER_SESSION_CREATE,1602650770372,0,
212,33,3,REQ_HOME_START,1602650770372,4,
212,33,3,REQ_HOME_END,1602650772317,4,
212,33,3,WS_OPEN_START,1602650772317,5,
212,33,3,WS_OPEN_END,1602650772396,5,
212,33,3,PLAYBACK_SLEEPBEFORE_START,1602650772396,6,
212,33,3,PLAYBACK_SLEEPBEFORE_END,1602650772399,6,
212,33,3,WS_SEND_START,1602650772399,6,
212,33,3,WS_SEND_END,1602650772399,6,
212,33,3,WS_RECV_INIT_START,1602650772399,7,
212,33,3,WS_RECV_INIT_END,1602650772408,7,
212,33,3,WS_RECV_START,1602650772408,8,
212,33,3,WS_RECV_END,1602650772451,8,
212,33,3,PLAYBACK_SLEEPBEFORE_START,1602650772451,9,
212,33,3,PLAYBACK_SLEEPBEFORE_END,1602650774396,9,
212,33,3,WS_SEND_START,1602650774396,9,
212,33,3,WS_SEND_END,1602650774396,9,
212,33,3,PLAYBACK_SLEEPBEFORE_START,1602650774396,10,
212,33,3,PLAYBACK_SLEEPBEFORE_END,1602650774944,10,
212,33,3,WS_SEND_START,1602650774944,10,
212,33,3,WS_SEND_END,1602650774944,10,
212,33,3,WS_RECV_START,1602650774944,11,
212,33,3,WS_RECV_END,1602650778525,11,
212,33,3,PLAYBACK_SLEEPBEFORE_START,1602650778525,12,
212,33,3,PLAYBACK_SLEEPBEFORE_END,1602650779933,12,
212,33,3,WS_CLOSE_START,1602650779933,12,
212,33,3,WS_CLOSE_END,1602650779933,12,
212,33,3,PLAYBACK_DONE,1602650779933,0,
