# http://denbi-training.bihealth.org --workers 55 --loaded-duration-minutes 2 --output-dir training-15nodes-55
# {"appUrl":"http://denbi-training.bihealth.org","debugLog":false,"loadedDurationMinutes":2.0,"logLevel":"WARN","outputDir":"training-15nodes-55","overwriteOutput":false,"recordingPath":"recording.log","workers":55}
session_id,worker_id,iteration,event,timestamp,input_line_number,comment
215,54,3,PLAYER_SESSION_CREATE,1602650770461,0,
215,54,3,REQ_HOME_START,1602650770461,4,
215,54,3,REQ_HOME_END,1602650770554,4,
215,54,3,WS_OPEN_START,1602650770554,5,
215,54,3,WS_OPEN_END,1602650770629,5,
215,54,3,PLAYBACK_SLEEPBEFORE_START,1602650770629,6,
215,54,3,PLAYBACK_SLEEPBEFORE_END,1602650770632,6,
215,54,3,WS_SEND_START,1602650770632,6,
215,54,3,WS_SEND_END,1602650770632,6,
215,54,3,WS_RECV_INIT_START,1602650770632,7,
215,54,3,WS_RECV_INIT_END,1602650770636,7,
215,54,3,WS_RECV_START,1602650770636,8,
215,54,3,WS_RECV_END,1602650770673,8,
215,54,3,PLAYBACK_SLEEPBEFORE_START,1602650770673,9,
215,54,3,PLAYBACK_SLEEPBEFORE_END,1602650772618,9,
215,54,3,WS_SEND_START,1602650772618,9,
215,54,3,WS_SEND_END,1602650772618,9,
215,54,3,PLAYBACK_SLEEPBEFORE_START,1602650772618,10,
215,54,3,PLAYBACK_SLEEPBEFORE_END,1602650773165,10,
215,54,3,WS_SEND_START,1602650773165,10,
215,54,3,WS_SEND_END,1602650773165,10,
215,54,3,WS_RECV_START,1602650773165,11,
215,54,3,WS_RECV_END,1602650775855,11,
215,54,3,PLAYBACK_SLEEPBEFORE_START,1602650775855,12,
215,54,3,PLAYBACK_SLEEPBEFORE_END,1602650777262,12,
215,54,3,WS_CLOSE_START,1602650777263,12,
215,54,3,WS_CLOSE_END,1602650777263,12,
215,54,3,PLAYBACK_DONE,1602650777263,0,
