# http://denbi-training.bihealth.org --workers 55 --loaded-duration-minutes 2 --output-dir training-15nodes-55
# {"appUrl":"http://denbi-training.bihealth.org","debugLog":false,"loadedDurationMinutes":2.0,"logLevel":"WARN","outputDir":"training-15nodes-55","overwriteOutput":false,"recordingPath":"recording.log","workers":55}
session_id,worker_id,iteration,event,timestamp,input_line_number,comment
222,12,4,PLAYER_SESSION_CREATE,1602650771290,0,
222,12,4,REQ_HOME_START,1602650771290,4,
222,12,4,REQ_HOME_END,1602650771916,4,
222,12,4,WS_OPEN_START,1602650771916,5,
222,12,4,WS_OPEN_END,1602650772016,5,
222,12,4,PLAYBACK_SLEEPBEFORE_START,1602650772016,6,
222,12,4,PLAYBACK_SLEEPBEFORE_END,1602650772020,6,
222,12,4,WS_SEND_START,1602650772020,6,
222,12,4,WS_SEND_END,1602650772020,6,
222,12,4,WS_RECV_INIT_START,1602650772020,7,
222,12,4,WS_RECV_INIT_END,1602650772046,7,
222,12,4,WS_RECV_START,1602650772046,8,
222,12,4,WS_RECV_END,1602650772066,8,
222,12,4,PLAYBACK_SLEEPBEFORE_START,1602650772066,9,
222,12,4,PLAYBACK_SLEEPBEFORE_END,1602650774011,9,
222,12,4,WS_SEND_START,1602650774011,9,
222,12,4,WS_SEND_END,1602650774011,9,
222,12,4,PLAYBACK_SLEEPBEFORE_START,1602650774011,10,
222,12,4,PLAYBACK_SLEEPBEFORE_END,1602650774558,10,
222,12,4,WS_SEND_START,1602650774558,10,
222,12,4,WS_SEND_END,1602650774558,10,
222,12,4,WS_RECV_START,1602650774558,11,
222,12,4,WS_RECV_END,1602650776481,11,
222,12,4,PLAYBACK_SLEEPBEFORE_START,1602650776481,12,
222,12,4,PLAYBACK_SLEEPBEFORE_END,1602650777888,12,
222,12,4,WS_CLOSE_START,1602650777888,12,
222,12,4,WS_CLOSE_END,1602650777888,12,
222,12,4,PLAYBACK_DONE,1602650777888,0,
