# http://denbi-training.bihealth.org --workers 55 --loaded-duration-minutes 2 --output-dir training-15nodes-55
# {"appUrl":"http://denbi-training.bihealth.org","debugLog":false,"loadedDurationMinutes":2.0,"logLevel":"WARN","outputDir":"training-15nodes-55","overwriteOutput":false,"recordingPath":"recording.log","workers":55}
session_id,worker_id,iteration,event,timestamp,input_line_number,comment
243,18,4,PLAYER_SESSION_CREATE,1602650775013,0,
243,18,4,REQ_HOME_START,1602650775013,4,
243,18,4,REQ_HOME_END,1602650777763,4,
243,18,4,WS_OPEN_START,1602650777763,5,
243,18,4,WS_OPEN_END,1602650777848,5,
243,18,4,PLAYBACK_SLEEPBEFORE_START,1602650777848,6,
243,18,4,PLAYBACK_SLEEPBEFORE_END,1602650777851,6,
243,18,4,WS_SEND_START,1602650777851,6,
243,18,4,WS_SEND_END,1602650777851,6,
243,18,4,WS_RECV_INIT_START,1602650777851,7,
243,18,4,WS_RECV_INIT_END,1602650777854,7,
243,18,4,WS_RECV_START,1602650777854,8,
243,18,4,WS_RECV_END,1602650777896,8,
243,18,4,PLAYBACK_SLEEPBEFORE_START,1602650777896,9,
243,18,4,PLAYBACK_SLEEPBEFORE_END,1602650779842,9,
243,18,4,WS_SEND_START,1602650779842,9,
243,18,4,WS_SEND_END,1602650779842,9,
243,18,4,PLAYBACK_SLEEPBEFORE_START,1602650779842,10,
243,18,4,PLAYBACK_SLEEPBEFORE_END,1602650780389,10,
243,18,4,WS_SEND_START,1602650780389,10,
243,18,4,WS_SEND_END,1602650780389,10,
243,18,4,WS_RECV_START,1602650780389,11,
243,18,4,WS_RECV_END,1602650782335,11,
243,18,4,PLAYBACK_SLEEPBEFORE_START,1602650782335,12,
243,18,4,PLAYBACK_SLEEPBEFORE_END,1602650783742,12,
243,18,4,WS_CLOSE_START,1602650783742,12,
243,18,4,WS_CLOSE_END,1602650783742,12,
243,18,4,PLAYBACK_DONE,1602650783742,0,
