# http://denbi-training.bihealth.org --workers 55 --loaded-duration-minutes 2 --output-dir training-15nodes-55
# {"appUrl":"http://denbi-training.bihealth.org","debugLog":false,"loadedDurationMinutes":2.0,"logLevel":"WARN","outputDir":"training-15nodes-55","overwriteOutput":false,"recordingPath":"recording.log","workers":55}
session_id,worker_id,iteration,event,timestamp,input_line_number,comment
273,27,5,PLAYER_SESSION_CREATE,1602650778263,0,
273,27,5,REQ_HOME_START,1602650778263,4,
273,27,5,REQ_HOME_END,1602650778369,4,
273,27,5,WS_OPEN_START,1602650778369,5,
273,27,5,WS_OPEN_END,1602650778441,5,
273,27,5,PLAYBACK_SLEEPBEFORE_START,1602650778441,6,
273,27,5,PLAYBACK_SLEEPBEFORE_END,1602650778444,6,
273,27,5,WS_SEND_START,1602650778444,6,
273,27,5,WS_SEND_END,1602650778444,6,
273,27,5,WS_RECV_INIT_START,1602650778444,7,
273,27,5,WS_RECV_INIT_END,1602650778455,7,
273,27,5,WS_RECV_START,1602650778455,8,
273,27,5,WS_RECV_END,1602650778491,8,
273,27,5,PLAYBACK_SLEEPBEFORE_START,1602650778491,9,
273,27,5,PLAYBACK_SLEEPBEFORE_END,1602650780436,9,
273,27,5,WS_SEND_START,1602650780436,9,
273,27,5,WS_SEND_END,1602650780437,9,
273,27,5,PLAYBACK_SLEEPBEFORE_START,1602650780437,10,
273,27,5,PLAYBACK_SLEEPBEFORE_END,1602650780984,10,
273,27,5,WS_SEND_START,1602650780984,10,
273,27,5,WS_SEND_END,1602650780984,10,
273,27,5,WS_RECV_START,1602650780984,11,
273,27,5,WS_RECV_END,1602650786112,11,
273,27,5,PLAYBACK_SLEEPBEFORE_START,1602650786112,12,
273,27,5,PLAYBACK_SLEEPBEFORE_END,1602650787520,12,
273,27,5,WS_CLOSE_START,1602650787520,12,
273,27,5,WS_CLOSE_END,1602650787520,12,
273,27,5,PLAYBACK_DONE,1602650787520,0,
