# http://denbi-training.bihealth.org --workers 55 --loaded-duration-minutes 2 --output-dir training-15nodes-55
# {"appUrl":"http://denbi-training.bihealth.org","debugLog":false,"loadedDurationMinutes":2.0,"logLevel":"WARN","outputDir":"training-15nodes-55","overwriteOutput":false,"recordingPath":"recording.log","workers":55}
session_id,worker_id,iteration,event,timestamp,input_line_number,comment
274,43,4,PLAYER_SESSION_CREATE,1602650778338,0,
274,43,4,REQ_HOME_START,1602650778338,4,
274,43,4,REQ_HOME_END,1602650778440,4,
274,43,4,WS_OPEN_START,1602650778440,5,
274,43,4,WS_OPEN_END,1602650778534,5,
274,43,4,PLAYBACK_SLEEPBEFORE_START,1602650778535,6,
274,43,4,PLAYBACK_SLEEPBEFORE_END,1602650778538,6,
274,43,4,WS_SEND_START,1602650778538,6,
274,43,4,WS_SEND_END,1602650778538,6,
274,43,4,WS_RECV_INIT_START,1602650778538,7,
274,43,4,WS_RECV_INIT_END,1602650778538,7,
274,43,4,WS_RECV_START,1602650778538,8,
274,43,4,WS_RECV_END,1602650778594,8,
274,43,4,PLAYBACK_SLEEPBEFORE_START,1602650778594,9,
274,43,4,PLAYBACK_SLEEPBEFORE_END,1602650780539,9,
274,43,4,WS_SEND_START,1602650780539,9,
274,43,4,WS_SEND_END,1602650780539,9,
274,43,4,PLAYBACK_SLEEPBEFORE_START,1602650780539,10,
274,43,4,PLAYBACK_SLEEPBEFORE_END,1602650781087,10,
274,43,4,WS_SEND_START,1602650781087,10,
274,43,4,WS_SEND_END,1602650781087,10,
274,43,4,WS_RECV_START,1602650781087,11,
274,43,4,WS_RECV_END,1602650784135,11,
274,43,4,PLAYBACK_SLEEPBEFORE_START,1602650784135,12,
274,43,4,PLAYBACK_SLEEPBEFORE_END,1602650785542,12,
274,43,4,WS_CLOSE_START,1602650785542,12,
274,43,4,WS_CLOSE_END,1602650785543,12,
274,43,4,PLAYBACK_DONE,1602650785543,0,
