# http://denbi-training.bihealth.org --workers 55 --loaded-duration-minutes 2 --output-dir training-15nodes-55
# {"appUrl":"http://denbi-training.bihealth.org","debugLog":false,"loadedDurationMinutes":2.0,"logLevel":"WARN","outputDir":"training-15nodes-55","overwriteOutput":false,"recordingPath":"recording.log","workers":55}
session_id,worker_id,iteration,event,timestamp,input_line_number,comment
307,32,5,PLAYER_SESSION_CREATE,1602650784394,0,
307,32,5,REQ_HOME_START,1602650784394,4,
307,32,5,REQ_HOME_END,1602650786653,4,
307,32,5,WS_OPEN_START,1602650786653,5,
307,32,5,WS_OPEN_END,1602650786731,5,
307,32,5,PLAYBACK_SLEEPBEFORE_START,1602650786731,6,
307,32,5,PLAYBACK_SLEEPBEFORE_END,1602650786734,6,
307,32,5,WS_SEND_START,1602650786734,6,
307,32,5,WS_SEND_END,1602650786734,6,
307,32,5,WS_RECV_INIT_START,1602650786734,7,
307,32,5,WS_RECV_INIT_END,1602650786741,7,
307,32,5,WS_RECV_START,1602650786741,8,
307,32,5,WS_RECV_END,1602650786787,8,
307,32,5,PLAYBACK_SLEEPBEFORE_START,1602650786787,9,
307,32,5,PLAYBACK_SLEEPBEFORE_END,1602650788733,9,
307,32,5,WS_SEND_START,1602650788733,9,
307,32,5,WS_SEND_END,1602650788733,9,
307,32,5,PLAYBACK_SLEEPBEFORE_START,1602650788733,10,
307,32,5,PLAYBACK_SLEEPBEFORE_END,1602650789280,10,
307,32,5,WS_SEND_START,1602650789280,10,
307,32,5,WS_SEND_END,1602650789280,10,
307,32,5,WS_RECV_START,1602650789280,11,
307,32,5,WS_RECV_END,1602650791543,11,
307,32,5,PLAYBACK_SLEEPBEFORE_START,1602650791543,12,
307,32,5,PLAYBACK_SLEEPBEFORE_END,1602650792950,12,
307,32,5,WS_CLOSE_START,1602650792950,12,
307,32,5,WS_CLOSE_END,1602650792950,12,
307,32,5,PLAYBACK_DONE,1602650792950,0,
