# http://denbi-training.bihealth.org --workers 55 --loaded-duration-minutes 2 --output-dir training-15nodes-55
# {"appUrl":"http://denbi-training.bihealth.org","debugLog":false,"loadedDurationMinutes":2.0,"logLevel":"WARN","outputDir":"training-15nodes-55","overwriteOutput":false,"recordingPath":"recording.log","workers":55}
session_id,worker_id,iteration,event,timestamp,input_line_number,comment
314,46,5,PLAYER_SESSION_CREATE,1602650784937,0,
314,46,5,REQ_HOME_START,1602650784937,4,
314,46,5,REQ_HOME_END,1602650785289,4,
314,46,5,WS_OPEN_START,1602650785289,5,
314,46,5,WS_OPEN_END,1602650785606,5,
314,46,5,PLAYBACK_SLEEPBEFORE_START,1602650785606,6,
314,46,5,PLAYBACK_SLEEPBEFORE_END,1602650785609,6,
314,46,5,WS_SEND_START,1602650785609,6,
314,46,5,WS_SEND_END,1602650785609,6,
314,46,5,WS_RECV_INIT_START,1602650785609,7,
314,46,5,WS_RECV_INIT_END,1602650785626,7,
314,46,5,WS_RECV_START,1602650785626,8,
314,46,5,WS_RECV_END,1602650785871,8,
314,46,5,PLAYBACK_SLEEPBEFORE_START,1602650785871,9,
314,46,5,PLAYBACK_SLEEPBEFORE_END,1602650787816,9,
314,46,5,WS_SEND_START,1602650787816,9,
314,46,5,WS_SEND_END,1602650787816,9,
314,46,5,PLAYBACK_SLEEPBEFORE_START,1602650787816,10,
314,46,5,PLAYBACK_SLEEPBEFORE_END,1602650788363,10,
314,46,5,WS_SEND_START,1602650788364,10,
314,46,5,WS_SEND_END,1602650788364,10,
314,46,5,WS_RECV_START,1602650788364,11,
314,46,5,WS_RECV_END,1602650791784,11,
314,46,5,PLAYBACK_SLEEPBEFORE_START,1602650791784,12,
314,46,5,PLAYBACK_SLEEPBEFORE_END,1602650793191,12,
314,46,5,WS_CLOSE_START,1602650793191,12,
314,46,5,WS_CLOSE_END,1602650793192,12,
314,46,5,PLAYBACK_DONE,1602650793192,0,
