# http://denbi-training.bihealth.org --workers 55 --loaded-duration-minutes 2 --output-dir training-15nodes-55
# {"appUrl":"http://denbi-training.bihealth.org","debugLog":false,"loadedDurationMinutes":2.0,"logLevel":"WARN","outputDir":"training-15nodes-55","overwriteOutput":false,"recordingPath":"recording.log","workers":55}
session_id,worker_id,iteration,event,timestamp,input_line_number,comment
315,12,6,PLAYER_SESSION_CREATE,1602650785011,0,
315,12,6,REQ_HOME_START,1602650785011,4,
315,12,6,REQ_HOME_END,1602650785438,4,
315,12,6,WS_OPEN_START,1602650785438,5,
315,12,6,WS_OPEN_END,1602650785633,5,
315,12,6,PLAYBACK_SLEEPBEFORE_START,1602650785633,6,
315,12,6,PLAYBACK_SLEEPBEFORE_END,1602650785636,6,
315,12,6,WS_SEND_START,1602650785636,6,
315,12,6,WS_SEND_END,1602650785636,6,
315,12,6,WS_RECV_INIT_START,1602650785636,7,
315,12,6,WS_RECV_INIT_END,1602650785644,7,
315,12,6,WS_RECV_START,1602650785644,8,
315,12,6,WS_RECV_END,1602650785868,8,
315,12,6,PLAYBACK_SLEEPBEFORE_START,1602650785868,9,
315,12,6,PLAYBACK_SLEEPBEFORE_END,1602650787813,9,
315,12,6,WS_SEND_START,1602650787813,9,
315,12,6,WS_SEND_END,1602650787813,9,
315,12,6,PLAYBACK_SLEEPBEFORE_START,1602650787813,10,
315,12,6,PLAYBACK_SLEEPBEFORE_END,1602650788360,10,
315,12,6,WS_SEND_START,1602650788360,10,
315,12,6,WS_SEND_END,1602650788360,10,
315,12,6,WS_RECV_START,1602650788360,11,
315,12,6,WS_RECV_END,1602650790298,11,
315,12,6,PLAYBACK_SLEEPBEFORE_START,1602650790298,12,
315,12,6,PLAYBACK_SLEEPBEFORE_END,1602650791724,12,
315,12,6,WS_CLOSE_START,1602650791724,12,
315,12,6,WS_CLOSE_END,1602650791725,12,
315,12,6,PLAYBACK_DONE,1602650791725,0,
