# http://denbi-training.bihealth.org --workers 55 --loaded-duration-minutes 2 --output-dir training-15nodes-55
# {"appUrl":"http://denbi-training.bihealth.org","debugLog":false,"loadedDurationMinutes":2.0,"logLevel":"WARN","outputDir":"training-15nodes-55","overwriteOutput":false,"recordingPath":"recording.log","workers":55}
session_id,worker_id,iteration,event,timestamp,input_line_number,comment
319,40,5,PLAYER_SESSION_CREATE,1602650785447,0,
319,40,5,REQ_HOME_START,1602650785447,4,
319,40,5,REQ_HOME_END,1602650786142,4,
319,40,5,WS_OPEN_START,1602650786142,5,
319,40,5,WS_OPEN_END,1602650786217,5,
319,40,5,PLAYBACK_SLEEPBEFORE_START,1602650786217,6,
319,40,5,PLAYBACK_SLEEPBEFORE_END,1602650786220,6,
319,40,5,WS_SEND_START,1602650786220,6,
319,40,5,WS_SEND_END,1602650786220,6,
319,40,5,WS_RECV_INIT_START,1602650786220,7,
319,40,5,WS_RECV_INIT_END,1602650786229,7,
319,40,5,WS_RECV_START,1602650786229,8,
319,40,5,WS_RECV_END,1602650786267,8,
319,40,5,PLAYBACK_SLEEPBEFORE_START,1602650786267,9,
319,40,5,PLAYBACK_SLEEPBEFORE_END,1602650788212,9,
319,40,5,WS_SEND_START,1602650788212,9,
319,40,5,WS_SEND_END,1602650788212,9,
319,40,5,PLAYBACK_SLEEPBEFORE_START,1602650788212,10,
319,40,5,PLAYBACK_SLEEPBEFORE_END,1602650788759,10,
319,40,5,WS_SEND_START,1602650788759,10,
319,40,5,WS_SEND_END,1602650788759,10,
319,40,5,WS_RECV_START,1602650788759,11,
319,40,5,WS_RECV_END,1602650791379,11,
319,40,5,PLAYBACK_SLEEPBEFORE_START,1602650791379,12,
319,40,5,PLAYBACK_SLEEPBEFORE_END,1602650792786,12,
319,40,5,WS_CLOSE_START,1602650792786,12,
319,40,5,WS_CLOSE_END,1602650792786,12,
319,40,5,PLAYBACK_DONE,1602650792786,0,
