# http://denbi-training.bihealth.org --workers 55 --loaded-duration-minutes 2 --output-dir training-15nodes-55
# {"appUrl":"http://denbi-training.bihealth.org","debugLog":false,"loadedDurationMinutes":2.0,"logLevel":"WARN","outputDir":"training-15nodes-55","overwriteOutput":false,"recordingPath":"recording.log","workers":55}
session_id,worker_id,iteration,event,timestamp,input_line_number,comment
323,19,5,PLAYER_SESSION_CREATE,1602650786076,0,
323,19,5,REQ_HOME_START,1602650786076,4,
323,19,5,REQ_HOME_END,1602650786177,4,
323,19,5,WS_OPEN_START,1602650786177,5,
323,19,5,WS_OPEN_END,1602650786254,5,
323,19,5,PLAYBACK_SLEEPBEFORE_START,1602650786254,6,
323,19,5,PLAYBACK_SLEEPBEFORE_END,1602650786257,6,
323,19,5,WS_SEND_START,1602650786257,6,
323,19,5,WS_SEND_END,1602650786258,6,
323,19,5,WS_RECV_INIT_START,1602650786258,7,
323,19,5,WS_RECV_INIT_END,1602650786265,7,
323,19,5,WS_RECV_START,1602650786265,8,
323,19,5,WS_RECV_END,1602650786305,8,
323,19,5,PLAYBACK_SLEEPBEFORE_START,1602650786305,9,
323,19,5,PLAYBACK_SLEEPBEFORE_END,1602650788250,9,
323,19,5,WS_SEND_START,1602650788250,9,
323,19,5,WS_SEND_END,1602650788250,9,
323,19,5,PLAYBACK_SLEEPBEFORE_START,1602650788250,10,
323,19,5,PLAYBACK_SLEEPBEFORE_END,1602650788797,10,
323,19,5,WS_SEND_START,1602650788797,10,
323,19,5,WS_SEND_END,1602650788797,10,
323,19,5,WS_RECV_START,1602650788797,11,
323,19,5,WS_RECV_END,1602650791727,11,
323,19,5,PLAYBACK_SLEEPBEFORE_START,1602650791727,12,
323,19,5,PLAYBACK_SLEEPBEFORE_END,1602650793135,12,
323,19,5,WS_CLOSE_START,1602650793135,12,
323,19,5,WS_CLOSE_END,1602650793135,12,
323,19,5,PLAYBACK_DONE,1602650793135,0,
