# http://denbi-training.bihealth.org --workers 55 --loaded-duration-minutes 2 --output-dir training-15nodes-55
# {"appUrl":"http://denbi-training.bihealth.org","debugLog":false,"loadedDurationMinutes":2.0,"logLevel":"WARN","outputDir":"training-15nodes-55","overwriteOutput":false,"recordingPath":"recording.log","workers":55}
session_id,worker_id,iteration,event,timestamp,input_line_number,comment
32,32,0,PLAYER_SESSION_CREATE,1602650746774,0,
32,32,0,REQ_HOME_START,1602650746774,4,
32,32,0,REQ_HOME_END,1602650746875,4,
32,32,0,WS_OPEN_START,1602650746875,5,
32,32,0,WS_OPEN_END,1602650746947,5,
32,32,0,PLAYBACK_SLEEPBEFORE_START,1602650746948,6,
32,32,0,PLAYBACK_SLEEPBEFORE_END,1602650746951,6,
32,32,0,WS_SEND_START,1602650746952,6,
32,32,0,WS_SEND_END,1602650746952,6,
32,32,0,WS_RECV_INIT_START,1602650746952,7,
32,32,0,WS_RECV_INIT_END,1602650746953,7,
32,32,0,WS_RECV_START,1602650746953,8,
32,32,0,WS_RECV_END,1602650746992,8,
32,32,0,PLAYBACK_SLEEPBEFORE_START,1602650746992,9,
32,32,0,PLAYBACK_SLEEPBEFORE_END,1602650748937,9,
32,32,0,WS_SEND_START,1602650748937,9,
32,32,0,WS_SEND_END,1602650748937,9,
32,32,0,PLAYBACK_SLEEPBEFORE_START,1602650748937,10,
32,32,0,PLAYBACK_SLEEPBEFORE_END,1602650749485,10,
32,32,0,WS_SEND_START,1602650749485,10,
32,32,0,WS_SEND_END,1602650749486,10,
32,32,0,WS_RECV_START,1602650749486,11,
32,32,0,WS_RECV_END,1602650751230,11,
32,32,0,PLAYBACK_SLEEPBEFORE_START,1602650751230,12,
32,32,0,PLAYBACK_SLEEPBEFORE_END,1602650752637,12,
32,32,0,WS_CLOSE_START,1602650752637,12,
32,32,0,WS_CLOSE_END,1602650752638,12,
32,32,0,PLAYBACK_DONE,1602650752638,0,
