# http://denbi-training.bihealth.org --workers 55 --loaded-duration-minutes 2 --output-dir training-15nodes-55
# {"appUrl":"http://denbi-training.bihealth.org","debugLog":false,"loadedDurationMinutes":2.0,"logLevel":"WARN","outputDir":"training-15nodes-55","overwriteOutput":false,"recordingPath":"recording.log","workers":55}
session_id,worker_id,iteration,event,timestamp,input_line_number,comment
330,48,5,PLAYER_SESSION_CREATE,1602650787022,0,
330,48,5,REQ_HOME_START,1602650787022,4,
330,48,5,REQ_HOME_END,1602650789364,4,
330,48,5,WS_OPEN_START,1602650789364,5,
330,48,5,WS_OPEN_END,1602650791428,5,
330,48,5,PLAYBACK_SLEEPBEFORE_START,1602650791428,6,
330,48,5,PLAYBACK_SLEEPBEFORE_END,1602650791431,6,
330,48,5,WS_SEND_START,1602650791431,6,
330,48,5,WS_SEND_END,1602650791431,6,
330,48,5,WS_RECV_INIT_START,1602650791431,7,
330,48,5,WS_RECV_INIT_END,1602650791435,7,
330,48,5,WS_RECV_START,1602650791435,8,
330,48,5,WS_RECV_END,1602650791472,8,
330,48,5,PLAYBACK_SLEEPBEFORE_START,1602650791472,9,
330,48,5,PLAYBACK_SLEEPBEFORE_END,1602650793417,9,
330,48,5,WS_SEND_START,1602650793417,9,
330,48,5,WS_SEND_END,1602650793417,9,
330,48,5,PLAYBACK_SLEEPBEFORE_START,1602650793417,10,
330,48,5,PLAYBACK_SLEEPBEFORE_END,1602650793965,10,
330,48,5,WS_SEND_START,1602650793965,10,
330,48,5,WS_SEND_END,1602650793965,10,
330,48,5,WS_RECV_START,1602650793965,11,
330,48,5,WS_RECV_END,1602650795282,11,
330,48,5,PLAYBACK_SLEEPBEFORE_START,1602650795283,12,
330,48,5,PLAYBACK_SLEEPBEFORE_END,1602650796690,12,
330,48,5,WS_CLOSE_START,1602650796690,12,
330,48,5,WS_CLOSE_END,1602650796690,12,
330,48,5,PLAYBACK_DONE,1602650796690,0,
