# http://denbi-training.bihealth.org --workers 55 --loaded-duration-minutes 2 --output-dir training-15nodes-55
# {"appUrl":"http://denbi-training.bihealth.org","debugLog":false,"loadedDurationMinutes":2.0,"logLevel":"WARN","outputDir":"training-15nodes-55","overwriteOutput":false,"recordingPath":"recording.log","workers":55}
session_id,worker_id,iteration,event,timestamp,input_line_number,comment
332,1,6,PLAYER_SESSION_CREATE,1602650787314,0,
332,1,6,REQ_HOME_START,1602650787314,4,
332,1,6,REQ_HOME_END,1602650791725,4,
332,1,6,WS_OPEN_START,1602650791725,5,
332,1,6,WS_OPEN_END,1602650791828,5,
332,1,6,PLAYBACK_SLEEPBEFORE_START,1602650791828,6,
332,1,6,PLAYBACK_SLEEPBEFORE_END,1602650791831,6,
332,1,6,WS_SEND_START,1602650791831,6,
332,1,6,WS_SEND_END,1602650791831,6,
332,1,6,WS_RECV_INIT_START,1602650791831,7,
332,1,6,WS_RECV_INIT_END,1602650791833,7,
332,1,6,WS_RECV_START,1602650791833,8,
332,1,6,WS_RECV_END,1602650791872,8,
332,1,6,PLAYBACK_SLEEPBEFORE_START,1602650791872,9,
332,1,6,PLAYBACK_SLEEPBEFORE_END,1602650793817,9,
332,1,6,WS_SEND_START,1602650793817,9,
332,1,6,WS_SEND_END,1602650793817,9,
332,1,6,PLAYBACK_SLEEPBEFORE_START,1602650793817,10,
332,1,6,PLAYBACK_SLEEPBEFORE_END,1602650794364,10,
332,1,6,WS_SEND_START,1602650794364,10,
332,1,6,WS_SEND_END,1602650794364,10,
332,1,6,WS_RECV_START,1602650794364,11,
332,1,6,WS_RECV_END,1602650796192,11,
332,1,6,PLAYBACK_SLEEPBEFORE_START,1602650796192,12,
332,1,6,PLAYBACK_SLEEPBEFORE_END,1602650797599,12,
332,1,6,WS_CLOSE_START,1602650797599,12,
332,1,6,WS_CLOSE_END,1602650797599,12,
332,1,6,PLAYBACK_DONE,1602650797599,0,
