# http://denbi-training.bihealth.org --workers 55 --loaded-duration-minutes 2 --output-dir training-15nodes-55
# {"appUrl":"http://denbi-training.bihealth.org","debugLog":false,"loadedDurationMinutes":2.0,"logLevel":"WARN","outputDir":"training-15nodes-55","overwriteOutput":false,"recordingPath":"recording.log","workers":55}
session_id,worker_id,iteration,event,timestamp,input_line_number,comment
344,26,4,PLAYER_SESSION_CREATE,1602650790073,0,
344,26,4,REQ_HOME_START,1602650790073,4,
344,26,4,REQ_HOME_END,1602650791242,4,
344,26,4,WS_OPEN_START,1602650791242,5,
344,26,4,WS_OPEN_END,1602650791312,5,
344,26,4,PLAYBACK_SLEEPBEFORE_START,1602650791312,6,
344,26,4,PLAYBACK_SLEEPBEFORE_END,1602650791316,6,
344,26,4,WS_SEND_START,1602650791316,6,
344,26,4,WS_SEND_END,1602650791316,6,
344,26,4,WS_RECV_INIT_START,1602650791316,7,
344,26,4,WS_RECV_INIT_END,1602650791318,7,
344,26,4,WS_RECV_START,1602650791318,8,
344,26,4,WS_RECV_END,1602650791389,8,
344,26,4,PLAYBACK_SLEEPBEFORE_START,1602650791389,9,
344,26,4,PLAYBACK_SLEEPBEFORE_END,1602650793334,9,
344,26,4,WS_SEND_START,1602650793334,9,
344,26,4,WS_SEND_END,1602650793334,9,
344,26,4,PLAYBACK_SLEEPBEFORE_START,1602650793334,10,
344,26,4,PLAYBACK_SLEEPBEFORE_END,1602650793882,10,
344,26,4,WS_SEND_START,1602650793882,10,
344,26,4,WS_SEND_END,1602650793882,10,
344,26,4,WS_RECV_START,1602650793882,11,
344,26,4,WS_RECV_END,1602650795211,11,
344,26,4,PLAYBACK_SLEEPBEFORE_START,1602650795211,12,
344,26,4,PLAYBACK_SLEEPBEFORE_END,1602650796618,12,
344,26,4,WS_CLOSE_START,1602650796618,12,
344,26,4,WS_CLOSE_END,1602650796618,12,
344,26,4,PLAYBACK_DONE,1602650796618,0,
