# http://denbi-training.bihealth.org --workers 55 --loaded-duration-minutes 2 --output-dir training-15nodes-55
# {"appUrl":"http://denbi-training.bihealth.org","debugLog":false,"loadedDurationMinutes":2.0,"logLevel":"WARN","outputDir":"training-15nodes-55","overwriteOutput":false,"recordingPath":"recording.log","workers":55}
session_id,worker_id,iteration,event,timestamp,input_line_number,comment
349,52,5,PLAYER_SESSION_CREATE,1602650790439,0,
349,52,5,REQ_HOME_START,1602650790439,4,
349,52,5,REQ_HOME_END,1602650791120,4,
349,52,5,WS_OPEN_START,1602650791120,5,
349,52,5,WS_OPEN_END,1602650791194,5,
349,52,5,PLAYBACK_SLEEPBEFORE_START,1602650791195,6,
349,52,5,PLAYBACK_SLEEPBEFORE_END,1602650791198,6,
349,52,5,WS_SEND_START,1602650791198,6,
349,52,5,WS_SEND_END,1602650791198,6,
349,52,5,WS_RECV_INIT_START,1602650791198,7,
349,52,5,WS_RECV_INIT_END,1602650791203,7,
349,52,5,WS_RECV_START,1602650791203,8,
349,52,5,WS_RECV_END,1602650791946,8,
349,52,5,PLAYBACK_SLEEPBEFORE_START,1602650791947,9,
349,52,5,PLAYBACK_SLEEPBEFORE_END,1602650793892,9,
349,52,5,WS_SEND_START,1602650793892,9,
349,52,5,WS_SEND_END,1602650793892,9,
349,52,5,PLAYBACK_SLEEPBEFORE_START,1602650793892,10,
349,52,5,PLAYBACK_SLEEPBEFORE_END,1602650794439,10,
349,52,5,WS_SEND_START,1602650794439,10,
349,52,5,WS_SEND_END,1602650794439,10,
349,52,5,WS_RECV_START,1602650794439,11,
349,52,5,WS_RECV_END,1602650796343,11,
349,52,5,PLAYBACK_SLEEPBEFORE_START,1602650796343,12,
349,52,5,PLAYBACK_SLEEPBEFORE_END,1602650797750,12,
349,52,5,WS_CLOSE_START,1602650797750,12,
349,52,5,WS_CLOSE_END,1602650797750,12,
349,52,5,PLAYBACK_DONE,1602650797751,0,
