# http://denbi-training.bihealth.org --workers 55 --loaded-duration-minutes 2 --output-dir training-15nodes-55
# {"appUrl":"http://denbi-training.bihealth.org","debugLog":false,"loadedDurationMinutes":2.0,"logLevel":"WARN","outputDir":"training-15nodes-55","overwriteOutput":false,"recordingPath":"recording.log","workers":55}
session_id,worker_id,iteration,event,timestamp,input_line_number,comment
365,21,6,PLAYER_SESSION_CREATE,1602650792314,0,
365,21,6,REQ_HOME_START,1602650792314,4,
365,21,6,REQ_HOME_END,1602650792418,4,
365,21,6,WS_OPEN_START,1602650792418,5,
365,21,6,WS_OPEN_END,1602650792571,5,
365,21,6,PLAYBACK_SLEEPBEFORE_START,1602650792571,6,
365,21,6,PLAYBACK_SLEEPBEFORE_END,1602650792574,6,
365,21,6,WS_SEND_START,1602650792574,6,
365,21,6,WS_SEND_END,1602650792574,6,
365,21,6,WS_RECV_INIT_START,1602650792574,7,
365,21,6,WS_RECV_INIT_END,1602650792606,7,
365,21,6,WS_RECV_START,1602650792607,8,
365,21,6,WS_RECV_END,1602650792627,8,
365,21,6,PLAYBACK_SLEEPBEFORE_START,1602650792627,9,
365,21,6,PLAYBACK_SLEEPBEFORE_END,1602650794572,9,
365,21,6,WS_SEND_START,1602650794572,9,
365,21,6,WS_SEND_END,1602650794572,9,
365,21,6,PLAYBACK_SLEEPBEFORE_START,1602650794572,10,
365,21,6,PLAYBACK_SLEEPBEFORE_END,1602650795120,10,
365,21,6,WS_SEND_START,1602650795120,10,
365,21,6,WS_SEND_END,1602650795120,10,
365,21,6,WS_RECV_START,1602650795120,11,
365,21,6,WS_RECV_END,1602650799335,11,
365,21,6,PLAYBACK_SLEEPBEFORE_START,1602650799335,12,
365,21,6,PLAYBACK_SLEEPBEFORE_END,1602650800743,12,
365,21,6,WS_CLOSE_START,1602650800743,12,
365,21,6,WS_CLOSE_END,1602650800743,12,
365,21,6,PLAYBACK_DONE,1602650800743,0,
