# http://denbi-training.bihealth.org --workers 55 --loaded-duration-minutes 2 --output-dir training-15nodes-55
# {"appUrl":"http://denbi-training.bihealth.org","debugLog":false,"loadedDurationMinutes":2.0,"logLevel":"WARN","outputDir":"training-15nodes-55","overwriteOutput":false,"recordingPath":"recording.log","workers":55}
session_id,worker_id,iteration,event,timestamp,input_line_number,comment
370,51,5,PLAYER_SESSION_CREATE,1602650792793,0,
370,51,5,REQ_HOME_START,1602650792793,4,
370,51,5,REQ_HOME_END,1602650792913,4,
370,51,5,WS_OPEN_START,1602650792913,5,
370,51,5,WS_OPEN_END,1602650793709,5,
370,51,5,PLAYBACK_SLEEPBEFORE_START,1602650793709,6,
370,51,5,PLAYBACK_SLEEPBEFORE_END,1602650793712,6,
370,51,5,WS_SEND_START,1602650793712,6,
370,51,5,WS_SEND_END,1602650793712,6,
370,51,5,WS_RECV_INIT_START,1602650793712,7,
370,51,5,WS_RECV_INIT_END,1602650793734,7,
370,51,5,WS_RECV_START,1602650793735,8,
370,51,5,WS_RECV_END,1602650793763,8,
370,51,5,PLAYBACK_SLEEPBEFORE_START,1602650793763,9,
370,51,5,PLAYBACK_SLEEPBEFORE_END,1602650795708,9,
370,51,5,WS_SEND_START,1602650795708,9,
370,51,5,WS_SEND_END,1602650795708,9,
370,51,5,PLAYBACK_SLEEPBEFORE_START,1602650795708,10,
370,51,5,PLAYBACK_SLEEPBEFORE_END,1602650796255,10,
370,51,5,WS_SEND_START,1602650796255,10,
370,51,5,WS_SEND_END,1602650796256,10,
370,51,5,WS_RECV_START,1602650796256,11,
370,51,5,WS_RECV_END,1602650798321,11,
370,51,5,PLAYBACK_SLEEPBEFORE_START,1602650798321,12,
370,51,5,PLAYBACK_SLEEPBEFORE_END,1602650799728,12,
370,51,5,WS_CLOSE_START,1602650799728,12,
370,51,5,WS_CLOSE_END,1602650799728,12,
370,51,5,PLAYBACK_DONE,1602650799728,0,
