# http://denbi-training.bihealth.org --workers 55 --loaded-duration-minutes 2 --output-dir training-15nodes-55
# {"appUrl":"http://denbi-training.bihealth.org","debugLog":false,"loadedDurationMinutes":2.0,"logLevel":"WARN","outputDir":"training-15nodes-55","overwriteOutput":false,"recordingPath":"recording.log","workers":55}
session_id,worker_id,iteration,event,timestamp,input_line_number,comment
373,32,6,PLAYER_SESSION_CREATE,1602650792951,0,
373,32,6,REQ_HOME_START,1602650792951,4,
373,32,6,REQ_HOME_END,1602650793042,4,
373,32,6,WS_OPEN_START,1602650793043,5,
373,32,6,WS_OPEN_END,1602650793114,5,
373,32,6,PLAYBACK_SLEEPBEFORE_START,1602650793114,6,
373,32,6,PLAYBACK_SLEEPBEFORE_END,1602650793117,6,
373,32,6,WS_SEND_START,1602650793118,6,
373,32,6,WS_SEND_END,1602650793118,6,
373,32,6,WS_RECV_INIT_START,1602650793118,7,
373,32,6,WS_RECV_INIT_END,1602650793125,7,
373,32,6,WS_RECV_START,1602650793125,8,
373,32,6,WS_RECV_END,1602650793163,8,
373,32,6,PLAYBACK_SLEEPBEFORE_START,1602650793163,9,
373,32,6,PLAYBACK_SLEEPBEFORE_END,1602650795108,9,
373,32,6,WS_SEND_START,1602650795108,9,
373,32,6,WS_SEND_END,1602650795108,9,
373,32,6,PLAYBACK_SLEEPBEFORE_START,1602650795108,10,
373,32,6,PLAYBACK_SLEEPBEFORE_END,1602650795656,10,
373,32,6,WS_SEND_START,1602650795656,10,
373,32,6,WS_SEND_END,1602650795656,10,
373,32,6,WS_RECV_START,1602650795656,11,
373,32,6,WS_RECV_END,1602650799252,11,
373,32,6,PLAYBACK_SLEEPBEFORE_START,1602650799252,12,
373,32,6,PLAYBACK_SLEEPBEFORE_END,1602650800660,12,
373,32,6,WS_CLOSE_START,1602650800660,12,
373,32,6,WS_CLOSE_END,1602650800660,12,
373,32,6,PLAYBACK_DONE,1602650800660,0,
