# http://denbi-training.bihealth.org --workers 55 --loaded-duration-minutes 2 --output-dir training-15nodes-55
# {"appUrl":"http://denbi-training.bihealth.org","debugLog":false,"loadedDurationMinutes":2.0,"logLevel":"WARN","outputDir":"training-15nodes-55","overwriteOutput":false,"recordingPath":"recording.log","workers":55}
session_id,worker_id,iteration,event,timestamp,input_line_number,comment
389,17,7,PLAYER_SESSION_CREATE,1602650796363,0,
389,17,7,REQ_HOME_START,1602650796363,4,
389,17,7,REQ_HOME_END,1602650798829,4,
389,17,7,WS_OPEN_START,1602650798829,5,
389,17,7,WS_OPEN_END,1602650798907,5,
389,17,7,PLAYBACK_SLEEPBEFORE_START,1602650798907,6,
389,17,7,PLAYBACK_SLEEPBEFORE_END,1602650798910,6,
389,17,7,WS_SEND_START,1602650798910,6,
389,17,7,WS_SEND_END,1602650798910,6,
389,17,7,WS_RECV_INIT_START,1602650798910,7,
389,17,7,WS_RECV_INIT_END,1602650798912,7,
389,17,7,WS_RECV_START,1602650798912,8,
389,17,7,WS_RECV_END,1602650798965,8,
389,17,7,PLAYBACK_SLEEPBEFORE_START,1602650798965,9,
389,17,7,PLAYBACK_SLEEPBEFORE_END,1602650800911,9,
389,17,7,WS_SEND_START,1602650800911,9,
389,17,7,WS_SEND_END,1602650800911,9,
389,17,7,PLAYBACK_SLEEPBEFORE_START,1602650800911,10,
389,17,7,PLAYBACK_SLEEPBEFORE_END,1602650801458,10,
389,17,7,WS_SEND_START,1602650801458,10,
389,17,7,WS_SEND_END,1602650801458,10,
389,17,7,WS_RECV_START,1602650801458,11,
389,17,7,WS_RECV_END,1602650804014,11,
389,17,7,PLAYBACK_SLEEPBEFORE_START,1602650804014,12,
389,17,7,PLAYBACK_SLEEPBEFORE_END,1602650805421,12,
389,17,7,WS_CLOSE_START,1602650805421,12,
389,17,7,WS_CLOSE_END,1602650805421,12,
389,17,7,PLAYBACK_DONE,1602650805422,0,
