# http://denbi-training.bihealth.org --workers 55 --loaded-duration-minutes 2 --output-dir training-15nodes-55
# {"appUrl":"http://denbi-training.bihealth.org","debugLog":false,"loadedDurationMinutes":2.0,"logLevel":"WARN","outputDir":"training-15nodes-55","overwriteOutput":false,"recordingPath":"recording.log","workers":55}
session_id,worker_id,iteration,event,timestamp,input_line_number,comment
400,3,8,PLAYER_SESSION_CREATE,1602650797978,0,
400,3,8,REQ_HOME_START,1602650797979,4,
400,3,8,REQ_HOME_END,1602650798849,4,
400,3,8,WS_OPEN_START,1602650798849,5,
400,3,8,WS_OPEN_END,1602650798920,5,
400,3,8,PLAYBACK_SLEEPBEFORE_START,1602650798920,6,
400,3,8,PLAYBACK_SLEEPBEFORE_END,1602650798923,6,
400,3,8,WS_SEND_START,1602650798923,6,
400,3,8,WS_SEND_END,1602650798923,6,
400,3,8,WS_RECV_INIT_START,1602650798923,7,
400,3,8,WS_RECV_INIT_END,1602650798926,7,
400,3,8,WS_RECV_START,1602650798926,8,
400,3,8,WS_RECV_END,1602650798977,8,
400,3,8,PLAYBACK_SLEEPBEFORE_START,1602650798977,9,
400,3,8,PLAYBACK_SLEEPBEFORE_END,1602650800922,9,
400,3,8,WS_SEND_START,1602650800922,9,
400,3,8,WS_SEND_END,1602650800922,9,
400,3,8,PLAYBACK_SLEEPBEFORE_START,1602650800922,10,
400,3,8,PLAYBACK_SLEEPBEFORE_END,1602650801469,10,
400,3,8,WS_SEND_START,1602650801469,10,
400,3,8,WS_SEND_END,1602650801469,10,
400,3,8,WS_RECV_START,1602650801469,11,
400,3,8,WS_RECV_END,1602650804580,11,
400,3,8,PLAYBACK_SLEEPBEFORE_START,1602650804580,12,
400,3,8,PLAYBACK_SLEEPBEFORE_END,1602650805987,12,
400,3,8,WS_CLOSE_START,1602650805987,12,
400,3,8,WS_CLOSE_END,1602650805987,12,
400,3,8,PLAYBACK_DONE,1602650805987,0,
