# http://denbi-training.bihealth.org --workers 55 --loaded-duration-minutes 2 --output-dir training-15nodes-55
# {"appUrl":"http://denbi-training.bihealth.org","debugLog":false,"loadedDurationMinutes":2.0,"logLevel":"WARN","outputDir":"training-15nodes-55","overwriteOutput":false,"recordingPath":"recording.log","workers":55}
session_id,worker_id,iteration,event,timestamp,input_line_number,comment
412,50,7,PLAYER_SESSION_CREATE,1602650798923,0,
412,50,7,REQ_HOME_START,1602650798923,4,
412,50,7,REQ_HOME_END,1602650799019,4,
412,50,7,WS_OPEN_START,1602650799019,5,
412,50,7,WS_OPEN_END,1602650799103,5,
412,50,7,PLAYBACK_SLEEPBEFORE_START,1602650799103,6,
412,50,7,PLAYBACK_SLEEPBEFORE_END,1602650799107,6,
412,50,7,WS_SEND_START,1602650799107,6,
412,50,7,WS_SEND_END,1602650799107,6,
412,50,7,WS_RECV_INIT_START,1602650799107,7,
412,50,7,WS_RECV_INIT_END,1602650799107,7,
412,50,7,WS_RECV_START,1602650799107,8,
412,50,7,WS_RECV_END,1602650799151,8,
412,50,7,PLAYBACK_SLEEPBEFORE_START,1602650799151,9,
412,50,7,PLAYBACK_SLEEPBEFORE_END,1602650801096,9,
412,50,7,WS_SEND_START,1602650801096,9,
412,50,7,WS_SEND_END,1602650801096,9,
412,50,7,PLAYBACK_SLEEPBEFORE_START,1602650801096,10,
412,50,7,PLAYBACK_SLEEPBEFORE_END,1602650801643,10,
412,50,7,WS_SEND_START,1602650801643,10,
412,50,7,WS_SEND_END,1602650801643,10,
412,50,7,WS_RECV_START,1602650801643,11,
412,50,7,WS_RECV_END,1602650805065,11,
412,50,7,PLAYBACK_SLEEPBEFORE_START,1602650805065,12,
412,50,7,PLAYBACK_SLEEPBEFORE_END,1602650806472,12,
412,50,7,WS_CLOSE_START,1602650806472,12,
412,50,7,WS_CLOSE_END,1602650806473,12,
412,50,7,PLAYBACK_DONE,1602650806473,0,
