# http://denbi-training.bihealth.org --workers 55 --loaded-duration-minutes 2 --output-dir training-15nodes-55
# {"appUrl":"http://denbi-training.bihealth.org","debugLog":false,"loadedDurationMinutes":2.0,"logLevel":"WARN","outputDir":"training-15nodes-55","overwriteOutput":false,"recordingPath":"recording.log","workers":55}
session_id,worker_id,iteration,event,timestamp,input_line_number,comment
416,47,7,PLAYER_SESSION_CREATE,1602650799450,0,
416,47,7,REQ_HOME_START,1602650799450,4,
416,47,7,REQ_HOME_END,1602650799545,4,
416,47,7,WS_OPEN_START,1602650799545,5,
416,47,7,WS_OPEN_END,1602650799619,5,
416,47,7,PLAYBACK_SLEEPBEFORE_START,1602650799619,6,
416,47,7,PLAYBACK_SLEEPBEFORE_END,1602650799622,6,
416,47,7,WS_SEND_START,1602650799622,6,
416,47,7,WS_SEND_END,1602650799622,6,
416,47,7,WS_RECV_INIT_START,1602650799622,7,
416,47,7,WS_RECV_INIT_END,1602650799629,7,
416,47,7,WS_RECV_START,1602650799629,8,
416,47,7,WS_RECV_END,1602650799672,8,
416,47,7,PLAYBACK_SLEEPBEFORE_START,1602650799672,9,
416,47,7,PLAYBACK_SLEEPBEFORE_END,1602650801617,9,
416,47,7,WS_SEND_START,1602650801617,9,
416,47,7,WS_SEND_END,1602650801617,9,
416,47,7,PLAYBACK_SLEEPBEFORE_START,1602650801617,10,
416,47,7,PLAYBACK_SLEEPBEFORE_END,1602650802164,10,
416,47,7,WS_SEND_START,1602650802164,10,
416,47,7,WS_SEND_END,1602650802164,10,
416,47,7,WS_RECV_START,1602650802164,11,
416,47,7,WS_RECV_END,1602650804991,11,
416,47,7,PLAYBACK_SLEEPBEFORE_START,1602650804991,12,
416,47,7,PLAYBACK_SLEEPBEFORE_END,1602650806398,12,
416,47,7,WS_CLOSE_START,1602650806398,12,
416,47,7,WS_CLOSE_END,1602650806399,12,
416,47,7,PLAYBACK_DONE,1602650806399,0,
