# http://denbi-training.bihealth.org --workers 55 --loaded-duration-minutes 2 --output-dir training-15nodes-55
# {"appUrl":"http://denbi-training.bihealth.org","debugLog":false,"loadedDurationMinutes":2.0,"logLevel":"WARN","outputDir":"training-15nodes-55","overwriteOutput":false,"recordingPath":"recording.log","workers":55}
session_id,worker_id,iteration,event,timestamp,input_line_number,comment
427,42,6,PLAYER_SESSION_CREATE,1602650800526,0,
427,42,6,REQ_HOME_START,1602650800527,4,
427,42,6,REQ_HOME_END,1602650801753,4,
427,42,6,WS_OPEN_START,1602650801753,5,
427,42,6,WS_OPEN_END,1602650805555,5,
427,42,6,PLAYBACK_SLEEPBEFORE_START,1602650805555,6,
427,42,6,PLAYBACK_SLEEPBEFORE_END,1602650805558,6,
427,42,6,WS_SEND_START,1602650805558,6,
427,42,6,WS_SEND_END,1602650805558,6,
427,42,6,WS_RECV_INIT_START,1602650805558,7,
427,42,6,WS_RECV_INIT_END,1602650806309,7,
427,42,6,WS_RECV_START,1602650806309,8,
427,42,6,WS_RECV_END,1602650806326,8,
427,42,6,PLAYBACK_SLEEPBEFORE_START,1602650806326,9,
427,42,6,PLAYBACK_SLEEPBEFORE_END,1602650808271,9,
427,42,6,WS_SEND_START,1602650808271,9,
427,42,6,WS_SEND_END,1602650808271,9,
427,42,6,PLAYBACK_SLEEPBEFORE_START,1602650808271,10,
427,42,6,PLAYBACK_SLEEPBEFORE_END,1602650808818,10,
427,42,6,WS_SEND_START,1602650808818,10,
427,42,6,WS_SEND_END,1602650808818,10,
427,42,6,WS_RECV_START,1602650808818,11,
427,42,6,WS_RECV_END,1602650810238,11,
427,42,6,PLAYBACK_SLEEPBEFORE_START,1602650810238,12,
427,42,6,PLAYBACK_SLEEPBEFORE_END,1602650811645,12,
427,42,6,WS_CLOSE_START,1602650811645,12,
427,42,6,WS_CLOSE_END,1602650811645,12,
427,42,6,PLAYBACK_DONE,1602650811645,0,
