# http://denbi-training.bihealth.org --workers 55 --loaded-duration-minutes 2 --output-dir training-15nodes-55
# {"appUrl":"http://denbi-training.bihealth.org","debugLog":false,"loadedDurationMinutes":2.0,"logLevel":"WARN","outputDir":"training-15nodes-55","overwriteOutput":false,"recordingPath":"recording.log","workers":55}
session_id,worker_id,iteration,event,timestamp,input_line_number,comment
441,12,9,PLAYER_SESSION_CREATE,1602650803938,0,
441,12,9,REQ_HOME_START,1602650803938,4,
441,12,9,REQ_HOME_END,1602650804885,4,
441,12,9,WS_OPEN_START,1602650804885,5,
441,12,9,WS_OPEN_END,1602650805480,5,
441,12,9,PLAYBACK_SLEEPBEFORE_START,1602650805480,6,
441,12,9,PLAYBACK_SLEEPBEFORE_END,1602650805483,6,
441,12,9,WS_SEND_START,1602650805483,6,
441,12,9,WS_SEND_END,1602650805483,6,
441,12,9,WS_RECV_INIT_START,1602650805483,7,
441,12,9,WS_RECV_INIT_END,1602650805503,7,
441,12,9,WS_RECV_START,1602650805503,8,
441,12,9,WS_RECV_END,1602650805533,8,
441,12,9,PLAYBACK_SLEEPBEFORE_START,1602650805534,9,
441,12,9,PLAYBACK_SLEEPBEFORE_END,1602650807479,9,
441,12,9,WS_SEND_START,1602650807479,9,
441,12,9,WS_SEND_END,1602650807479,9,
441,12,9,PLAYBACK_SLEEPBEFORE_START,1602650807479,10,
441,12,9,PLAYBACK_SLEEPBEFORE_END,1602650808026,10,
441,12,9,WS_SEND_START,1602650808026,10,
441,12,9,WS_SEND_END,1602650808026,10,
441,12,9,WS_RECV_START,1602650808026,11,
441,12,9,WS_RECV_END,1602650812503,11,
441,12,9,PLAYBACK_SLEEPBEFORE_START,1602650812503,12,
441,12,9,PLAYBACK_SLEEPBEFORE_END,1602650813910,12,
441,12,9,WS_CLOSE_START,1602650813910,12,
441,12,9,WS_CLOSE_END,1602650813910,12,
441,12,9,PLAYBACK_DONE,1602650813910,0,
