# http://denbi-training.bihealth.org --workers 55 --loaded-duration-minutes 2 --output-dir training-15nodes-55
# {"appUrl":"http://denbi-training.bihealth.org","debugLog":false,"loadedDurationMinutes":2.0,"logLevel":"WARN","outputDir":"training-15nodes-55","overwriteOutput":false,"recordingPath":"recording.log","workers":55}
session_id,worker_id,iteration,event,timestamp,input_line_number,comment
44,44,0,PLAYER_SESSION_CREATE,1602650748082,0,
44,44,0,REQ_HOME_START,1602650748082,4,
44,44,0,REQ_HOME_END,1602650748167,4,
44,44,0,WS_OPEN_START,1602650748167,5,
44,44,0,WS_OPEN_END,1602650749758,5,
44,44,0,PLAYBACK_SLEEPBEFORE_START,1602650749758,6,
44,44,0,PLAYBACK_SLEEPBEFORE_END,1602650749761,6,
44,44,0,WS_SEND_START,1602650749761,6,
44,44,0,WS_SEND_END,1602650749763,6,
44,44,0,WS_RECV_INIT_START,1602650749763,7,
44,44,0,WS_RECV_INIT_END,1602650750799,7,
44,44,0,WS_RECV_START,1602650750799,8,
44,44,0,WS_RECV_END,1602650750799,8,
44,44,0,PLAYBACK_SLEEPBEFORE_START,1602650750799,9,
44,44,0,PLAYBACK_SLEEPBEFORE_END,1602650752744,9,
44,44,0,WS_SEND_START,1602650752745,9,
44,44,0,WS_SEND_END,1602650752745,9,
44,44,0,PLAYBACK_SLEEPBEFORE_START,1602650752745,10,
44,44,0,PLAYBACK_SLEEPBEFORE_END,1602650753292,10,
44,44,0,WS_SEND_START,1602650753292,10,
44,44,0,WS_SEND_END,1602650753292,10,
44,44,0,WS_RECV_START,1602650753292,11,
44,44,0,WS_RECV_END,1602650755516,11,
44,44,0,PLAYBACK_SLEEPBEFORE_START,1602650755516,12,
44,44,0,PLAYBACK_SLEEPBEFORE_END,1602650756923,12,
44,44,0,WS_CLOSE_START,1602650756923,12,
44,44,0,WS_CLOSE_END,1602650756924,12,
44,44,0,PLAYBACK_DONE,1602650756925,0,
