# http://denbi-training.bihealth.org --workers 55 --loaded-duration-minutes 2 --output-dir training-15nodes-55
# {"appUrl":"http://denbi-training.bihealth.org","debugLog":false,"loadedDurationMinutes":2.0,"logLevel":"WARN","outputDir":"training-15nodes-55","overwriteOutput":false,"recordingPath":"recording.log","workers":55}
session_id,worker_id,iteration,event,timestamp,input_line_number,comment
467,22,7,PLAYER_SESSION_CREATE,1602650806937,0,
467,22,7,REQ_HOME_START,1602650806937,4,
467,22,7,REQ_HOME_END,1602650807075,4,
467,22,7,WS_OPEN_START,1602650807075,5,
467,22,7,WS_OPEN_END,1602650808570,5,
467,22,7,PLAYBACK_SLEEPBEFORE_START,1602650808570,6,
467,22,7,PLAYBACK_SLEEPBEFORE_END,1602650808573,6,
467,22,7,WS_SEND_START,1602650808573,6,
467,22,7,WS_SEND_END,1602650808573,6,
467,22,7,WS_RECV_INIT_START,1602650808573,7,
467,22,7,WS_RECV_INIT_END,1602650808589,7,
467,22,7,WS_RECV_START,1602650808589,8,
467,22,7,WS_RECV_END,1602650808669,8,
467,22,7,PLAYBACK_SLEEPBEFORE_START,1602650808669,9,
467,22,7,PLAYBACK_SLEEPBEFORE_END,1602650810614,9,
467,22,7,WS_SEND_START,1602650810614,9,
467,22,7,WS_SEND_END,1602650810614,9,
467,22,7,PLAYBACK_SLEEPBEFORE_START,1602650810614,10,
467,22,7,PLAYBACK_SLEEPBEFORE_END,1602650811161,10,
467,22,7,WS_SEND_START,1602650811162,10,
467,22,7,WS_SEND_END,1602650811162,10,
467,22,7,WS_RECV_START,1602650811162,11,
467,22,7,WS_RECV_END,1602650812258,11,
467,22,7,PLAYBACK_SLEEPBEFORE_START,1602650812258,12,
467,22,7,PLAYBACK_SLEEPBEFORE_END,1602650813665,12,
467,22,7,WS_CLOSE_START,1602650813665,12,
467,22,7,WS_CLOSE_END,1602650813665,12,
467,22,7,PLAYBACK_DONE,1602650813665,0,
