# http://denbi-training.bihealth.org --workers 55 --loaded-duration-minutes 2 --output-dir training-15nodes-55
# {"appUrl":"http://denbi-training.bihealth.org","debugLog":false,"loadedDurationMinutes":2.0,"logLevel":"WARN","outputDir":"training-15nodes-55","overwriteOutput":false,"recordingPath":"recording.log","workers":55}
session_id,worker_id,iteration,event,timestamp,input_line_number,comment
482,6,9,PLAYER_SESSION_CREATE,1602650809638,0,
482,6,9,REQ_HOME_START,1602650809638,4,
482,6,9,REQ_HOME_END,1602650809726,4,
482,6,9,WS_OPEN_START,1602650809726,5,
482,6,9,WS_OPEN_END,1602650811726,5,
482,6,9,PLAYBACK_SLEEPBEFORE_START,1602650811726,6,
482,6,9,PLAYBACK_SLEEPBEFORE_END,1602650811729,6,
482,6,9,WS_SEND_START,1602650811729,6,
482,6,9,WS_SEND_END,1602650811729,6,
482,6,9,WS_RECV_INIT_START,1602650811729,7,
482,6,9,WS_RECV_INIT_END,1602650812629,7,
482,6,9,WS_RECV_START,1602650812629,8,
482,6,9,WS_RECV_END,1602650812640,8,
482,6,9,PLAYBACK_SLEEPBEFORE_START,1602650812640,9,
482,6,9,PLAYBACK_SLEEPBEFORE_END,1602650814585,9,
482,6,9,WS_SEND_START,1602650814585,9,
482,6,9,WS_SEND_END,1602650814585,9,
482,6,9,PLAYBACK_SLEEPBEFORE_START,1602650814585,10,
482,6,9,PLAYBACK_SLEEPBEFORE_END,1602650815132,10,
482,6,9,WS_SEND_START,1602650815132,10,
482,6,9,WS_SEND_END,1602650815132,10,
482,6,9,WS_RECV_START,1602650815132,11,
482,6,9,WS_RECV_END,1602650817079,11,
482,6,9,PLAYBACK_SLEEPBEFORE_START,1602650817079,12,
482,6,9,PLAYBACK_SLEEPBEFORE_END,1602650818487,12,
482,6,9,WS_CLOSE_START,1602650818487,12,
482,6,9,WS_CLOSE_END,1602650818487,12,
482,6,9,PLAYBACK_DONE,1602650818487,0,
