# http://denbi-training.bihealth.org --workers 55 --loaded-duration-minutes 2 --output-dir training-15nodes-55
# {"appUrl":"http://denbi-training.bihealth.org","debugLog":false,"loadedDurationMinutes":2.0,"logLevel":"WARN","outputDir":"training-15nodes-55","overwriteOutput":false,"recordingPath":"recording.log","workers":55}
session_id,worker_id,iteration,event,timestamp,input_line_number,comment
488,16,9,PLAYER_SESSION_CREATE,1602650810129,0,
488,16,9,REQ_HOME_START,1602650810129,4,
488,16,9,REQ_HOME_END,1602650810307,4,
488,16,9,WS_OPEN_START,1602650810307,5,
488,16,9,WS_OPEN_END,1602650811113,5,
488,16,9,PLAYBACK_SLEEPBEFORE_START,1602650811113,6,
488,16,9,PLAYBACK_SLEEPBEFORE_END,1602650811116,6,
488,16,9,WS_SEND_START,1602650811116,6,
488,16,9,WS_SEND_END,1602650811116,6,
488,16,9,WS_RECV_INIT_START,1602650811116,7,
488,16,9,WS_RECV_INIT_END,1602650812135,7,
488,16,9,WS_RECV_START,1602650812135,8,
488,16,9,WS_RECV_END,1602650812150,8,
488,16,9,PLAYBACK_SLEEPBEFORE_START,1602650812150,9,
488,16,9,PLAYBACK_SLEEPBEFORE_END,1602650814095,9,
488,16,9,WS_SEND_START,1602650814095,9,
488,16,9,WS_SEND_END,1602650814095,9,
488,16,9,PLAYBACK_SLEEPBEFORE_START,1602650814095,10,
488,16,9,PLAYBACK_SLEEPBEFORE_END,1602650814642,10,
488,16,9,WS_SEND_START,1602650814642,10,
488,16,9,WS_SEND_END,1602650814642,10,
488,16,9,WS_RECV_START,1602650814642,11,
488,16,9,WS_RECV_END,1602650816871,11,
488,16,9,PLAYBACK_SLEEPBEFORE_START,1602650816871,12,
488,16,9,PLAYBACK_SLEEPBEFORE_END,1602650818278,12,
488,16,9,WS_CLOSE_START,1602650818278,12,
488,16,9,WS_CLOSE_END,1602650818279,12,
488,16,9,PLAYBACK_DONE,1602650818279,0,
