# http://denbi-training.bihealth.org --workers 55 --loaded-duration-minutes 2 --output-dir training-15nodes-55
# {"appUrl":"http://denbi-training.bihealth.org","debugLog":false,"loadedDurationMinutes":2.0,"logLevel":"WARN","outputDir":"training-15nodes-55","overwriteOutput":false,"recordingPath":"recording.log","workers":55}
session_id,worker_id,iteration,event,timestamp,input_line_number,comment
48,48,0,PLAYER_SESSION_CREATE,1602650748518,0,
48,48,0,REQ_HOME_START,1602650748518,4,
48,48,0,REQ_HOME_END,1602650748763,4,
48,48,0,WS_OPEN_START,1602650748763,5,
48,48,0,WS_OPEN_END,1602650749752,5,
48,48,0,PLAYBACK_SLEEPBEFORE_START,1602650749753,6,
48,48,0,PLAYBACK_SLEEPBEFORE_END,1602650749756,6,
48,48,0,WS_SEND_START,1602650749756,6,
48,48,0,WS_SEND_END,1602650749756,6,
48,48,0,WS_RECV_INIT_START,1602650749756,7,
48,48,0,WS_RECV_INIT_END,1602650749759,7,
48,48,0,WS_RECV_START,1602650749759,8,
48,48,0,WS_RECV_END,1602650749942,8,
48,48,0,PLAYBACK_SLEEPBEFORE_START,1602650749942,9,
48,48,0,PLAYBACK_SLEEPBEFORE_END,1602650751887,9,
48,48,0,WS_SEND_START,1602650751888,9,
48,48,0,WS_SEND_END,1602650751888,9,
48,48,0,PLAYBACK_SLEEPBEFORE_START,1602650751888,10,
48,48,0,PLAYBACK_SLEEPBEFORE_END,1602650752435,10,
48,48,0,WS_SEND_START,1602650752435,10,
48,48,0,WS_SEND_END,1602650752435,10,
48,48,0,WS_RECV_START,1602650752435,11,
48,48,0,WS_RECV_END,1602650753519,11,
48,48,0,PLAYBACK_SLEEPBEFORE_START,1602650753519,12,
48,48,0,PLAYBACK_SLEEPBEFORE_END,1602650754926,12,
48,48,0,WS_CLOSE_START,1602650754926,12,
48,48,0,WS_CLOSE_END,1602650754926,12,
48,48,0,PLAYBACK_DONE,1602650754927,0,
