# http://denbi-training.bihealth.org --workers 55 --loaded-duration-minutes 2 --output-dir training-15nodes-55
# {"appUrl":"http://denbi-training.bihealth.org","debugLog":false,"loadedDurationMinutes":2.0,"logLevel":"WARN","outputDir":"training-15nodes-55","overwriteOutput":false,"recordingPath":"recording.log","workers":55}
session_id,worker_id,iteration,event,timestamp,input_line_number,comment
492,39,9,PLAYER_SESSION_CREATE,1602650810830,0,
492,39,9,REQ_HOME_START,1602650810830,4,
492,39,9,REQ_HOME_END,1602650810918,4,
492,39,9,WS_OPEN_START,1602650810918,5,
492,39,9,WS_OPEN_END,1602650811102,5,
492,39,9,PLAYBACK_SLEEPBEFORE_START,1602650811102,6,
492,39,9,PLAYBACK_SLEEPBEFORE_END,1602650811105,6,
492,39,9,WS_SEND_START,1602650811105,6,
492,39,9,WS_SEND_END,1602650811106,6,
492,39,9,WS_RECV_INIT_START,1602650811106,7,
492,39,9,WS_RECV_INIT_END,1602650811112,7,
492,39,9,WS_RECV_START,1602650811112,8,
492,39,9,WS_RECV_END,1602650811158,8,
492,39,9,PLAYBACK_SLEEPBEFORE_START,1602650811158,9,
492,39,9,PLAYBACK_SLEEPBEFORE_END,1602650813103,9,
492,39,9,WS_SEND_START,1602650813103,9,
492,39,9,WS_SEND_END,1602650813103,9,
492,39,9,PLAYBACK_SLEEPBEFORE_START,1602650813103,10,
492,39,9,PLAYBACK_SLEEPBEFORE_END,1602650813650,10,
492,39,9,WS_SEND_START,1602650813651,10,
492,39,9,WS_SEND_END,1602650813651,10,
492,39,9,WS_RECV_START,1602650813651,11,
492,39,9,WS_RECV_END,1602650815047,11,
492,39,9,PLAYBACK_SLEEPBEFORE_START,1602650815047,12,
492,39,9,PLAYBACK_SLEEPBEFORE_END,1602650816454,12,
492,39,9,WS_CLOSE_START,1602650816454,12,
492,39,9,WS_CLOSE_END,1602650816454,12,
492,39,9,PLAYBACK_DONE,1602650816454,0,
