# http://denbi-training.bihealth.org --workers 55 --loaded-duration-minutes 2 --output-dir training-15nodes-55
# {"appUrl":"http://denbi-training.bihealth.org","debugLog":false,"loadedDurationMinutes":2.0,"logLevel":"WARN","outputDir":"training-15nodes-55","overwriteOutput":false,"recordingPath":"recording.log","workers":55}
session_id,worker_id,iteration,event,timestamp,input_line_number,comment
519,22,8,PLAYER_SESSION_CREATE,1602650813666,0,
519,22,8,REQ_HOME_START,1602650813666,4,
519,22,8,REQ_HOME_END,1602650813759,4,
519,22,8,WS_OPEN_START,1602650813759,5,
519,22,8,WS_OPEN_END,1602650814757,5,
519,22,8,PLAYBACK_SLEEPBEFORE_START,1602650814757,6,
519,22,8,PLAYBACK_SLEEPBEFORE_END,1602650814760,6,
519,22,8,WS_SEND_START,1602650814760,6,
519,22,8,WS_SEND_END,1602650814760,6,
519,22,8,WS_RECV_INIT_START,1602650814760,7,
519,22,8,WS_RECV_INIT_END,1602650815740,7,
519,22,8,WS_RECV_START,1602650815740,8,
519,22,8,WS_RECV_END,1602650815764,8,
519,22,8,PLAYBACK_SLEEPBEFORE_START,1602650815764,9,
519,22,8,PLAYBACK_SLEEPBEFORE_END,1602650817710,9,
519,22,8,WS_SEND_START,1602650817710,9,
519,22,8,WS_SEND_END,1602650817710,9,
519,22,8,PLAYBACK_SLEEPBEFORE_START,1602650817710,10,
519,22,8,PLAYBACK_SLEEPBEFORE_END,1602650818257,10,
519,22,8,WS_SEND_START,1602650818257,10,
519,22,8,WS_SEND_END,1602650818257,10,
519,22,8,WS_RECV_START,1602650818257,11,
519,22,8,WS_RECV_END,1602650819413,11,
519,22,8,PLAYBACK_SLEEPBEFORE_START,1602650819413,12,
519,22,8,PLAYBACK_SLEEPBEFORE_END,1602650820850,12,
519,22,8,WS_CLOSE_START,1602650820850,12,
519,22,8,WS_CLOSE_END,1602650820850,12,
519,22,8,PLAYBACK_DONE,1602650820850,0,
