# http://denbi-training.bihealth.org --workers 55 --loaded-duration-minutes 2 --output-dir training-15nodes-55
# {"appUrl":"http://denbi-training.bihealth.org","debugLog":false,"loadedDurationMinutes":2.0,"logLevel":"WARN","outputDir":"training-15nodes-55","overwriteOutput":false,"recordingPath":"recording.log","workers":55}
session_id,worker_id,iteration,event,timestamp,input_line_number,comment
537,4,10,PLAYER_SESSION_CREATE,1602650816494,0,
537,4,10,REQ_HOME_START,1602650816494,4,
537,4,10,REQ_HOME_END,1602650819197,4,
537,4,10,WS_OPEN_START,1602650819197,5,
537,4,10,WS_OPEN_END,1602650819292,5,
537,4,10,PLAYBACK_SLEEPBEFORE_START,1602650819292,6,
537,4,10,PLAYBACK_SLEEPBEFORE_END,1602650819295,6,
537,4,10,WS_SEND_START,1602650819295,6,
537,4,10,WS_SEND_END,1602650819295,6,
537,4,10,WS_RECV_INIT_START,1602650819295,7,
537,4,10,WS_RECV_INIT_END,1602650819295,7,
537,4,10,WS_RECV_START,1602650819295,8,
537,4,10,WS_RECV_END,1602650819338,8,
537,4,10,PLAYBACK_SLEEPBEFORE_START,1602650819338,9,
537,4,10,PLAYBACK_SLEEPBEFORE_END,1602650821284,9,
537,4,10,WS_SEND_START,1602650821284,9,
537,4,10,WS_SEND_END,1602650821284,9,
537,4,10,PLAYBACK_SLEEPBEFORE_START,1602650821284,10,
537,4,10,PLAYBACK_SLEEPBEFORE_END,1602650821831,10,
537,4,10,WS_SEND_START,1602650821831,10,
537,4,10,WS_SEND_END,1602650821831,10,
537,4,10,WS_RECV_START,1602650821831,11,
537,4,10,WS_RECV_END,1602650823890,11,
537,4,10,PLAYBACK_SLEEPBEFORE_START,1602650823890,12,
537,4,10,PLAYBACK_SLEEPBEFORE_END,1602650825297,12,
537,4,10,WS_CLOSE_START,1602650825297,12,
537,4,10,WS_CLOSE_END,1602650825297,12,
537,4,10,PLAYBACK_DONE,1602650825298,0,
