# http://denbi-training.bihealth.org --workers 55 --loaded-duration-minutes 2 --output-dir training-15nodes-55
# {"appUrl":"http://denbi-training.bihealth.org","debugLog":false,"loadedDurationMinutes":2.0,"logLevel":"WARN","outputDir":"training-15nodes-55","overwriteOutput":false,"recordingPath":"recording.log","workers":55}
session_id,worker_id,iteration,event,timestamp,input_line_number,comment
53,52,0,PLAYER_SESSION_CREATE,1602650748955,0,
53,52,0,REQ_HOME_START,1602650748955,4,
53,52,0,REQ_HOME_END,1602650749352,4,
53,52,0,WS_OPEN_START,1602650749352,5,
53,52,0,WS_OPEN_END,1602650749485,5,
53,52,0,PLAYBACK_SLEEPBEFORE_START,1602650749486,6,
53,52,0,PLAYBACK_SLEEPBEFORE_END,1602650749490,6,
53,52,0,WS_SEND_START,1602650749490,6,
53,52,0,WS_SEND_END,1602650749490,6,
53,52,0,WS_RECV_INIT_START,1602650749490,7,
53,52,0,WS_RECV_INIT_END,1602650749490,7,
53,52,0,WS_RECV_START,1602650749490,8,
53,52,0,WS_RECV_END,1602650749537,8,
53,52,0,PLAYBACK_SLEEPBEFORE_START,1602650749537,9,
53,52,0,PLAYBACK_SLEEPBEFORE_END,1602650751482,9,
53,52,0,WS_SEND_START,1602650751483,9,
53,52,0,WS_SEND_END,1602650751483,9,
53,52,0,PLAYBACK_SLEEPBEFORE_START,1602650751483,10,
53,52,0,PLAYBACK_SLEEPBEFORE_END,1602650752030,10,
53,52,0,WS_SEND_START,1602650752030,10,
53,52,0,WS_SEND_END,1602650752030,10,
53,52,0,WS_RECV_START,1602650752030,11,
53,52,0,WS_RECV_END,1602650754393,11,
53,52,0,PLAYBACK_SLEEPBEFORE_START,1602650754393,12,
53,52,0,PLAYBACK_SLEEPBEFORE_END,1602650755800,12,
53,52,0,WS_CLOSE_START,1602650755800,12,
53,52,0,WS_CLOSE_END,1602650755800,12,
53,52,0,PLAYBACK_DONE,1602650755801,0,
