# http://denbi-training.bihealth.org --workers 55 --loaded-duration-minutes 2 --output-dir training-15nodes-55
# {"appUrl":"http://denbi-training.bihealth.org","debugLog":false,"loadedDurationMinutes":2.0,"logLevel":"WARN","outputDir":"training-15nodes-55","overwriteOutput":false,"recordingPath":"recording.log","workers":55}
session_id,worker_id,iteration,event,timestamp,input_line_number,comment
540,35,10,PLAYER_SESSION_CREATE,1602650817757,0,
540,35,10,REQ_HOME_START,1602650817757,4,
540,35,10,REQ_HOME_END,1602650818468,4,
540,35,10,WS_OPEN_START,1602650818468,5,
540,35,10,WS_OPEN_END,1602650819038,5,
540,35,10,PLAYBACK_SLEEPBEFORE_START,1602650819038,6,
540,35,10,PLAYBACK_SLEEPBEFORE_END,1602650819041,6,
540,35,10,WS_SEND_START,1602650819041,6,
540,35,10,WS_SEND_END,1602650819041,6,
540,35,10,WS_RECV_INIT_START,1602650819041,7,
540,35,10,WS_RECV_INIT_END,1602650819041,7,
540,35,10,WS_RECV_START,1602650819041,8,
540,35,10,WS_RECV_END,1602650819086,8,
540,35,10,PLAYBACK_SLEEPBEFORE_START,1602650819086,9,
540,35,10,PLAYBACK_SLEEPBEFORE_END,1602650821031,9,
540,35,10,WS_SEND_START,1602650821031,9,
540,35,10,WS_SEND_END,1602650821031,9,
540,35,10,PLAYBACK_SLEEPBEFORE_START,1602650821031,10,
540,35,10,PLAYBACK_SLEEPBEFORE_END,1602650821579,10,
540,35,10,WS_SEND_START,1602650821579,10,
540,35,10,WS_SEND_END,1602650821579,10,
540,35,10,WS_RECV_START,1602650821579,11,
540,35,10,WS_RECV_END,1602650823335,11,
540,35,10,PLAYBACK_SLEEPBEFORE_START,1602650823335,12,
540,35,10,PLAYBACK_SLEEPBEFORE_END,1602650824743,12,
540,35,10,WS_CLOSE_START,1602650824743,12,
540,35,10,WS_CLOSE_END,1602650824743,12,
540,35,10,PLAYBACK_DONE,1602650824743,0,
