# http://denbi-training.bihealth.org --workers 55 --loaded-duration-minutes 2 --output-dir training-15nodes-55
# {"appUrl":"http://denbi-training.bihealth.org","debugLog":false,"loadedDurationMinutes":2.0,"logLevel":"WARN","outputDir":"training-15nodes-55","overwriteOutput":false,"recordingPath":"recording.log","workers":55}
session_id,worker_id,iteration,event,timestamp,input_line_number,comment
549,45,9,PLAYER_SESSION_CREATE,1602650818933,0,
549,45,9,REQ_HOME_START,1602650818933,4,
549,45,9,REQ_HOME_END,1602650819088,4,
549,45,9,WS_OPEN_START,1602650819088,5,
549,45,9,WS_OPEN_END,1602650819186,5,
549,45,9,PLAYBACK_SLEEPBEFORE_START,1602650819186,6,
549,45,9,PLAYBACK_SLEEPBEFORE_END,1602650819189,6,
549,45,9,WS_SEND_START,1602650819189,6,
549,45,9,WS_SEND_END,1602650819189,6,
549,45,9,WS_RECV_INIT_START,1602650819189,7,
549,45,9,WS_RECV_INIT_END,1602650819189,7,
549,45,9,WS_RECV_START,1602650819190,8,
549,45,9,WS_RECV_END,1602650819241,8,
549,45,9,PLAYBACK_SLEEPBEFORE_START,1602650819241,9,
549,45,9,PLAYBACK_SLEEPBEFORE_END,1602650821186,9,
549,45,9,WS_SEND_START,1602650821186,9,
549,45,9,WS_SEND_END,1602650821186,9,
549,45,9,PLAYBACK_SLEEPBEFORE_START,1602650821186,10,
549,45,9,PLAYBACK_SLEEPBEFORE_END,1602650821733,10,
549,45,9,WS_SEND_START,1602650821733,10,
549,45,9,WS_SEND_END,1602650821733,10,
549,45,9,WS_RECV_START,1602650821733,11,
549,45,9,WS_RECV_END,1602650823969,11,
549,45,9,PLAYBACK_SLEEPBEFORE_START,1602650823969,12,
549,45,9,PLAYBACK_SLEEPBEFORE_END,1602650825376,12,
549,45,9,WS_CLOSE_START,1602650825376,12,
549,45,9,WS_CLOSE_END,1602650825376,12,
549,45,9,PLAYBACK_DONE,1602650825376,0,
