# http://denbi-training.bihealth.org --workers 55 --loaded-duration-minutes 2 --output-dir training-15nodes-55
# {"appUrl":"http://denbi-training.bihealth.org","debugLog":false,"loadedDurationMinutes":2.0,"logLevel":"WARN","outputDir":"training-15nodes-55","overwriteOutput":false,"recordingPath":"recording.log","workers":55}
session_id,worker_id,iteration,event,timestamp,input_line_number,comment
54,53,0,PLAYER_SESSION_CREATE,1602650749064,0,
54,53,0,REQ_HOME_START,1602650749064,4,
54,53,0,REQ_HOME_END,1602650749257,4,
54,53,0,WS_OPEN_START,1602650749257,5,
54,53,0,WS_OPEN_END,1602650749408,5,
54,53,0,PLAYBACK_SLEEPBEFORE_START,1602650749408,6,
54,53,0,PLAYBACK_SLEEPBEFORE_END,1602650749412,6,
54,53,0,WS_SEND_START,1602650749412,6,
54,53,0,WS_SEND_END,1602650749412,6,
54,53,0,WS_RECV_INIT_START,1602650749412,7,
54,53,0,WS_RECV_INIT_END,1602650749451,7,
54,53,0,WS_RECV_START,1602650749451,8,
54,53,0,WS_RECV_END,1602650749506,8,
54,53,0,PLAYBACK_SLEEPBEFORE_START,1602650749506,9,
54,53,0,PLAYBACK_SLEEPBEFORE_END,1602650751452,9,
54,53,0,WS_SEND_START,1602650751452,9,
54,53,0,WS_SEND_END,1602650751452,9,
54,53,0,PLAYBACK_SLEEPBEFORE_START,1602650751452,10,
54,53,0,PLAYBACK_SLEEPBEFORE_END,1602650751999,10,
54,53,0,WS_SEND_START,1602650751999,10,
54,53,0,WS_SEND_END,1602650751999,10,
54,53,0,WS_RECV_START,1602650751999,11,
54,53,0,WS_RECV_END,1602650753774,11,
54,53,0,PLAYBACK_SLEEPBEFORE_START,1602650753774,12,
54,53,0,PLAYBACK_SLEEPBEFORE_END,1602650755181,12,
54,53,0,WS_CLOSE_START,1602650755181,12,
54,53,0,WS_CLOSE_END,1602650755182,12,
54,53,0,PLAYBACK_DONE,1602650755182,0,
