# http://denbi-training.bihealth.org --workers 55 --loaded-duration-minutes 2 --output-dir training-15nodes-55
# {"appUrl":"http://denbi-training.bihealth.org","debugLog":false,"loadedDurationMinutes":2.0,"logLevel":"WARN","outputDir":"training-15nodes-55","overwriteOutput":false,"recordingPath":"recording.log","workers":55}
session_id,worker_id,iteration,event,timestamp,input_line_number,comment
55,54,0,PLAYER_SESSION_CREATE,1602650749173,0,
55,54,0,REQ_HOME_START,1602650749173,4,
55,54,0,REQ_HOME_END,1602650752103,4,
55,54,0,WS_OPEN_START,1602650752103,5,
55,54,0,WS_OPEN_END,1602650753455,5,
55,54,0,PLAYBACK_SLEEPBEFORE_START,1602650753455,6,
55,54,0,PLAYBACK_SLEEPBEFORE_END,1602650753459,6,
55,54,0,WS_SEND_START,1602650753459,6,
55,54,0,WS_SEND_END,1602650753459,6,
55,54,0,WS_RECV_INIT_START,1602650753459,7,
55,54,0,WS_RECV_INIT_END,1602650753464,7,
55,54,0,WS_RECV_START,1602650753464,8,
55,54,0,WS_RECV_END,1602650753499,8,
55,54,0,PLAYBACK_SLEEPBEFORE_START,1602650753499,9,
55,54,0,PLAYBACK_SLEEPBEFORE_END,1602650755444,9,
55,54,0,WS_SEND_START,1602650755444,9,
55,54,0,WS_SEND_END,1602650755444,9,
55,54,0,PLAYBACK_SLEEPBEFORE_START,1602650755444,10,
55,54,0,PLAYBACK_SLEEPBEFORE_END,1602650755992,10,
55,54,0,WS_SEND_START,1602650755992,10,
55,54,0,WS_SEND_END,1602650755992,10,
55,54,0,WS_RECV_START,1602650755992,11,
55,54,0,WS_RECV_END,1602650757217,11,
55,54,0,PLAYBACK_SLEEPBEFORE_START,1602650757217,12,
55,54,0,PLAYBACK_SLEEPBEFORE_END,1602650758624,12,
55,54,0,WS_CLOSE_START,1602650758624,12,
55,54,0,WS_CLOSE_END,1602650758624,12,
55,54,0,PLAYBACK_DONE,1602650758624,0,
