# http://denbi-training.bihealth.org --workers 55 --loaded-duration-minutes 2 --output-dir training-15nodes-55
# {"appUrl":"http://denbi-training.bihealth.org","debugLog":false,"loadedDurationMinutes":2.0,"logLevel":"WARN","outputDir":"training-15nodes-55","overwriteOutput":false,"recordingPath":"recording.log","workers":55}
session_id,worker_id,iteration,event,timestamp,input_line_number,comment
560,40,9,PLAYER_SESSION_CREATE,1602650819719,0,
560,40,9,REQ_HOME_START,1602650819719,4,
560,40,9,REQ_HOME_END,1602650819828,4,
560,40,9,WS_OPEN_START,1602650819828,5,
560,40,9,WS_OPEN_END,1602650819908,5,
560,40,9,PLAYBACK_SLEEPBEFORE_START,1602650819908,6,
560,40,9,PLAYBACK_SLEEPBEFORE_END,1602650819911,6,
560,40,9,WS_SEND_START,1602650819911,6,
560,40,9,WS_SEND_END,1602650819911,6,
560,40,9,WS_RECV_INIT_START,1602650819911,7,
560,40,9,WS_RECV_INIT_END,1602650819944,7,
560,40,9,WS_RECV_START,1602650819944,8,
560,40,9,WS_RECV_END,1602650819958,8,
560,40,9,PLAYBACK_SLEEPBEFORE_START,1602650819958,9,
560,40,9,PLAYBACK_SLEEPBEFORE_END,1602650821903,9,
560,40,9,WS_SEND_START,1602650821903,9,
560,40,9,WS_SEND_END,1602650821903,9,
560,40,9,PLAYBACK_SLEEPBEFORE_START,1602650821903,10,
560,40,9,PLAYBACK_SLEEPBEFORE_END,1602650822450,10,
560,40,9,WS_SEND_START,1602650822450,10,
560,40,9,WS_SEND_END,1602650822451,10,
560,40,9,WS_RECV_START,1602650822451,11,
560,40,9,WS_RECV_END,1602650825732,11,
560,40,9,PLAYBACK_SLEEPBEFORE_START,1602650825732,12,
560,40,9,PLAYBACK_SLEEPBEFORE_END,1602650827139,12,
560,40,9,WS_CLOSE_START,1602650827139,12,
560,40,9,WS_CLOSE_END,1602650827139,12,
560,40,9,PLAYBACK_DONE,1602650827140,0,
