# http://denbi-training.bihealth.org --workers 55 --loaded-duration-minutes 2 --output-dir training-15nodes-55
# {"appUrl":"http://denbi-training.bihealth.org","debugLog":false,"loadedDurationMinutes":2.0,"logLevel":"WARN","outputDir":"training-15nodes-55","overwriteOutput":false,"recordingPath":"recording.log","workers":55}
session_id,worker_id,iteration,event,timestamp,input_line_number,comment
572,48,9,PLAYER_SESSION_CREATE,1602650820689,0,
572,48,9,REQ_HOME_START,1602650820689,4,
572,48,9,REQ_HOME_END,1602650821082,4,
572,48,9,WS_OPEN_START,1602650821082,5,
572,48,9,WS_OPEN_END,1602650822320,5,
572,48,9,PLAYBACK_SLEEPBEFORE_START,1602650822320,6,
572,48,9,PLAYBACK_SLEEPBEFORE_END,1602650822323,6,
572,48,9,WS_SEND_START,1602650822323,6,
572,48,9,WS_SEND_END,1602650822323,6,
572,48,9,WS_RECV_INIT_START,1602650822323,7,
572,48,9,WS_RECV_INIT_END,1602650825001,7,
572,48,9,WS_RECV_START,1602650825001,8,
572,48,9,WS_RECV_END,1602650825007,8,
572,48,9,PLAYBACK_SLEEPBEFORE_START,1602650825007,9,
572,48,9,PLAYBACK_SLEEPBEFORE_END,1602650826952,9,
572,48,9,WS_SEND_START,1602650826952,9,
572,48,9,WS_SEND_END,1602650826952,9,
572,48,9,PLAYBACK_SLEEPBEFORE_START,1602650826952,10,
572,48,9,PLAYBACK_SLEEPBEFORE_END,1602650827499,10,
572,48,9,WS_SEND_START,1602650827499,10,
572,48,9,WS_SEND_END,1602650827499,10,
572,48,9,WS_RECV_START,1602650827499,11,
572,48,9,WS_RECV_END,1602650828982,11,
572,48,9,PLAYBACK_SLEEPBEFORE_START,1602650828982,12,
572,48,9,PLAYBACK_SLEEPBEFORE_END,1602650830389,12,
572,48,9,WS_CLOSE_START,1602650830389,12,
572,48,9,WS_CLOSE_END,1602650830390,12,
572,48,9,PLAYBACK_DONE,1602650830390,0,
