# http://denbi-training.bihealth.org --workers 55 --loaded-duration-minutes 2 --output-dir training-15nodes-55
# {"appUrl":"http://denbi-training.bihealth.org","debugLog":false,"loadedDurationMinutes":2.0,"logLevel":"WARN","outputDir":"training-15nodes-55","overwriteOutput":false,"recordingPath":"recording.log","workers":55}
session_id,worker_id,iteration,event,timestamp,input_line_number,comment
592,49,10,PLAYER_SESSION_CREATE,1602650824881,0,
592,49,10,REQ_HOME_START,1602650824881,4,
592,49,10,REQ_HOME_END,1602650825165,4,
592,49,10,WS_OPEN_START,1602650825165,5,
592,49,10,WS_OPEN_END,1602650826278,5,
592,49,10,PLAYBACK_SLEEPBEFORE_START,1602650826278,6,
592,49,10,PLAYBACK_SLEEPBEFORE_END,1602650826281,6,
592,49,10,WS_SEND_START,1602650826282,6,
592,49,10,WS_SEND_END,1602650826282,6,
592,49,10,WS_RECV_INIT_START,1602650826282,7,
592,49,10,WS_RECV_INIT_END,1602650826288,7,
592,49,10,WS_RECV_START,1602650826288,8,
592,49,10,WS_RECV_END,1602650826337,8,
592,49,10,PLAYBACK_SLEEPBEFORE_START,1602650826338,9,
592,49,10,PLAYBACK_SLEEPBEFORE_END,1602650828283,9,
592,49,10,WS_SEND_START,1602650828283,9,
592,49,10,WS_SEND_END,1602650828283,9,
592,49,10,PLAYBACK_SLEEPBEFORE_START,1602650828283,10,
592,49,10,PLAYBACK_SLEEPBEFORE_END,1602650828830,10,
592,49,10,WS_SEND_START,1602650828830,10,
592,49,10,WS_SEND_END,1602650828830,10,
592,49,10,WS_RECV_START,1602650828830,11,
592,49,10,WS_RECV_END,1602650832123,11,
592,49,10,PLAYBACK_SLEEPBEFORE_START,1602650832123,12,
592,49,10,PLAYBACK_SLEEPBEFORE_END,1602650833530,12,
592,49,10,WS_CLOSE_START,1602650833530,12,
592,49,10,WS_CLOSE_END,1602650833530,12,
592,49,10,PLAYBACK_DONE,1602650833530,0,
