# http://denbi-training.bihealth.org --workers 55 --loaded-duration-minutes 2 --output-dir training-15nodes-55
# {"appUrl":"http://denbi-training.bihealth.org","debugLog":false,"loadedDurationMinutes":2.0,"logLevel":"WARN","outputDir":"training-15nodes-55","overwriteOutput":false,"recordingPath":"recording.log","workers":55}
session_id,worker_id,iteration,event,timestamp,input_line_number,comment
601,37,11,PLAYER_SESSION_CREATE,1602650825833,0,
601,37,11,REQ_HOME_START,1602650825833,4,
601,37,11,REQ_HOME_END,1602650825916,4,
601,37,11,WS_OPEN_START,1602650825916,5,
601,37,11,WS_OPEN_END,1602650826075,5,
601,37,11,PLAYBACK_SLEEPBEFORE_START,1602650826075,6,
601,37,11,PLAYBACK_SLEEPBEFORE_END,1602650826078,6,
601,37,11,WS_SEND_START,1602650826078,6,
601,37,11,WS_SEND_END,1602650826078,6,
601,37,11,WS_RECV_INIT_START,1602650826078,7,
601,37,11,WS_RECV_INIT_END,1602650826104,7,
601,37,11,WS_RECV_START,1602650826104,8,
601,37,11,WS_RECV_END,1602650826124,8,
601,37,11,PLAYBACK_SLEEPBEFORE_START,1602650826124,9,
601,37,11,PLAYBACK_SLEEPBEFORE_END,1602650828069,9,
601,37,11,WS_SEND_START,1602650828069,9,
601,37,11,WS_SEND_END,1602650828069,9,
601,37,11,PLAYBACK_SLEEPBEFORE_START,1602650828069,10,
601,37,11,PLAYBACK_SLEEPBEFORE_END,1602650828616,10,
601,37,11,WS_SEND_START,1602650828616,10,
601,37,11,WS_SEND_END,1602650828616,10,
601,37,11,WS_RECV_START,1602650828616,11,
601,37,11,WS_RECV_END,1602650830235,11,
601,37,11,PLAYBACK_SLEEPBEFORE_START,1602650830235,12,
601,37,11,PLAYBACK_SLEEPBEFORE_END,1602650831643,12,
601,37,11,WS_CLOSE_START,1602650831643,12,
601,37,11,WS_CLOSE_END,1602650831643,12,
601,37,11,PLAYBACK_DONE,1602650831643,0,
