# http://denbi-training.bihealth.org --workers 55 --loaded-duration-minutes 2 --output-dir training-15nodes-55
# {"appUrl":"http://denbi-training.bihealth.org","debugLog":false,"loadedDurationMinutes":2.0,"logLevel":"WARN","outputDir":"training-15nodes-55","overwriteOutput":false,"recordingPath":"recording.log","workers":55}
session_id,worker_id,iteration,event,timestamp,input_line_number,comment
610,2,12,PLAYER_SESSION_CREATE,1602650826721,0,
610,2,12,REQ_HOME_START,1602650826721,4,
610,2,12,REQ_HOME_END,1602650826812,4,
610,2,12,WS_OPEN_START,1602650826812,5,
610,2,12,WS_OPEN_END,1602650826971,5,
610,2,12,PLAYBACK_SLEEPBEFORE_START,1602650826971,6,
610,2,12,PLAYBACK_SLEEPBEFORE_END,1602650826974,6,
610,2,12,WS_SEND_START,1602650826974,6,
610,2,12,WS_SEND_END,1602650826974,6,
610,2,12,WS_RECV_INIT_START,1602650826974,7,
610,2,12,WS_RECV_INIT_END,1602650826974,7,
610,2,12,WS_RECV_START,1602650826974,8,
610,2,12,WS_RECV_END,1602650827053,8,
610,2,12,PLAYBACK_SLEEPBEFORE_START,1602650827053,9,
610,2,12,PLAYBACK_SLEEPBEFORE_END,1602650828999,9,
610,2,12,WS_SEND_START,1602650828999,9,
610,2,12,WS_SEND_END,1602650828999,9,
610,2,12,PLAYBACK_SLEEPBEFORE_START,1602650828999,10,
610,2,12,PLAYBACK_SLEEPBEFORE_END,1602650829546,10,
610,2,12,WS_SEND_START,1602650829546,10,
610,2,12,WS_SEND_END,1602650829547,10,
610,2,12,WS_RECV_START,1602650829547,11,
610,2,12,WS_RECV_END,1602650832440,11,
610,2,12,PLAYBACK_SLEEPBEFORE_START,1602650832440,12,
610,2,12,PLAYBACK_SLEEPBEFORE_END,1602650833847,12,
610,2,12,WS_CLOSE_START,1602650833847,12,
610,2,12,WS_CLOSE_END,1602650833847,12,
610,2,12,PLAYBACK_DONE,1602650833847,0,
