# http://denbi-training.bihealth.org --workers 55 --loaded-duration-minutes 2 --output-dir training-15nodes-55
# {"appUrl":"http://denbi-training.bihealth.org","debugLog":false,"loadedDurationMinutes":2.0,"logLevel":"WARN","outputDir":"training-15nodes-55","overwriteOutput":false,"recordingPath":"recording.log","workers":55}
session_id,worker_id,iteration,event,timestamp,input_line_number,comment
611,0,10,PLAYER_SESSION_CREATE,1602650826731,0,
611,0,10,REQ_HOME_START,1602650826731,4,
611,0,10,REQ_HOME_END,1602650826828,4,
611,0,10,WS_OPEN_START,1602650826828,5,
611,0,10,WS_OPEN_END,1602650826971,5,
611,0,10,PLAYBACK_SLEEPBEFORE_START,1602650826971,6,
611,0,10,PLAYBACK_SLEEPBEFORE_END,1602650826974,6,
611,0,10,WS_SEND_START,1602650826974,6,
611,0,10,WS_SEND_END,1602650826974,6,
611,0,10,WS_RECV_INIT_START,1602650826974,7,
611,0,10,WS_RECV_INIT_END,1602650826986,7,
611,0,10,WS_RECV_START,1602650826986,8,
611,0,10,WS_RECV_END,1602650827056,8,
611,0,10,PLAYBACK_SLEEPBEFORE_START,1602650827056,9,
611,0,10,PLAYBACK_SLEEPBEFORE_END,1602650829001,9,
611,0,10,WS_SEND_START,1602650829001,9,
611,0,10,WS_SEND_END,1602650829001,9,
611,0,10,PLAYBACK_SLEEPBEFORE_START,1602650829001,10,
611,0,10,PLAYBACK_SLEEPBEFORE_END,1602650829548,10,
611,0,10,WS_SEND_START,1602650829548,10,
611,0,10,WS_SEND_END,1602650829548,10,
611,0,10,WS_RECV_START,1602650829548,11,
611,0,10,WS_RECV_END,1602650833536,11,
611,0,10,PLAYBACK_SLEEPBEFORE_START,1602650833536,12,
611,0,10,PLAYBACK_SLEEPBEFORE_END,1602650834943,12,
611,0,10,WS_CLOSE_START,1602650834943,12,
611,0,10,WS_CLOSE_END,1602650834943,12,
611,0,10,PLAYBACK_DONE,1602650834943,0,
