# http://denbi-training.bihealth.org --workers 55 --loaded-duration-minutes 2 --output-dir training-15nodes-55
# {"appUrl":"http://denbi-training.bihealth.org","debugLog":false,"loadedDurationMinutes":2.0,"logLevel":"WARN","outputDir":"training-15nodes-55","overwriteOutput":false,"recordingPath":"recording.log","workers":55}
session_id,worker_id,iteration,event,timestamp,input_line_number,comment
616,6,11,PLAYER_SESSION_CREATE,1602650827159,0,
616,6,11,REQ_HOME_START,1602650827159,4,
616,6,11,REQ_HOME_END,1602650827351,4,
616,6,11,WS_OPEN_START,1602650827351,5,
616,6,11,WS_OPEN_END,1602650827430,5,
616,6,11,PLAYBACK_SLEEPBEFORE_START,1602650827430,6,
616,6,11,PLAYBACK_SLEEPBEFORE_END,1602650827433,6,
616,6,11,WS_SEND_START,1602650827433,6,
616,6,11,WS_SEND_END,1602650827433,6,
616,6,11,WS_RECV_INIT_START,1602650827433,7,
616,6,11,WS_RECV_INIT_END,1602650827440,7,
616,6,11,WS_RECV_START,1602650827440,8,
616,6,11,WS_RECV_END,1602650827487,8,
616,6,11,PLAYBACK_SLEEPBEFORE_START,1602650827488,9,
616,6,11,PLAYBACK_SLEEPBEFORE_END,1602650829433,9,
616,6,11,WS_SEND_START,1602650829433,9,
616,6,11,WS_SEND_END,1602650829433,9,
616,6,11,PLAYBACK_SLEEPBEFORE_START,1602650829433,10,
616,6,11,PLAYBACK_SLEEPBEFORE_END,1602650829980,10,
616,6,11,WS_SEND_START,1602650829980,10,
616,6,11,WS_SEND_END,1602650829980,10,
616,6,11,WS_RECV_START,1602650829980,11,
616,6,11,WS_RECV_END,1602650833080,11,
616,6,11,PLAYBACK_SLEEPBEFORE_START,1602650833080,12,
616,6,11,PLAYBACK_SLEEPBEFORE_END,1602650834487,12,
616,6,11,WS_CLOSE_START,1602650834487,12,
616,6,11,WS_CLOSE_END,1602650834488,12,
616,6,11,PLAYBACK_DONE,1602650834488,0,
