# http://denbi-training.bihealth.org --workers 55 --loaded-duration-minutes 2 --output-dir training-15nodes-55
# {"appUrl":"http://denbi-training.bihealth.org","debugLog":false,"loadedDurationMinutes":2.0,"logLevel":"WARN","outputDir":"training-15nodes-55","overwriteOutput":false,"recordingPath":"recording.log","workers":55}
session_id,worker_id,iteration,event,timestamp,input_line_number,comment
617,25,11,PLAYER_SESSION_CREATE,1602650827276,0,
617,25,11,REQ_HOME_START,1602650827276,4,
617,25,11,REQ_HOME_END,1602650827423,4,
617,25,11,WS_OPEN_START,1602650827423,5,
617,25,11,WS_OPEN_END,1602650827500,5,
617,25,11,PLAYBACK_SLEEPBEFORE_START,1602650827500,6,
617,25,11,PLAYBACK_SLEEPBEFORE_END,1602650827503,6,
617,25,11,WS_SEND_START,1602650827503,6,
617,25,11,WS_SEND_END,1602650827503,6,
617,25,11,WS_RECV_INIT_START,1602650827504,7,
617,25,11,WS_RECV_INIT_END,1602650827523,7,
617,25,11,WS_RECV_START,1602650827523,8,
617,25,11,WS_RECV_END,1602650827550,8,
617,25,11,PLAYBACK_SLEEPBEFORE_START,1602650827550,9,
617,25,11,PLAYBACK_SLEEPBEFORE_END,1602650829495,9,
617,25,11,WS_SEND_START,1602650829495,9,
617,25,11,WS_SEND_END,1602650829495,9,
617,25,11,PLAYBACK_SLEEPBEFORE_START,1602650829495,10,
617,25,11,PLAYBACK_SLEEPBEFORE_END,1602650830043,10,
617,25,11,WS_SEND_START,1602650830043,10,
617,25,11,WS_SEND_END,1602650830043,10,
617,25,11,WS_RECV_START,1602650830043,11,
617,25,11,WS_RECV_END,1602650833526,11,
617,25,11,PLAYBACK_SLEEPBEFORE_START,1602650833526,12,
617,25,11,PLAYBACK_SLEEPBEFORE_END,1602650834933,12,
617,25,11,WS_CLOSE_START,1602650834933,12,
617,25,11,WS_CLOSE_END,1602650834933,12,
617,25,11,PLAYBACK_DONE,1602650834933,0,
