# http://denbi-training.bihealth.org --workers 55 --loaded-duration-minutes 2 --output-dir training-15nodes-55
# {"appUrl":"http://denbi-training.bihealth.org","debugLog":false,"loadedDurationMinutes":2.0,"logLevel":"WARN","outputDir":"training-15nodes-55","overwriteOutput":false,"recordingPath":"recording.log","workers":55}
session_id,worker_id,iteration,event,timestamp,input_line_number,comment
619,1,10,PLAYER_SESSION_CREATE,1602650827572,0,
619,1,10,REQ_HOME_START,1602650827572,4,
619,1,10,REQ_HOME_END,1602650827671,4,
619,1,10,WS_OPEN_START,1602650827671,5,
619,1,10,WS_OPEN_END,1602650827749,5,
619,1,10,PLAYBACK_SLEEPBEFORE_START,1602650827749,6,
619,1,10,PLAYBACK_SLEEPBEFORE_END,1602650827753,6,
619,1,10,WS_SEND_START,1602650827753,6,
619,1,10,WS_SEND_END,1602650827753,6,
619,1,10,WS_RECV_INIT_START,1602650827753,7,
619,1,10,WS_RECV_INIT_END,1602650827760,7,
619,1,10,WS_RECV_START,1602650827760,8,
619,1,10,WS_RECV_END,1602650827816,8,
619,1,10,PLAYBACK_SLEEPBEFORE_START,1602650827816,9,
619,1,10,PLAYBACK_SLEEPBEFORE_END,1602650829761,9,
619,1,10,WS_SEND_START,1602650829761,9,
619,1,10,WS_SEND_END,1602650829761,9,
619,1,10,PLAYBACK_SLEEPBEFORE_START,1602650829761,10,
619,1,10,PLAYBACK_SLEEPBEFORE_END,1602650830308,10,
619,1,10,WS_SEND_START,1602650830308,10,
619,1,10,WS_SEND_END,1602650830308,10,
619,1,10,WS_RECV_START,1602650830308,11,
619,1,10,WS_RECV_END,1602650833690,11,
619,1,10,PLAYBACK_SLEEPBEFORE_START,1602650833690,12,
619,1,10,PLAYBACK_SLEEPBEFORE_END,1602650835101,12,
619,1,10,WS_CLOSE_START,1602650835101,12,
619,1,10,WS_CLOSE_END,1602650835101,12,
619,1,10,PLAYBACK_DONE,1602650835101,0,
