# http://denbi-training.bihealth.org --workers 55 --loaded-duration-minutes 2 --output-dir training-15nodes-55
# {"appUrl":"http://denbi-training.bihealth.org","debugLog":false,"loadedDurationMinutes":2.0,"logLevel":"WARN","outputDir":"training-15nodes-55","overwriteOutput":false,"recordingPath":"recording.log","workers":55}
session_id,worker_id,iteration,event,timestamp,input_line_number,comment
628,15,11,PLAYER_SESSION_CREATE,1602650828271,0,
628,15,11,REQ_HOME_START,1602650828271,4,
628,15,11,REQ_HOME_END,1602650828704,4,
628,15,11,WS_OPEN_START,1602650828704,5,
628,15,11,WS_OPEN_END,1602650828798,5,
628,15,11,PLAYBACK_SLEEPBEFORE_START,1602650828798,6,
628,15,11,PLAYBACK_SLEEPBEFORE_END,1602650828801,6,
628,15,11,WS_SEND_START,1602650828801,6,
628,15,11,WS_SEND_END,1602650828801,6,
628,15,11,WS_RECV_INIT_START,1602650828801,7,
628,15,11,WS_RECV_INIT_END,1602650828814,7,
628,15,11,WS_RECV_START,1602650828814,8,
628,15,11,WS_RECV_END,1602650828849,8,
628,15,11,PLAYBACK_SLEEPBEFORE_START,1602650828849,9,
628,15,11,PLAYBACK_SLEEPBEFORE_END,1602650830795,9,
628,15,11,WS_SEND_START,1602650830795,9,
628,15,11,WS_SEND_END,1602650830795,9,
628,15,11,PLAYBACK_SLEEPBEFORE_START,1602650830795,10,
628,15,11,PLAYBACK_SLEEPBEFORE_END,1602650831342,10,
628,15,11,WS_SEND_START,1602650831342,10,
628,15,11,WS_SEND_END,1602650831342,10,
628,15,11,WS_RECV_START,1602650831342,11,
628,15,11,WS_RECV_END,1602650832971,11,
628,15,11,PLAYBACK_SLEEPBEFORE_START,1602650832971,12,
628,15,11,PLAYBACK_SLEEPBEFORE_END,1602650834378,12,
628,15,11,WS_CLOSE_START,1602650834378,12,
628,15,11,WS_CLOSE_END,1602650834378,12,
628,15,11,PLAYBACK_DONE,1602650834378,0,
