# http://denbi-training.bihealth.org --workers 55 --loaded-duration-minutes 2 --output-dir training-15nodes-55
# {"appUrl":"http://denbi-training.bihealth.org","debugLog":false,"loadedDurationMinutes":2.0,"logLevel":"WARN","outputDir":"training-15nodes-55","overwriteOutput":false,"recordingPath":"recording.log","workers":55}
session_id,worker_id,iteration,event,timestamp,input_line_number,comment
631,14,11,PLAYER_SESSION_CREATE,1602650828865,0,
631,14,11,REQ_HOME_START,1602650828865,4,
631,14,11,REQ_HOME_END,1602650832180,4,
631,14,11,WS_OPEN_START,1602650832180,5,
631,14,11,WS_OPEN_END,1602650834790,5,
631,14,11,PLAYBACK_SLEEPBEFORE_START,1602650834790,6,
631,14,11,PLAYBACK_SLEEPBEFORE_END,1602650834793,6,
631,14,11,WS_SEND_START,1602650834793,6,
631,14,11,WS_SEND_END,1602650834794,6,
631,14,11,WS_RECV_INIT_START,1602650834794,7,
631,14,11,WS_RECV_INIT_END,1602650834806,7,
631,14,11,WS_RECV_START,1602650834806,8,
631,14,11,WS_RECV_END,1602650835169,8,
631,14,11,PLAYBACK_SLEEPBEFORE_START,1602650835169,9,
631,14,11,PLAYBACK_SLEEPBEFORE_END,1602650837114,9,
631,14,11,WS_SEND_START,1602650837114,9,
631,14,11,WS_SEND_END,1602650837114,9,
631,14,11,PLAYBACK_SLEEPBEFORE_START,1602650837114,10,
631,14,11,PLAYBACK_SLEEPBEFORE_END,1602650837661,10,
631,14,11,WS_SEND_START,1602650837661,10,
631,14,11,WS_SEND_END,1602650837661,10,
631,14,11,WS_RECV_START,1602650837661,11,
631,14,11,WS_RECV_END,1602650839406,11,
631,14,11,PLAYBACK_SLEEPBEFORE_START,1602650839406,12,
631,14,11,PLAYBACK_SLEEPBEFORE_END,1602650840813,12,
631,14,11,WS_CLOSE_START,1602650840813,12,
631,14,11,WS_CLOSE_END,1602650840814,12,
631,14,11,PLAYBACK_DONE,1602650840814,0,
