# http://denbi-training.bihealth.org --workers 55 --loaded-duration-minutes 2 --output-dir training-15nodes-55
# {"appUrl":"http://denbi-training.bihealth.org","debugLog":false,"loadedDurationMinutes":2.0,"logLevel":"WARN","outputDir":"training-15nodes-55","overwriteOutput":false,"recordingPath":"recording.log","workers":55}
session_id,worker_id,iteration,event,timestamp,input_line_number,comment
635,48,10,PLAYER_SESSION_CREATE,1602650830390,0,
635,48,10,REQ_HOME_START,1602650830390,4,
635,48,10,REQ_HOME_END,1602650830492,4,
635,48,10,WS_OPEN_START,1602650830492,5,
635,48,10,WS_OPEN_END,1602650833339,5,
635,48,10,PLAYBACK_SLEEPBEFORE_START,1602650833339,6,
635,48,10,PLAYBACK_SLEEPBEFORE_END,1602650833342,6,
635,48,10,WS_SEND_START,1602650833342,6,
635,48,10,WS_SEND_END,1602650833342,6,
635,48,10,WS_RECV_INIT_START,1602650833342,7,
635,48,10,WS_RECV_INIT_END,1602650834072,7,
635,48,10,WS_RECV_START,1602650834072,8,
635,48,10,WS_RECV_END,1602650834072,8,
635,48,10,PLAYBACK_SLEEPBEFORE_START,1602650834072,9,
635,48,10,PLAYBACK_SLEEPBEFORE_END,1602650836017,9,
635,48,10,WS_SEND_START,1602650836017,9,
635,48,10,WS_SEND_END,1602650836017,9,
635,48,10,PLAYBACK_SLEEPBEFORE_START,1602650836018,10,
635,48,10,PLAYBACK_SLEEPBEFORE_END,1602650836565,10,
635,48,10,WS_SEND_START,1602650836565,10,
635,48,10,WS_SEND_END,1602650836565,10,
635,48,10,WS_RECV_START,1602650836565,11,
635,48,10,WS_RECV_END,1602650837852,11,
635,48,10,PLAYBACK_SLEEPBEFORE_START,1602650837852,12,
635,48,10,PLAYBACK_SLEEPBEFORE_END,1602650839259,12,
635,48,10,WS_CLOSE_START,1602650839259,12,
635,48,10,WS_CLOSE_END,1602650839260,12,
635,48,10,PLAYBACK_DONE,1602650839260,0,
