# http://denbi-training.bihealth.org --workers 55 --loaded-duration-minutes 2 --output-dir training-15nodes-55
# {"appUrl":"http://denbi-training.bihealth.org","debugLog":false,"loadedDurationMinutes":2.0,"logLevel":"WARN","outputDir":"training-15nodes-55","overwriteOutput":false,"recordingPath":"recording.log","workers":55}
session_id,worker_id,iteration,event,timestamp,input_line_number,comment
645,35,12,PLAYER_SESSION_CREATE,1602650832635,0,
645,35,12,REQ_HOME_START,1602650832635,4,
645,35,12,REQ_HOME_END,1602650833054,4,
645,35,12,WS_OPEN_START,1602650833054,5,
645,35,12,WS_OPEN_END,1602650834641,5,
645,35,12,PLAYBACK_SLEEPBEFORE_START,1602650834641,6,
645,35,12,PLAYBACK_SLEEPBEFORE_END,1602650834644,6,
645,35,12,WS_SEND_START,1602650834645,6,
645,35,12,WS_SEND_END,1602650834645,6,
645,35,12,WS_RECV_INIT_START,1602650834645,7,
645,35,12,WS_RECV_INIT_END,1602650834668,7,
645,35,12,WS_RECV_START,1602650834668,8,
645,35,12,WS_RECV_END,1602650834707,8,
645,35,12,PLAYBACK_SLEEPBEFORE_START,1602650834707,9,
645,35,12,PLAYBACK_SLEEPBEFORE_END,1602650836652,9,
645,35,12,WS_SEND_START,1602650836652,9,
645,35,12,WS_SEND_END,1602650836652,9,
645,35,12,PLAYBACK_SLEEPBEFORE_START,1602650836652,10,
645,35,12,PLAYBACK_SLEEPBEFORE_END,1602650837199,10,
645,35,12,WS_SEND_START,1602650837204,10,
645,35,12,WS_SEND_END,1602650837204,10,
645,35,12,WS_RECV_START,1602650837204,11,
645,35,12,WS_RECV_END,1602650839773,11,
645,35,12,PLAYBACK_SLEEPBEFORE_START,1602650839773,12,
645,35,12,PLAYBACK_SLEEPBEFORE_END,1602650841180,12,
645,35,12,WS_CLOSE_START,1602650841180,12,
645,35,12,WS_CLOSE_END,1602650841180,12,
645,35,12,PLAYBACK_DONE,1602650841180,0,
