# http://denbi-training.bihealth.org --workers 55 --loaded-duration-minutes 2 --output-dir training-15nodes-55
# {"appUrl":"http://denbi-training.bihealth.org","debugLog":false,"loadedDurationMinutes":2.0,"logLevel":"WARN","outputDir":"training-15nodes-55","overwriteOutput":false,"recordingPath":"recording.log","workers":55}
session_id,worker_id,iteration,event,timestamp,input_line_number,comment
64,5,1,PLAYER_SESSION_CREATE,1602650750442,0,
64,5,1,REQ_HOME_START,1602650750442,4,
64,5,1,REQ_HOME_END,1602650750685,4,
64,5,1,WS_OPEN_START,1602650750685,5,
64,5,1,WS_OPEN_END,1602650750891,5,
64,5,1,PLAYBACK_SLEEPBEFORE_START,1602650750891,6,
64,5,1,PLAYBACK_SLEEPBEFORE_END,1602650750894,6,
64,5,1,WS_SEND_START,1602650750894,6,
64,5,1,WS_SEND_END,1602650750894,6,
64,5,1,WS_RECV_INIT_START,1602650750894,7,
64,5,1,WS_RECV_INIT_END,1602650750894,7,
64,5,1,WS_RECV_START,1602650750894,8,
64,5,1,WS_RECV_END,1602650750946,8,
64,5,1,PLAYBACK_SLEEPBEFORE_START,1602650750946,9,
64,5,1,PLAYBACK_SLEEPBEFORE_END,1602650752892,9,
64,5,1,WS_SEND_START,1602650752892,9,
64,5,1,WS_SEND_END,1602650752892,9,
64,5,1,PLAYBACK_SLEEPBEFORE_START,1602650752892,10,
64,5,1,PLAYBACK_SLEEPBEFORE_END,1602650753439,10,
64,5,1,WS_SEND_START,1602650753439,10,
64,5,1,WS_SEND_END,1602650753439,10,
64,5,1,WS_RECV_START,1602650753439,11,
64,5,1,WS_RECV_END,1602650755827,11,
64,5,1,PLAYBACK_SLEEPBEFORE_START,1602650755828,12,
64,5,1,PLAYBACK_SLEEPBEFORE_END,1602650757235,12,
64,5,1,WS_CLOSE_START,1602650757235,12,
64,5,1,WS_CLOSE_END,1602650757236,12,
64,5,1,PLAYBACK_DONE,1602650757236,0,
