# http://denbi-training.bihealth.org --workers 55 --loaded-duration-minutes 2 --output-dir training-15nodes-55
# {"appUrl":"http://denbi-training.bihealth.org","debugLog":false,"loadedDurationMinutes":2.0,"logLevel":"WARN","outputDir":"training-15nodes-55","overwriteOutput":false,"recordingPath":"recording.log","workers":55}
session_id,worker_id,iteration,event,timestamp,input_line_number,comment
654,46,11,PLAYER_SESSION_CREATE,1602650833450,0,
654,46,11,REQ_HOME_START,1602650833450,4,
654,46,11,REQ_HOME_END,1602650834081,4,
654,46,11,WS_OPEN_START,1602650834081,5,
654,46,11,WS_OPEN_END,1602650834164,5,
654,46,11,PLAYBACK_SLEEPBEFORE_START,1602650834164,6,
654,46,11,PLAYBACK_SLEEPBEFORE_END,1602650834167,6,
654,46,11,WS_SEND_START,1602650834167,6,
654,46,11,WS_SEND_END,1602650834167,6,
654,46,11,WS_RECV_INIT_START,1602650834167,7,
654,46,11,WS_RECV_INIT_END,1602650834170,7,
654,46,11,WS_RECV_START,1602650834170,8,
654,46,11,WS_RECV_END,1602650834216,8,
654,46,11,PLAYBACK_SLEEPBEFORE_START,1602650834216,9,
654,46,11,PLAYBACK_SLEEPBEFORE_END,1602650836161,9,
654,46,11,WS_SEND_START,1602650836161,9,
654,46,11,WS_SEND_END,1602650836161,9,
654,46,11,PLAYBACK_SLEEPBEFORE_START,1602650836161,10,
654,46,11,PLAYBACK_SLEEPBEFORE_END,1602650836708,10,
654,46,11,WS_SEND_START,1602650836708,10,
654,46,11,WS_SEND_END,1602650836708,10,
654,46,11,WS_RECV_START,1602650836708,11,
654,46,11,WS_RECV_END,1602650838178,11,
654,46,11,PLAYBACK_SLEEPBEFORE_START,1602650838178,12,
654,46,11,PLAYBACK_SLEEPBEFORE_END,1602650839585,12,
654,46,11,WS_CLOSE_START,1602650839585,12,
654,46,11,WS_CLOSE_END,1602650839585,12,
654,46,11,PLAYBACK_DONE,1602650839585,0,
