# http://denbi-training.bihealth.org --workers 55 --loaded-duration-minutes 2 --output-dir training-15nodes-55
# {"appUrl":"http://denbi-training.bihealth.org","debugLog":false,"loadedDurationMinutes":2.0,"logLevel":"WARN","outputDir":"training-15nodes-55","overwriteOutput":false,"recordingPath":"recording.log","workers":55}
session_id,worker_id,iteration,event,timestamp,input_line_number,comment
657,47,12,PLAYER_SESSION_CREATE,1602650833704,0,
657,47,12,REQ_HOME_START,1602650833704,4,
657,47,12,REQ_HOME_END,1602650833811,4,
657,47,12,WS_OPEN_START,1602650833811,5,
657,47,12,WS_OPEN_END,1602650833909,5,
657,47,12,PLAYBACK_SLEEPBEFORE_START,1602650833909,6,
657,47,12,PLAYBACK_SLEEPBEFORE_END,1602650833912,6,
657,47,12,WS_SEND_START,1602650833912,6,
657,47,12,WS_SEND_END,1602650833912,6,
657,47,12,WS_RECV_INIT_START,1602650833912,7,
657,47,12,WS_RECV_INIT_END,1602650833914,7,
657,47,12,WS_RECV_START,1602650833914,8,
657,47,12,WS_RECV_END,1602650833952,8,
657,47,12,PLAYBACK_SLEEPBEFORE_START,1602650833952,9,
657,47,12,PLAYBACK_SLEEPBEFORE_END,1602650835898,9,
657,47,12,WS_SEND_START,1602650835898,9,
657,47,12,WS_SEND_END,1602650835898,9,
657,47,12,PLAYBACK_SLEEPBEFORE_START,1602650835898,10,
657,47,12,PLAYBACK_SLEEPBEFORE_END,1602650836445,10,
657,47,12,WS_SEND_START,1602650836445,10,
657,47,12,WS_SEND_END,1602650836445,10,
657,47,12,WS_RECV_START,1602650836445,11,
657,47,12,WS_RECV_END,1602650839163,11,
657,47,12,PLAYBACK_SLEEPBEFORE_START,1602650839163,12,
657,47,12,PLAYBACK_SLEEPBEFORE_END,1602650840570,12,
657,47,12,WS_CLOSE_START,1602650840570,12,
657,47,12,WS_CLOSE_END,1602650840570,12,
657,47,12,PLAYBACK_DONE,1602650840570,0,
