# http://denbi-training.bihealth.org --workers 55 --loaded-duration-minutes 2 --output-dir training-15nodes-55
# {"appUrl":"http://denbi-training.bihealth.org","debugLog":false,"loadedDurationMinutes":2.0,"logLevel":"WARN","outputDir":"training-15nodes-55","overwriteOutput":false,"recordingPath":"recording.log","workers":55}
session_id,worker_id,iteration,event,timestamp,input_line_number,comment
660,45,11,PLAYER_SESSION_CREATE,1602650834030,0,
660,45,11,REQ_HOME_START,1602650834030,4,
660,45,11,REQ_HOME_END,1602650834134,4,
660,45,11,WS_OPEN_START,1602650834134,5,
660,45,11,WS_OPEN_END,1602650834210,5,
660,45,11,PLAYBACK_SLEEPBEFORE_START,1602650834210,6,
660,45,11,PLAYBACK_SLEEPBEFORE_END,1602650834213,6,
660,45,11,WS_SEND_START,1602650834213,6,
660,45,11,WS_SEND_END,1602650834213,6,
660,45,11,WS_RECV_INIT_START,1602650834214,7,
660,45,11,WS_RECV_INIT_END,1602650834214,7,
660,45,11,WS_RECV_START,1602650834214,8,
660,45,11,WS_RECV_END,1602650834256,8,
660,45,11,PLAYBACK_SLEEPBEFORE_START,1602650834256,9,
660,45,11,PLAYBACK_SLEEPBEFORE_END,1602650836201,9,
660,45,11,WS_SEND_START,1602650836202,9,
660,45,11,WS_SEND_END,1602650836202,9,
660,45,11,PLAYBACK_SLEEPBEFORE_START,1602650836202,10,
660,45,11,PLAYBACK_SLEEPBEFORE_END,1602650836749,10,
660,45,11,WS_SEND_START,1602650836749,10,
660,45,11,WS_SEND_END,1602650836749,10,
660,45,11,WS_RECV_START,1602650836749,11,
660,45,11,WS_RECV_END,1602650838903,11,
660,45,11,PLAYBACK_SLEEPBEFORE_START,1602650838903,12,
660,45,11,PLAYBACK_SLEEPBEFORE_END,1602650840311,12,
660,45,11,WS_CLOSE_START,1602650840311,12,
660,45,11,WS_CLOSE_END,1602650840311,12,
660,45,11,PLAYBACK_DONE,1602650840311,0,
