# http://denbi-training.bihealth.org --workers 55 --loaded-duration-minutes 2 --output-dir training-15nodes-55
# {"appUrl":"http://denbi-training.bihealth.org","debugLog":false,"loadedDurationMinutes":2.0,"logLevel":"WARN","outputDir":"training-15nodes-55","overwriteOutput":false,"recordingPath":"recording.log","workers":55}
session_id,worker_id,iteration,event,timestamp,input_line_number,comment
675,7,13,PLAYER_SESSION_CREATE,1602650835381,0,
675,7,13,REQ_HOME_START,1602650835381,4,
675,7,13,REQ_HOME_END,1602650835495,4,
675,7,13,WS_OPEN_START,1602650835495,5,
675,7,13,WS_OPEN_END,1602650835571,5,
675,7,13,PLAYBACK_SLEEPBEFORE_START,1602650835571,6,
675,7,13,PLAYBACK_SLEEPBEFORE_END,1602650835574,6,
675,7,13,WS_SEND_START,1602650835574,6,
675,7,13,WS_SEND_END,1602650835574,6,
675,7,13,WS_RECV_INIT_START,1602650835574,7,
675,7,13,WS_RECV_INIT_END,1602650835580,7,
675,7,13,WS_RECV_START,1602650835580,8,
675,7,13,WS_RECV_END,1602650835618,8,
675,7,13,PLAYBACK_SLEEPBEFORE_START,1602650835618,9,
675,7,13,PLAYBACK_SLEEPBEFORE_END,1602650837563,9,
675,7,13,WS_SEND_START,1602650837563,9,
675,7,13,WS_SEND_END,1602650837563,9,
675,7,13,PLAYBACK_SLEEPBEFORE_START,1602650837563,10,
675,7,13,PLAYBACK_SLEEPBEFORE_END,1602650838110,10,
675,7,13,WS_SEND_START,1602650838110,10,
675,7,13,WS_SEND_END,1602650838111,10,
675,7,13,WS_RECV_START,1602650838111,11,
675,7,13,WS_RECV_END,1602650842034,11,
675,7,13,PLAYBACK_SLEEPBEFORE_START,1602650842034,12,
675,7,13,PLAYBACK_SLEEPBEFORE_END,1602650843441,12,
675,7,13,WS_CLOSE_START,1602650843441,12,
675,7,13,WS_CLOSE_END,1602650843441,12,
675,7,13,PLAYBACK_DONE,1602650843441,0,
