# http://denbi-training.bihealth.org --workers 55 --loaded-duration-minutes 2 --output-dir training-15nodes-55
# {"appUrl":"http://denbi-training.bihealth.org","debugLog":false,"loadedDurationMinutes":2.0,"logLevel":"WARN","outputDir":"training-15nodes-55","overwriteOutput":false,"recordingPath":"recording.log","workers":55}
session_id,worker_id,iteration,event,timestamp,input_line_number,comment
699,52,11,PLAYER_SESSION_CREATE,1602650840321,0,
699,52,11,REQ_HOME_START,1602650840321,4,
699,52,11,REQ_HOME_END,1602650840445,4,
699,52,11,WS_OPEN_START,1602650840445,5,
699,52,11,WS_OPEN_END,1602650840811,5,
699,52,11,PLAYBACK_SLEEPBEFORE_START,1602650840811,6,
699,52,11,PLAYBACK_SLEEPBEFORE_END,1602650840814,6,
699,52,11,WS_SEND_START,1602650840814,6,
699,52,11,WS_SEND_END,1602650840814,6,
699,52,11,WS_RECV_INIT_START,1602650840814,7,
699,52,11,WS_RECV_INIT_END,1602650840838,7,
699,52,11,WS_RECV_START,1602650840838,8,
699,52,11,WS_RECV_END,1602650840861,8,
699,52,11,PLAYBACK_SLEEPBEFORE_START,1602650840861,9,
699,52,11,PLAYBACK_SLEEPBEFORE_END,1602650842806,9,
699,52,11,WS_SEND_START,1602650842806,9,
699,52,11,WS_SEND_END,1602650842806,9,
699,52,11,PLAYBACK_SLEEPBEFORE_START,1602650842806,10,
699,52,11,PLAYBACK_SLEEPBEFORE_END,1602650843353,10,
699,52,11,WS_SEND_START,1602650843353,10,
699,52,11,WS_SEND_END,1602650843353,10,
699,52,11,WS_RECV_START,1602650843353,11,
699,52,11,WS_RECV_END,1602650844841,11,
699,52,11,PLAYBACK_SLEEPBEFORE_START,1602650844841,12,
699,52,11,PLAYBACK_SLEEPBEFORE_END,1602650846248,12,
699,52,11,WS_CLOSE_START,1602650846248,12,
699,52,11,WS_CLOSE_END,1602650846249,12,
699,52,11,PLAYBACK_DONE,1602650846249,0,
