# http://denbi-training.bihealth.org --workers 55 --loaded-duration-minutes 2 --output-dir training-15nodes-55
# {"appUrl":"http://denbi-training.bihealth.org","debugLog":false,"loadedDurationMinutes":2.0,"logLevel":"WARN","outputDir":"training-15nodes-55","overwriteOutput":false,"recordingPath":"recording.log","workers":55}
session_id,worker_id,iteration,event,timestamp,input_line_number,comment
701,47,13,PLAYER_SESSION_CREATE,1602650840571,0,
701,47,13,REQ_HOME_START,1602650840571,4,
701,47,13,REQ_HOME_END,1602650840688,4,
701,47,13,WS_OPEN_START,1602650840688,5,
701,47,13,WS_OPEN_END,1602650842158,5,
701,47,13,PLAYBACK_SLEEPBEFORE_START,1602650842158,6,
701,47,13,PLAYBACK_SLEEPBEFORE_END,1602650842161,6,
701,47,13,WS_SEND_START,1602650842161,6,
701,47,13,WS_SEND_END,1602650842161,6,
701,47,13,WS_RECV_INIT_START,1602650842161,7,
701,47,13,WS_RECV_INIT_END,1602650842182,7,
701,47,13,WS_RECV_START,1602650842182,8,
701,47,13,WS_RECV_END,1602650842226,8,
701,47,13,PLAYBACK_SLEEPBEFORE_START,1602650842226,9,
701,47,13,PLAYBACK_SLEEPBEFORE_END,1602650844171,9,
701,47,13,WS_SEND_START,1602650844171,9,
701,47,13,WS_SEND_END,1602650844171,9,
701,47,13,PLAYBACK_SLEEPBEFORE_START,1602650844171,10,
701,47,13,PLAYBACK_SLEEPBEFORE_END,1602650844718,10,
701,47,13,WS_SEND_START,1602650844718,10,
701,47,13,WS_SEND_END,1602650844718,10,
701,47,13,WS_RECV_START,1602650844718,11,
701,47,13,WS_RECV_END,1602650848095,11,
701,47,13,PLAYBACK_SLEEPBEFORE_START,1602650848095,12,
701,47,13,PLAYBACK_SLEEPBEFORE_END,1602650849506,12,
701,47,13,WS_CLOSE_START,1602650849506,12,
701,47,13,WS_CLOSE_END,1602650849506,12,
701,47,13,PLAYBACK_DONE,1602650849506,0,
