# http://denbi-training.bihealth.org --workers 55 --loaded-duration-minutes 2 --output-dir training-15nodes-55
# {"appUrl":"http://denbi-training.bihealth.org","debugLog":false,"loadedDurationMinutes":2.0,"logLevel":"WARN","outputDir":"training-15nodes-55","overwriteOutput":false,"recordingPath":"recording.log","workers":55}
session_id,worker_id,iteration,event,timestamp,input_line_number,comment
704,23,13,PLAYER_SESSION_CREATE,1602650840685,0,
704,23,13,REQ_HOME_START,1602650840685,4,
704,23,13,REQ_HOME_END,1602650840817,4,
704,23,13,WS_OPEN_START,1602650840817,5,
704,23,13,WS_OPEN_END,1602650840984,5,
704,23,13,PLAYBACK_SLEEPBEFORE_START,1602650840984,6,
704,23,13,PLAYBACK_SLEEPBEFORE_END,1602650840987,6,
704,23,13,WS_SEND_START,1602650840987,6,
704,23,13,WS_SEND_END,1602650840987,6,
704,23,13,WS_RECV_INIT_START,1602650840987,7,
704,23,13,WS_RECV_INIT_END,1602650841005,7,
704,23,13,WS_RECV_START,1602650841005,8,
704,23,13,WS_RECV_END,1602650841031,8,
704,23,13,PLAYBACK_SLEEPBEFORE_START,1602650841031,9,
704,23,13,PLAYBACK_SLEEPBEFORE_END,1602650842977,9,
704,23,13,WS_SEND_START,1602650842977,9,
704,23,13,WS_SEND_END,1602650842977,9,
704,23,13,PLAYBACK_SLEEPBEFORE_START,1602650842977,10,
704,23,13,PLAYBACK_SLEEPBEFORE_END,1602650843524,10,
704,23,13,WS_SEND_START,1602650843524,10,
704,23,13,WS_SEND_END,1602650843524,10,
704,23,13,WS_RECV_START,1602650843524,11,
704,23,13,WS_RECV_END,1602650845043,11,
704,23,13,PLAYBACK_SLEEPBEFORE_START,1602650845043,12,
704,23,13,PLAYBACK_SLEEPBEFORE_END,1602650846451,12,
704,23,13,WS_CLOSE_START,1602650846451,12,
704,23,13,WS_CLOSE_END,1602650846451,12,
704,23,13,PLAYBACK_DONE,1602650846451,0,
