# http://denbi-training.bihealth.org --workers 55 --loaded-duration-minutes 2 --output-dir training-15nodes-55
# {"appUrl":"http://denbi-training.bihealth.org","debugLog":false,"loadedDurationMinutes":2.0,"logLevel":"WARN","outputDir":"training-15nodes-55","overwriteOutput":false,"recordingPath":"recording.log","workers":55}
session_id,worker_id,iteration,event,timestamp,input_line_number,comment
708,3,14,PLAYER_SESSION_CREATE,1602650841217,0,
708,3,14,REQ_HOME_START,1602650841217,4,
708,3,14,REQ_HOME_END,1602650841780,4,
708,3,14,WS_OPEN_START,1602650841780,5,
708,3,14,WS_OPEN_END,1602650841856,5,
708,3,14,PLAYBACK_SLEEPBEFORE_START,1602650841856,6,
708,3,14,PLAYBACK_SLEEPBEFORE_END,1602650841860,6,
708,3,14,WS_SEND_START,1602650841860,6,
708,3,14,WS_SEND_END,1602650841860,6,
708,3,14,WS_RECV_INIT_START,1602650841860,7,
708,3,14,WS_RECV_INIT_END,1602650841880,7,
708,3,14,WS_RECV_START,1602650841880,8,
708,3,14,WS_RECV_END,1602650841928,8,
708,3,14,PLAYBACK_SLEEPBEFORE_START,1602650841928,9,
708,3,14,PLAYBACK_SLEEPBEFORE_END,1602650843874,9,
708,3,14,WS_SEND_START,1602650843874,9,
708,3,14,WS_SEND_END,1602650843874,9,
708,3,14,PLAYBACK_SLEEPBEFORE_START,1602650843874,10,
708,3,14,PLAYBACK_SLEEPBEFORE_END,1602650844421,10,
708,3,14,WS_SEND_START,1602650844421,10,
708,3,14,WS_SEND_END,1602650844421,10,
708,3,14,WS_RECV_START,1602650844421,11,
708,3,14,WS_RECV_END,1602650847070,11,
708,3,14,PLAYBACK_SLEEPBEFORE_START,1602650847070,12,
708,3,14,PLAYBACK_SLEEPBEFORE_END,1602650848477,12,
708,3,14,WS_CLOSE_START,1602650848477,12,
708,3,14,WS_CLOSE_END,1602650848477,12,
708,3,14,PLAYBACK_DONE,1602650848477,0,
