# http://denbi-training.bihealth.org --workers 55 --loaded-duration-minutes 2 --output-dir training-15nodes-55
# {"appUrl":"http://denbi-training.bihealth.org","debugLog":false,"loadedDurationMinutes":2.0,"logLevel":"WARN","outputDir":"training-15nodes-55","overwriteOutput":false,"recordingPath":"recording.log","workers":55}
session_id,worker_id,iteration,event,timestamp,input_line_number,comment
710,6,13,PLAYER_SESSION_CREATE,1602650841250,0,
710,6,13,REQ_HOME_START,1602650841250,4,
710,6,13,REQ_HOME_END,1602650842202,4,
710,6,13,WS_OPEN_START,1602650842202,5,
710,6,13,WS_OPEN_END,1602650842276,5,
710,6,13,PLAYBACK_SLEEPBEFORE_START,1602650842276,6,
710,6,13,PLAYBACK_SLEEPBEFORE_END,1602650842280,6,
710,6,13,WS_SEND_START,1602650842280,6,
710,6,13,WS_SEND_END,1602650842280,6,
710,6,13,WS_RECV_INIT_START,1602650842280,7,
710,6,13,WS_RECV_INIT_END,1602650842285,7,
710,6,13,WS_RECV_START,1602650842285,8,
710,6,13,WS_RECV_END,1602650842342,8,
710,6,13,PLAYBACK_SLEEPBEFORE_START,1602650842342,9,
710,6,13,PLAYBACK_SLEEPBEFORE_END,1602650844287,9,
710,6,13,WS_SEND_START,1602650844287,9,
710,6,13,WS_SEND_END,1602650844287,9,
710,6,13,PLAYBACK_SLEEPBEFORE_START,1602650844287,10,
710,6,13,PLAYBACK_SLEEPBEFORE_END,1602650844835,10,
710,6,13,WS_SEND_START,1602650844835,10,
710,6,13,WS_SEND_END,1602650844835,10,
710,6,13,WS_RECV_START,1602650844835,11,
710,6,13,WS_RECV_END,1602650847381,11,
710,6,13,PLAYBACK_SLEEPBEFORE_START,1602650847381,12,
710,6,13,PLAYBACK_SLEEPBEFORE_END,1602650848788,12,
710,6,13,WS_CLOSE_START,1602650848788,12,
710,6,13,WS_CLOSE_END,1602650848788,12,
710,6,13,PLAYBACK_DONE,1602650848788,0,
