# http://denbi-training.bihealth.org --workers 55 --loaded-duration-minutes 2 --output-dir training-15nodes-55
# {"appUrl":"http://denbi-training.bihealth.org","debugLog":false,"loadedDurationMinutes":2.0,"logLevel":"WARN","outputDir":"training-15nodes-55","overwriteOutput":false,"recordingPath":"recording.log","workers":55}
session_id,worker_id,iteration,event,timestamp,input_line_number,comment
740,44,12,PLAYER_SESSION_CREATE,1602650845556,0,
740,44,12,REQ_HOME_START,1602650845556,4,
740,44,12,REQ_HOME_END,1602650846885,4,
740,44,12,WS_OPEN_START,1602650846885,5,
740,44,12,WS_OPEN_END,1602650847861,5,
740,44,12,PLAYBACK_SLEEPBEFORE_START,1602650847861,6,
740,44,12,PLAYBACK_SLEEPBEFORE_END,1602650847864,6,
740,44,12,WS_SEND_START,1602650847864,6,
740,44,12,WS_SEND_END,1602650847864,6,
740,44,12,WS_RECV_INIT_START,1602650847864,7,
740,44,12,WS_RECV_INIT_END,1602650847869,7,
740,44,12,WS_RECV_START,1602650847869,8,
740,44,12,WS_RECV_END,1602650847914,8,
740,44,12,PLAYBACK_SLEEPBEFORE_START,1602650847915,9,
740,44,12,PLAYBACK_SLEEPBEFORE_END,1602650849860,9,
740,44,12,WS_SEND_START,1602650849860,9,
740,44,12,WS_SEND_END,1602650849860,9,
740,44,12,PLAYBACK_SLEEPBEFORE_START,1602650849860,10,
740,44,12,PLAYBACK_SLEEPBEFORE_END,1602650850407,10,
740,44,12,WS_SEND_START,1602650850407,10,
740,44,12,WS_SEND_END,1602650850407,10,
740,44,12,WS_RECV_START,1602650850407,11,
740,44,12,WS_RECV_END,1602650851950,11,
740,44,12,PLAYBACK_SLEEPBEFORE_START,1602650851951,12,
740,44,12,PLAYBACK_SLEEPBEFORE_END,1602650853358,12,
740,44,12,WS_CLOSE_START,1602650853358,12,
740,44,12,WS_CLOSE_END,1602650853358,12,
740,44,12,PLAYBACK_DONE,1602650853358,0,
