# http://denbi-training.bihealth.org --workers 55 --loaded-duration-minutes 2 --output-dir training-15nodes-55
# {"appUrl":"http://denbi-training.bihealth.org","debugLog":false,"loadedDurationMinutes":2.0,"logLevel":"WARN","outputDir":"training-15nodes-55","overwriteOutput":false,"recordingPath":"recording.log","workers":55}
session_id,worker_id,iteration,event,timestamp,input_line_number,comment
746,48,12,PLAYER_SESSION_CREATE,1602650846888,0,
746,48,12,REQ_HOME_START,1602650846888,4,
746,48,12,REQ_HOME_END,1602650847750,4,
746,48,12,WS_OPEN_START,1602650847750,5,
746,48,12,WS_OPEN_END,1602650848111,5,
746,48,12,PLAYBACK_SLEEPBEFORE_START,1602650848111,6,
746,48,12,PLAYBACK_SLEEPBEFORE_END,1602650848114,6,
746,48,12,WS_SEND_START,1602650848114,6,
746,48,12,WS_SEND_END,1602650848114,6,
746,48,12,WS_RECV_INIT_START,1602650848114,7,
746,48,12,WS_RECV_INIT_END,1602650848130,7,
746,48,12,WS_RECV_START,1602650848130,8,
746,48,12,WS_RECV_END,1602650848176,8,
746,48,12,PLAYBACK_SLEEPBEFORE_START,1602650848176,9,
746,48,12,PLAYBACK_SLEEPBEFORE_END,1602650850121,9,
746,48,12,WS_SEND_START,1602650850121,9,
746,48,12,WS_SEND_END,1602650850121,9,
746,48,12,PLAYBACK_SLEEPBEFORE_START,1602650850121,10,
746,48,12,PLAYBACK_SLEEPBEFORE_END,1602650850669,10,
746,48,12,WS_SEND_START,1602650850669,10,
746,48,12,WS_SEND_END,1602650850669,10,
746,48,12,WS_RECV_START,1602650850669,11,
746,48,12,WS_RECV_END,1602650852488,11,
746,48,12,PLAYBACK_SLEEPBEFORE_START,1602650852488,12,
746,48,12,PLAYBACK_SLEEPBEFORE_END,1602650853895,12,
746,48,12,WS_CLOSE_START,1602650853895,12,
746,48,12,WS_CLOSE_END,1602650853895,12,
746,48,12,PLAYBACK_DONE,1602650853895,0,
