# http://denbi-training.bihealth.org --workers 55 --loaded-duration-minutes 2 --output-dir training-15nodes-55
# {"appUrl":"http://denbi-training.bihealth.org","debugLog":false,"loadedDurationMinutes":2.0,"logLevel":"WARN","outputDir":"training-15nodes-55","overwriteOutput":false,"recordingPath":"recording.log","workers":55}
session_id,worker_id,iteration,event,timestamp,input_line_number,comment
757,54,13,PLAYER_SESSION_CREATE,1602650848114,0,
757,54,13,REQ_HOME_START,1602650848114,4,
757,54,13,REQ_HOME_END,1602650849038,4,
757,54,13,WS_OPEN_START,1602650849038,5,
757,54,13,WS_OPEN_END,1602650849290,5,
757,54,13,PLAYBACK_SLEEPBEFORE_START,1602650849290,6,
757,54,13,PLAYBACK_SLEEPBEFORE_END,1602650849293,6,
757,54,13,WS_SEND_START,1602650849293,6,
757,54,13,WS_SEND_END,1602650849293,6,
757,54,13,WS_RECV_INIT_START,1602650849293,7,
757,54,13,WS_RECV_INIT_END,1602650849293,7,
757,54,13,WS_RECV_START,1602650849293,8,
757,54,13,WS_RECV_END,1602650849350,8,
757,54,13,PLAYBACK_SLEEPBEFORE_START,1602650849350,9,
757,54,13,PLAYBACK_SLEEPBEFORE_END,1602650851295,9,
757,54,13,WS_SEND_START,1602650851295,9,
757,54,13,WS_SEND_END,1602650851295,9,
757,54,13,PLAYBACK_SLEEPBEFORE_START,1602650851295,10,
757,54,13,PLAYBACK_SLEEPBEFORE_END,1602650851843,10,
757,54,13,WS_SEND_START,1602650851843,10,
757,54,13,WS_SEND_END,1602650851843,10,
757,54,13,WS_RECV_START,1602650851843,11,
757,54,13,WS_RECV_END,1602650853825,11,
757,54,13,PLAYBACK_SLEEPBEFORE_START,1602650853825,12,
757,54,13,PLAYBACK_SLEEPBEFORE_END,1602650855233,12,
757,54,13,WS_CLOSE_START,1602650855233,12,
757,54,13,WS_CLOSE_END,1602650855233,12,
757,54,13,PLAYBACK_DONE,1602650855233,0,
