# http://denbi-training.bihealth.org --workers 55 --loaded-duration-minutes 2 --output-dir training-15nodes-55
# {"appUrl":"http://denbi-training.bihealth.org","debugLog":false,"loadedDurationMinutes":2.0,"logLevel":"WARN","outputDir":"training-15nodes-55","overwriteOutput":false,"recordingPath":"recording.log","workers":55}
session_id,worker_id,iteration,event,timestamp,input_line_number,comment
777,35,14,PLAYER_SESSION_CREATE,1602650849892,0,
777,35,14,REQ_HOME_START,1602650849892,4,
777,35,14,REQ_HOME_END,1602650850052,4,
777,35,14,WS_OPEN_START,1602650850052,5,
777,35,14,WS_OPEN_END,1602650850129,5,
777,35,14,PLAYBACK_SLEEPBEFORE_START,1602650850129,6,
777,35,14,PLAYBACK_SLEEPBEFORE_END,1602650850132,6,
777,35,14,WS_SEND_START,1602650850132,6,
777,35,14,WS_SEND_END,1602650850132,6,
777,35,14,WS_RECV_INIT_START,1602650850132,7,
777,35,14,WS_RECV_INIT_END,1602650850138,7,
777,35,14,WS_RECV_START,1602650850138,8,
777,35,14,WS_RECV_END,1602650850179,8,
777,35,14,PLAYBACK_SLEEPBEFORE_START,1602650850179,9,
777,35,14,PLAYBACK_SLEEPBEFORE_END,1602650852125,9,
777,35,14,WS_SEND_START,1602650852125,9,
777,35,14,WS_SEND_END,1602650852125,9,
777,35,14,PLAYBACK_SLEEPBEFORE_START,1602650852125,10,
777,35,14,PLAYBACK_SLEEPBEFORE_END,1602650852672,10,
777,35,14,WS_SEND_START,1602650852672,10,
777,35,14,WS_SEND_END,1602650852672,10,
777,35,14,WS_RECV_START,1602650852672,11,
777,35,14,WS_RECV_END,1602650855792,11,
777,35,14,PLAYBACK_SLEEPBEFORE_START,1602650855792,12,
777,35,14,PLAYBACK_SLEEPBEFORE_END,1602650857200,12,
777,35,14,WS_CLOSE_START,1602650857200,12,
777,35,14,WS_CLOSE_END,1602650857200,12,
777,35,14,PLAYBACK_DONE,1602650857200,0,
