# http://denbi-training.bihealth.org --workers 55 --loaded-duration-minutes 2 --output-dir training-15nodes-55
# {"appUrl":"http://denbi-training.bihealth.org","debugLog":false,"loadedDurationMinutes":2.0,"logLevel":"WARN","outputDir":"training-15nodes-55","overwriteOutput":false,"recordingPath":"recording.log","workers":55}
session_id,worker_id,iteration,event,timestamp,input_line_number,comment
783,29,13,PLAYER_SESSION_CREATE,1602650850877,0,
783,29,13,REQ_HOME_START,1602650850877,4,
783,29,13,REQ_HOME_END,1602650853023,4,
783,29,13,WS_OPEN_START,1602650853023,5,
783,29,13,WS_OPEN_END,1602650854629,5,
783,29,13,PLAYBACK_SLEEPBEFORE_START,1602650854629,6,
783,29,13,PLAYBACK_SLEEPBEFORE_END,1602650854632,6,
783,29,13,WS_SEND_START,1602650854632,6,
783,29,13,WS_SEND_END,1602650854632,6,
783,29,13,WS_RECV_INIT_START,1602650854632,7,
783,29,13,WS_RECV_INIT_END,1602650854638,7,
783,29,13,WS_RECV_START,1602650854638,8,
783,29,13,WS_RECV_END,1602650854672,8,
783,29,13,PLAYBACK_SLEEPBEFORE_START,1602650854672,9,
783,29,13,PLAYBACK_SLEEPBEFORE_END,1602650856617,9,
783,29,13,WS_SEND_START,1602650856617,9,
783,29,13,WS_SEND_END,1602650856618,9,
783,29,13,PLAYBACK_SLEEPBEFORE_START,1602650856618,10,
783,29,13,PLAYBACK_SLEEPBEFORE_END,1602650857165,10,
783,29,13,WS_SEND_START,1602650857165,10,
783,29,13,WS_SEND_END,1602650857165,10,
783,29,13,WS_RECV_START,1602650857165,11,
783,29,13,WS_RECV_END,1602650858302,11,
783,29,13,PLAYBACK_SLEEPBEFORE_START,1602650858302,12,
783,29,13,PLAYBACK_SLEEPBEFORE_END,1602650859709,12,
783,29,13,WS_CLOSE_START,1602650859709,12,
783,29,13,WS_CLOSE_END,1602650859710,12,
783,29,13,PLAYBACK_DONE,1602650859710,0,
