# http://denbi-training.bihealth.org --workers 55 --loaded-duration-minutes 2 --output-dir training-15nodes-55
# {"appUrl":"http://denbi-training.bihealth.org","debugLog":false,"loadedDurationMinutes":2.0,"logLevel":"WARN","outputDir":"training-15nodes-55","overwriteOutput":false,"recordingPath":"recording.log","workers":55}
session_id,worker_id,iteration,event,timestamp,input_line_number,comment
796,23,15,PLAYER_SESSION_CREATE,1602650854538,0,
796,23,15,REQ_HOME_START,1602650854538,4,
796,23,15,REQ_HOME_END,1602650854639,4,
796,23,15,WS_OPEN_START,1602650854639,5,
796,23,15,WS_OPEN_END,1602650854712,5,
796,23,15,PLAYBACK_SLEEPBEFORE_START,1602650854712,6,
796,23,15,PLAYBACK_SLEEPBEFORE_END,1602650854715,6,
796,23,15,WS_SEND_START,1602650854715,6,
796,23,15,WS_SEND_END,1602650854715,6,
796,23,15,WS_RECV_INIT_START,1602650854715,7,
796,23,15,WS_RECV_INIT_END,1602650854723,7,
796,23,15,WS_RECV_START,1602650854723,8,
796,23,15,WS_RECV_END,1602650854811,8,
796,23,15,PLAYBACK_SLEEPBEFORE_START,1602650854811,9,
796,23,15,PLAYBACK_SLEEPBEFORE_END,1602650856756,9,
796,23,15,WS_SEND_START,1602650856756,9,
796,23,15,WS_SEND_END,1602650856756,9,
796,23,15,PLAYBACK_SLEEPBEFORE_START,1602650856756,10,
796,23,15,PLAYBACK_SLEEPBEFORE_END,1602650857303,10,
796,23,15,WS_SEND_START,1602650857303,10,
796,23,15,WS_SEND_END,1602650857303,10,
796,23,15,WS_RECV_START,1602650857303,11,
796,23,15,WS_RECV_END,1602650858284,11,
796,23,15,PLAYBACK_SLEEPBEFORE_START,1602650858284,12,
796,23,15,PLAYBACK_SLEEPBEFORE_END,1602650859691,12,
796,23,15,WS_CLOSE_START,1602650859691,12,
796,23,15,WS_CLOSE_END,1602650859691,12,
796,23,15,PLAYBACK_DONE,1602650859691,0,
