# http://denbi-training.bihealth.org --workers 55 --loaded-duration-minutes 2 --output-dir training-15nodes-55
# {"appUrl":"http://denbi-training.bihealth.org","debugLog":false,"loadedDurationMinutes":2.0,"logLevel":"WARN","outputDir":"training-15nodes-55","overwriteOutput":false,"recordingPath":"recording.log","workers":55}
session_id,worker_id,iteration,event,timestamp,input_line_number,comment
824,2,16,PLAYER_SESSION_CREATE,1602650857143,0,
824,2,16,REQ_HOME_START,1602650857143,4,
824,2,16,REQ_HOME_END,1602650857232,4,
824,2,16,WS_OPEN_START,1602650857232,5,
824,2,16,WS_OPEN_END,1602650857304,5,
824,2,16,PLAYBACK_SLEEPBEFORE_START,1602650857304,6,
824,2,16,PLAYBACK_SLEEPBEFORE_END,1602650857307,6,
824,2,16,WS_SEND_START,1602650857307,6,
824,2,16,WS_SEND_END,1602650857307,6,
824,2,16,WS_RECV_INIT_START,1602650857307,7,
824,2,16,WS_RECV_INIT_END,1602650857314,7,
824,2,16,WS_RECV_START,1602650857314,8,
824,2,16,WS_RECV_END,1602650857356,8,
824,2,16,PLAYBACK_SLEEPBEFORE_START,1602650857356,9,
824,2,16,PLAYBACK_SLEEPBEFORE_END,1602650859301,9,
824,2,16,WS_SEND_START,1602650859301,9,
824,2,16,WS_SEND_END,1602650859301,9,
824,2,16,PLAYBACK_SLEEPBEFORE_START,1602650859301,10,
824,2,16,PLAYBACK_SLEEPBEFORE_END,1602650859849,10,
824,2,16,WS_SEND_START,1602650859849,10,
824,2,16,WS_SEND_END,1602650859849,10,
824,2,16,WS_RECV_START,1602650859849,11,
824,2,16,WS_RECV_END,1602650862082,11,
824,2,16,PLAYBACK_SLEEPBEFORE_START,1602650862082,12,
824,2,16,PLAYBACK_SLEEPBEFORE_END,1602650863489,12,
824,2,16,WS_CLOSE_START,1602650863489,12,
824,2,16,WS_CLOSE_END,1602650863489,12,
824,2,16,PLAYBACK_DONE,1602650863489,0,
