# http://denbi-training.bihealth.org --workers 55 --loaded-duration-minutes 2 --output-dir training-15nodes-55
# {"appUrl":"http://denbi-training.bihealth.org","debugLog":false,"loadedDurationMinutes":2.0,"logLevel":"WARN","outputDir":"training-15nodes-55","overwriteOutput":false,"recordingPath":"recording.log","workers":55}
session_id,worker_id,iteration,event,timestamp,input_line_number,comment
831,51,13,PLAYER_SESSION_CREATE,1602650857990,0,
831,51,13,REQ_HOME_START,1602650857990,4,
831,51,13,REQ_HOME_END,1602650858083,4,
831,51,13,WS_OPEN_START,1602650858084,5,
831,51,13,WS_OPEN_END,1602650858161,5,
831,51,13,PLAYBACK_SLEEPBEFORE_START,1602650858161,6,
831,51,13,PLAYBACK_SLEEPBEFORE_END,1602650858164,6,
831,51,13,WS_SEND_START,1602650858164,6,
831,51,13,WS_SEND_END,1602650858164,6,
831,51,13,WS_RECV_INIT_START,1602650858164,7,
831,51,13,WS_RECV_INIT_END,1602650858167,7,
831,51,13,WS_RECV_START,1602650858167,8,
831,51,13,WS_RECV_END,1602650858213,8,
831,51,13,PLAYBACK_SLEEPBEFORE_START,1602650858213,9,
831,51,13,PLAYBACK_SLEEPBEFORE_END,1602650860158,9,
831,51,13,WS_SEND_START,1602650860158,9,
831,51,13,WS_SEND_END,1602650860158,9,
831,51,13,PLAYBACK_SLEEPBEFORE_START,1602650860158,10,
831,51,13,PLAYBACK_SLEEPBEFORE_END,1602650860705,10,
831,51,13,WS_SEND_START,1602650860705,10,
831,51,13,WS_SEND_END,1602650860705,10,
831,51,13,WS_RECV_START,1602650860705,11,
831,51,13,WS_RECV_END,1602650862249,11,
831,51,13,PLAYBACK_SLEEPBEFORE_START,1602650862249,12,
831,51,13,PLAYBACK_SLEEPBEFORE_END,1602650863656,12,
831,51,13,WS_CLOSE_START,1602650863656,12,
831,51,13,WS_CLOSE_END,1602650863657,12,
831,51,13,PLAYBACK_DONE,1602650863657,0,
