# http://denbi-training.bihealth.org --workers 55 --loaded-duration-minutes 2 --output-dir training-15nodes-55
# {"appUrl":"http://denbi-training.bihealth.org","debugLog":false,"loadedDurationMinutes":2.0,"logLevel":"WARN","outputDir":"training-15nodes-55","overwriteOutput":false,"recordingPath":"recording.log","workers":55}
session_id,worker_id,iteration,event,timestamp,input_line_number,comment
841,29,14,PLAYER_SESSION_CREATE,1602650859710,0,
841,29,14,REQ_HOME_START,1602650859710,4,
841,29,14,REQ_HOME_END,1602650859835,4,
841,29,14,WS_OPEN_START,1602650859835,5,
841,29,14,WS_OPEN_END,1602650861687,5,
841,29,14,PLAYBACK_SLEEPBEFORE_START,1602650861687,6,
841,29,14,PLAYBACK_SLEEPBEFORE_END,1602650861690,6,
841,29,14,WS_SEND_START,1602650861690,6,
841,29,14,WS_SEND_END,1602650861690,6,
841,29,14,WS_RECV_INIT_START,1602650861690,7,
841,29,14,WS_RECV_INIT_END,1602650861697,7,
841,29,14,WS_RECV_START,1602650861697,8,
841,29,14,WS_RECV_END,1602650861733,8,
841,29,14,PLAYBACK_SLEEPBEFORE_START,1602650861733,9,
841,29,14,PLAYBACK_SLEEPBEFORE_END,1602650863678,9,
841,29,14,WS_SEND_START,1602650863678,9,
841,29,14,WS_SEND_END,1602650863678,9,
841,29,14,PLAYBACK_SLEEPBEFORE_START,1602650863678,10,
841,29,14,PLAYBACK_SLEEPBEFORE_END,1602650864225,10,
841,29,14,WS_SEND_START,1602650864225,10,
841,29,14,WS_SEND_END,1602650864225,10,
841,29,14,WS_RECV_START,1602650864225,11,
841,29,14,WS_RECV_END,1602650865420,11,
841,29,14,PLAYBACK_SLEEPBEFORE_START,1602650865420,12,
841,29,14,PLAYBACK_SLEEPBEFORE_END,1602650866827,12,
841,29,14,WS_CLOSE_START,1602650866827,12,
841,29,14,WS_CLOSE_END,1602650866827,12,
841,29,14,PLAYBACK_DONE,1602650866827,0,
