# http://denbi-training.bihealth.org --workers 55 --loaded-duration-minutes 2 --output-dir training-15nodes-55
# {"appUrl":"http://denbi-training.bihealth.org","debugLog":false,"loadedDurationMinutes":2.0,"logLevel":"WARN","outputDir":"training-15nodes-55","overwriteOutput":false,"recordingPath":"recording.log","workers":55}
session_id,worker_id,iteration,event,timestamp,input_line_number,comment
850,8,16,PLAYER_SESSION_CREATE,1602650861262,0,
850,8,16,REQ_HOME_START,1602650861262,4,
850,8,16,REQ_HOME_END,1602650861359,4,
850,8,16,WS_OPEN_START,1602650861359,5,
850,8,16,WS_OPEN_END,1602650863252,5,
850,8,16,PLAYBACK_SLEEPBEFORE_START,1602650863252,6,
850,8,16,PLAYBACK_SLEEPBEFORE_END,1602650863255,6,
850,8,16,WS_SEND_START,1602650863255,6,
850,8,16,WS_SEND_END,1602650863255,6,
850,8,16,WS_RECV_INIT_START,1602650863255,7,
850,8,16,WS_RECV_INIT_END,1602650863277,7,
850,8,16,WS_RECV_START,1602650863277,8,
850,8,16,WS_RECV_END,1602650863311,8,
850,8,16,PLAYBACK_SLEEPBEFORE_START,1602650863311,9,
850,8,16,PLAYBACK_SLEEPBEFORE_END,1602650865257,9,
850,8,16,WS_SEND_START,1602650865257,9,
850,8,16,WS_SEND_END,1602650865257,9,
850,8,16,PLAYBACK_SLEEPBEFORE_START,1602650865257,10,
850,8,16,PLAYBACK_SLEEPBEFORE_END,1602650865804,10,
850,8,16,WS_SEND_START,1602650865804,10,
850,8,16,WS_SEND_END,1602650865804,10,
850,8,16,WS_RECV_START,1602650865804,11,
850,8,16,WS_RECV_END,1602650868543,11,
850,8,16,PLAYBACK_SLEEPBEFORE_START,1602650868543,12,
850,8,16,PLAYBACK_SLEEPBEFORE_END,1602650869950,12,
850,8,16,WS_CLOSE_START,1602650869950,12,
850,8,16,WS_CLOSE_END,1602650869950,12,
850,8,16,PLAYBACK_DONE,1602650869950,0,
