# http://denbi-training.bihealth.org --workers 55 --loaded-duration-minutes 2 --output-dir training-15nodes-55
# {"appUrl":"http://denbi-training.bihealth.org","debugLog":false,"loadedDurationMinutes":2.0,"logLevel":"WARN","outputDir":"training-15nodes-55","overwriteOutput":false,"recordingPath":"recording.log","workers":55}
session_id,worker_id,iteration,event,timestamp,input_line_number,comment
851,0,14,PLAYER_SESSION_CREATE,1602650861374,0,
851,0,14,REQ_HOME_START,1602650861374,4,
851,0,14,REQ_HOME_END,1602650861715,4,
851,0,14,WS_OPEN_START,1602650861715,5,
851,0,14,WS_OPEN_END,1602650862757,5,
851,0,14,PLAYBACK_SLEEPBEFORE_START,1602650862757,6,
851,0,14,PLAYBACK_SLEEPBEFORE_END,1602650862760,6,
851,0,14,WS_SEND_START,1602650862760,6,
851,0,14,WS_SEND_END,1602650862760,6,
851,0,14,WS_RECV_INIT_START,1602650862760,7,
851,0,14,WS_RECV_INIT_END,1602650862772,7,
851,0,14,WS_RECV_START,1602650862772,8,
851,0,14,WS_RECV_END,1602650862821,8,
851,0,14,PLAYBACK_SLEEPBEFORE_START,1602650862821,9,
851,0,14,PLAYBACK_SLEEPBEFORE_END,1602650864766,9,
851,0,14,WS_SEND_START,1602650864766,9,
851,0,14,WS_SEND_END,1602650864766,9,
851,0,14,PLAYBACK_SLEEPBEFORE_START,1602650864766,10,
851,0,14,PLAYBACK_SLEEPBEFORE_END,1602650865313,10,
851,0,14,WS_SEND_START,1602650865314,10,
851,0,14,WS_SEND_END,1602650865314,10,
851,0,14,WS_RECV_START,1602650865314,11,
851,0,14,WS_RECV_END,1602650868910,11,
851,0,14,PLAYBACK_SLEEPBEFORE_START,1602650868910,12,
851,0,14,PLAYBACK_SLEEPBEFORE_END,1602650870317,12,
851,0,14,WS_CLOSE_START,1602650870317,12,
851,0,14,WS_CLOSE_END,1602650870318,12,
851,0,14,PLAYBACK_DONE,1602650870318,0,
