# http://denbi-training.bihealth.org --workers 55 --loaded-duration-minutes 2 --output-dir training-15nodes-55
# {"appUrl":"http://denbi-training.bihealth.org","debugLog":false,"loadedDurationMinutes":2.0,"logLevel":"WARN","outputDir":"training-15nodes-55","overwriteOutput":false,"recordingPath":"recording.log","workers":55}
session_id,worker_id,iteration,event,timestamp,input_line_number,comment
852,42,13,PLAYER_SESSION_CREATE,1602650861428,0,
852,42,13,REQ_HOME_START,1602650861428,4,
852,42,13,REQ_HOME_END,1602650861544,4,
852,42,13,WS_OPEN_START,1602650861545,5,
852,42,13,WS_OPEN_END,1602650863964,5,
852,42,13,PLAYBACK_SLEEPBEFORE_START,1602650863964,6,
852,42,13,PLAYBACK_SLEEPBEFORE_END,1602650863967,6,
852,42,13,WS_SEND_START,1602650863967,6,
852,42,13,WS_SEND_END,1602650863967,6,
852,42,13,WS_RECV_INIT_START,1602650863967,7,
852,42,13,WS_RECV_INIT_END,1602650864008,7,
852,42,13,WS_RECV_START,1602650864008,8,
852,42,13,WS_RECV_END,1602650864079,8,
852,42,13,PLAYBACK_SLEEPBEFORE_START,1602650864079,9,
852,42,13,PLAYBACK_SLEEPBEFORE_END,1602650866024,9,
852,42,13,WS_SEND_START,1602650866024,9,
852,42,13,WS_SEND_END,1602650866024,9,
852,42,13,PLAYBACK_SLEEPBEFORE_START,1602650866024,10,
852,42,13,PLAYBACK_SLEEPBEFORE_END,1602650866571,10,
852,42,13,WS_SEND_START,1602650866571,10,
852,42,13,WS_SEND_END,1602650866571,10,
852,42,13,WS_RECV_START,1602650866571,11,
852,42,13,WS_RECV_END,1602650868606,11,
852,42,13,PLAYBACK_SLEEPBEFORE_START,1602650868606,12,
852,42,13,PLAYBACK_SLEEPBEFORE_END,1602650870013,12,
852,42,13,WS_CLOSE_START,1602650870013,12,
852,42,13,WS_CLOSE_END,1602650870013,12,
852,42,13,PLAYBACK_DONE,1602650870013,0,
