# http://denbi-training.bihealth.org --workers 55 --loaded-duration-minutes 2 --output-dir training-15nodes-55
# {"appUrl":"http://denbi-training.bihealth.org","debugLog":false,"loadedDurationMinutes":2.0,"logLevel":"WARN","outputDir":"training-15nodes-55","overwriteOutput":false,"recordingPath":"recording.log","workers":55}
session_id,worker_id,iteration,event,timestamp,input_line_number,comment
868,36,15,PLAYER_SESSION_CREATE,1602650863172,0,
868,36,15,REQ_HOME_START,1602650863172,4,
868,36,15,REQ_HOME_END,1602650863269,4,
868,36,15,WS_OPEN_START,1602650863269,5,
868,36,15,WS_OPEN_END,1602650863889,5,
868,36,15,PLAYBACK_SLEEPBEFORE_START,1602650863890,6,
868,36,15,PLAYBACK_SLEEPBEFORE_END,1602650863893,6,
868,36,15,WS_SEND_START,1602650863893,6,
868,36,15,WS_SEND_END,1602650863893,6,
868,36,15,WS_RECV_INIT_START,1602650863893,7,
868,36,15,WS_RECV_INIT_END,1602650863893,7,
868,36,15,WS_RECV_START,1602650863893,8,
868,36,15,WS_RECV_END,1602650863948,8,
868,36,15,PLAYBACK_SLEEPBEFORE_START,1602650863948,9,
868,36,15,PLAYBACK_SLEEPBEFORE_END,1602650865893,9,
868,36,15,WS_SEND_START,1602650865893,9,
868,36,15,WS_SEND_END,1602650865893,9,
868,36,15,PLAYBACK_SLEEPBEFORE_START,1602650865893,10,
868,36,15,PLAYBACK_SLEEPBEFORE_END,1602650866440,10,
868,36,15,WS_SEND_START,1602650866440,10,
868,36,15,WS_SEND_END,1602650866440,10,
868,36,15,WS_RECV_START,1602650866440,11,
868,36,15,WS_RECV_END,1602650867772,11,
868,36,15,PLAYBACK_SLEEPBEFORE_START,1602650867772,12,
868,36,15,PLAYBACK_SLEEPBEFORE_END,1602650869179,12,
868,36,15,WS_CLOSE_START,1602650869179,12,
868,36,15,WS_CLOSE_END,1602650869180,12,
868,36,15,PLAYBACK_DONE,1602650869180,0,
