# http://denbi-training.bihealth.org --workers 55 --loaded-duration-minutes 2 --output-dir training-15nodes-55
# {"appUrl":"http://denbi-training.bihealth.org","debugLog":false,"loadedDurationMinutes":2.0,"logLevel":"WARN","outputDir":"training-15nodes-55","overwriteOutput":false,"recordingPath":"recording.log","workers":55}
session_id,worker_id,iteration,event,timestamp,input_line_number,comment
871,2,17,PLAYER_SESSION_CREATE,1602650863490,0,
871,2,17,REQ_HOME_START,1602650863490,4,
871,2,17,REQ_HOME_END,1602650863588,4,
871,2,17,WS_OPEN_START,1602650863588,5,
871,2,17,WS_OPEN_END,1602650863659,5,
871,2,17,PLAYBACK_SLEEPBEFORE_START,1602650863659,6,
871,2,17,PLAYBACK_SLEEPBEFORE_END,1602650863662,6,
871,2,17,WS_SEND_START,1602650863662,6,
871,2,17,WS_SEND_END,1602650863663,6,
871,2,17,WS_RECV_INIT_START,1602650863663,7,
871,2,17,WS_RECV_INIT_END,1602650863666,7,
871,2,17,WS_RECV_START,1602650863666,8,
871,2,17,WS_RECV_END,1602650863703,8,
871,2,17,PLAYBACK_SLEEPBEFORE_START,1602650863703,9,
871,2,17,PLAYBACK_SLEEPBEFORE_END,1602650865648,9,
871,2,17,WS_SEND_START,1602650865648,9,
871,2,17,WS_SEND_END,1602650865648,9,
871,2,17,PLAYBACK_SLEEPBEFORE_START,1602650865648,10,
871,2,17,PLAYBACK_SLEEPBEFORE_END,1602650866196,10,
871,2,17,WS_SEND_START,1602650866196,10,
871,2,17,WS_SEND_END,1602650866196,10,
871,2,17,WS_RECV_START,1602650866196,11,
871,2,17,WS_RECV_END,1602650870221,11,
871,2,17,PLAYBACK_SLEEPBEFORE_START,1602650870221,12,
871,2,17,PLAYBACK_SLEEPBEFORE_END,1602650871629,12,
871,2,17,WS_CLOSE_START,1602650871629,12,
871,2,17,WS_CLOSE_END,1602650871629,12,
871,2,17,PLAYBACK_DONE,1602650871629,0,
