# http://denbi-training.bihealth.org --workers 55 --loaded-duration-minutes 2 --output-dir training-15nodes-55
# {"appUrl":"http://denbi-training.bihealth.org","debugLog":false,"loadedDurationMinutes":2.0,"logLevel":"WARN","outputDir":"training-15nodes-55","overwriteOutput":false,"recordingPath":"recording.log","workers":55}
session_id,worker_id,iteration,event,timestamp,input_line_number,comment
896,40,15,PLAYER_SESSION_CREATE,1602650866998,0,
896,40,15,REQ_HOME_START,1602650866999,4,
896,40,15,REQ_HOME_END,1602650867118,4,
896,40,15,WS_OPEN_START,1602650867118,5,
896,40,15,WS_OPEN_END,1602650869683,5,
896,40,15,PLAYBACK_SLEEPBEFORE_START,1602650869683,6,
896,40,15,PLAYBACK_SLEEPBEFORE_END,1602650869686,6,
896,40,15,WS_SEND_START,1602650869686,6,
896,40,15,WS_SEND_END,1602650869686,6,
896,40,15,WS_RECV_INIT_START,1602650869686,7,
896,40,15,WS_RECV_INIT_END,1602650869715,7,
896,40,15,WS_RECV_START,1602650869715,8,
896,40,15,WS_RECV_END,1602650869739,8,
896,40,15,PLAYBACK_SLEEPBEFORE_START,1602650869739,9,
896,40,15,PLAYBACK_SLEEPBEFORE_END,1602650871684,9,
896,40,15,WS_SEND_START,1602650871684,9,
896,40,15,WS_SEND_END,1602650871684,9,
896,40,15,PLAYBACK_SLEEPBEFORE_START,1602650871685,10,
896,40,15,PLAYBACK_SLEEPBEFORE_END,1602650872232,10,
896,40,15,WS_SEND_START,1602650872232,10,
896,40,15,WS_SEND_END,1602650872232,10,
896,40,15,WS_RECV_START,1602650872232,11,
896,40,15,WS_RECV_END,1602650874843,11,
896,40,15,PLAYBACK_SLEEPBEFORE_START,1602650874843,12,
896,40,15,PLAYBACK_SLEEPBEFORE_END,1602650876250,12,
896,40,15,WS_CLOSE_START,1602650876250,12,
896,40,15,WS_CLOSE_END,1602650876250,12,
896,40,15,PLAYBACK_DONE,1602650876250,0,
