# http://denbi-training.bihealth.org --workers 55 --loaded-duration-minutes 2 --output-dir training-15nodes-55
# {"appUrl":"http://denbi-training.bihealth.org","debugLog":false,"loadedDurationMinutes":2.0,"logLevel":"WARN","outputDir":"training-15nodes-55","overwriteOutput":false,"recordingPath":"recording.log","workers":55}
session_id,worker_id,iteration,event,timestamp,input_line_number,comment
904,28,17,PLAYER_SESSION_CREATE,1602650868507,0,
904,28,17,REQ_HOME_START,1602650868508,4,
904,28,17,REQ_HOME_END,1602650868957,4,
904,28,17,WS_OPEN_START,1602650868957,5,
904,28,17,WS_OPEN_END,1602650869026,5,
904,28,17,PLAYBACK_SLEEPBEFORE_START,1602650869026,6,
904,28,17,PLAYBACK_SLEEPBEFORE_END,1602650869029,6,
904,28,17,WS_SEND_START,1602650869029,6,
904,28,17,WS_SEND_END,1602650869029,6,
904,28,17,WS_RECV_INIT_START,1602650869029,7,
904,28,17,WS_RECV_INIT_END,1602650869034,7,
904,28,17,WS_RECV_START,1602650869034,8,
904,28,17,WS_RECV_END,1602650869083,8,
904,28,17,PLAYBACK_SLEEPBEFORE_START,1602650869083,9,
904,28,17,PLAYBACK_SLEEPBEFORE_END,1602650871028,9,
904,28,17,WS_SEND_START,1602650871028,9,
904,28,17,WS_SEND_END,1602650871028,9,
904,28,17,PLAYBACK_SLEEPBEFORE_START,1602650871028,10,
904,28,17,PLAYBACK_SLEEPBEFORE_END,1602650871576,10,
904,28,17,WS_SEND_START,1602650871576,10,
904,28,17,WS_SEND_END,1602650871576,10,
904,28,17,WS_RECV_START,1602650871576,11,
904,28,17,WS_RECV_END,1602650873784,11,
904,28,17,PLAYBACK_SLEEPBEFORE_START,1602650873784,12,
904,28,17,PLAYBACK_SLEEPBEFORE_END,1602650875192,12,
904,28,17,WS_CLOSE_START,1602650875192,12,
904,28,17,WS_CLOSE_END,1602650875192,12,
904,28,17,PLAYBACK_DONE,1602650875192,0,
