# http://denbi-training.bihealth.org --workers 55 --loaded-duration-minutes 2 --output-dir training-15nodes-55
# {"appUrl":"http://denbi-training.bihealth.org","debugLog":false,"loadedDurationMinutes":2.0,"logLevel":"WARN","outputDir":"training-15nodes-55","overwriteOutput":false,"recordingPath":"recording.log","workers":55}
session_id,worker_id,iteration,event,timestamp,input_line_number,comment
98,53,1,PLAYER_SESSION_CREATE,1602650755183,0,
98,53,1,REQ_HOME_START,1602650755183,4,
98,53,1,REQ_HOME_END,1602650755948,4,
98,53,1,WS_OPEN_START,1602650755948,5,
98,53,1,WS_OPEN_END,1602650756694,5,
98,53,1,PLAYBACK_SLEEPBEFORE_START,1602650756694,6,
98,53,1,PLAYBACK_SLEEPBEFORE_END,1602650756697,6,
98,53,1,WS_SEND_START,1602650756697,6,
98,53,1,WS_SEND_END,1602650756697,6,
98,53,1,WS_RECV_INIT_START,1602650756697,7,
98,53,1,WS_RECV_INIT_END,1602650756707,7,
98,53,1,WS_RECV_START,1602650756707,8,
98,53,1,WS_RECV_END,1602650756749,8,
98,53,1,PLAYBACK_SLEEPBEFORE_START,1602650756749,9,
98,53,1,PLAYBACK_SLEEPBEFORE_END,1602650758694,9,
98,53,1,WS_SEND_START,1602650758694,9,
98,53,1,WS_SEND_END,1602650758694,9,
98,53,1,PLAYBACK_SLEEPBEFORE_START,1602650758694,10,
98,53,1,PLAYBACK_SLEEPBEFORE_END,1602650759241,10,
98,53,1,WS_SEND_START,1602650759241,10,
98,53,1,WS_SEND_END,1602650759241,10,
98,53,1,WS_RECV_START,1602650759241,11,
98,53,1,WS_RECV_END,1602650760377,11,
98,53,1,PLAYBACK_SLEEPBEFORE_START,1602650760377,12,
98,53,1,PLAYBACK_SLEEPBEFORE_END,1602650761784,12,
98,53,1,WS_CLOSE_START,1602650761784,12,
98,53,1,WS_CLOSE_END,1602650761784,12,
98,53,1,PLAYBACK_DONE,1602650761784,0,
